6-transfer-jump-branch/openmips_min_sopc_tb.vcd
$date
	Fri Jan  7 18:36:50 2022
$end
$version
	Icarus Verilog
$end
$timescale
	1ps
$end
$scope module openmips_min_sopc_tb $end
$var reg 1 ! clk $end
$var reg 1 " rst $end
$scope module openmips_min_sopc0 $end
$var wire 1 ! clk $end
$var wire 1 " rst $end
$var wire 1 # rom_ce $end
$var wire 32 $ inst_addr [31:0] $end
$var wire 32 % inst [31:0] $end
$scope module inst_rom0 $end
$var wire 1 # ce $end
$var wire 32 & addr [31:0] $end
$var reg 32 ' inst [31:0] $end
$upscope $end
$scope module openmips0 $end
$var wire 1 ! clk $end
$var wire 32 ( rom_addr_o [31:0] $end
$var wire 32 ) rom_data_i [31:0] $end
$var wire 1 " rst $end
$var wire 1 * wb_wreg_i $end
$var wire 1 + wb_whilo $end
$var wire 32 , wb_wdata_i [31:0] $end
$var wire 5 - wb_wd_i [4:0] $end
$var wire 32 . wb_lo [31:0] $end
$var wire 32 / wb_hi [31:0] $end
$var wire 1 0 stall_from_id $end
$var wire 1 1 stall_from_ex $end
$var wire 1 # rom_ce_o $end
$var wire 1 2 reg2_read $end
$var wire 32 3 reg2_data [31:0] $end
$var wire 5 4 reg2_addr [4:0] $end
$var wire 1 5 reg1_read $end
$var wire 32 6 reg1_data [31:0] $end
$var wire 5 7 reg1_addr [4:0] $end
$var wire 32 8 pc [31:0] $end
$var wire 1 9 mem_wreg_o $end
$var wire 1 : mem_wreg_i $end
$var wire 1 ; mem_whilo_o $end
$var wire 32 < mem_wdata_o [31:0] $end
$var wire 32 = mem_wdata_i [31:0] $end
$var wire 5 > mem_wd_o [4:0] $end
$var wire 5 ? mem_wd_i [4:0] $end
$var wire 32 @ mem_lo_o [31:0] $end
$var wire 32 A mem_hi_o [31:0] $end
$var wire 1 B idex_id_is_in_delayslot $end
$var wire 32 C idex_ex_link_address [31:0] $end
$var wire 1 D idex_ex_is_in_delayslot $end
$var wire 1 E id_wreg_o $end
$var wire 5 F id_wd_o [4:0] $end
$var wire 32 G id_reg2_o [31:0] $end
$var wire 32 H id_reg1_o [31:0] $end
$var wire 32 I id_pc_i [31:0] $end
$var wire 32 J id_pc_branch_target_address [31:0] $end
$var wire 1 K id_pc_branch_flag $end
$var wire 32 L id_inst_i [31:0] $end
$var wire 1 M id_idex_next_inst_in_delayslot $end
$var wire 32 N id_idex_link_addr [31:0] $end
$var wire 1 O id_idex_is_in_delayslot $end
$var wire 3 P id_alusel_o [2:0] $end
$var wire 8 Q id_aluop_o [7:0] $end
$var wire 32 R hilo_lo_o [31:0] $end
$var wire 32 S hilo_hi_o [31:0] $end
$var wire 1 T exmem_whilo_o $end
$var wire 32 U exmem_lo_o [31:0] $end
$var wire 32 V exmem_hi_o [31:0] $end
$var wire 1 W ex_wreg_o $end
$var wire 1 X ex_wreg_i $end
$var wire 1 Y ex_whilo_o $end
$var wire 32 Z ex_wdata_o [31:0] $end
$var wire 5 [ ex_wd_o [4:0] $end
$var wire 5 \ ex_wd_i [4:0] $end
$var wire 1 ] ex_signed_div_o $end
$var wire 32 ^ ex_reg2_i [31:0] $end
$var wire 32 _ ex_reg1_i [31:0] $end
$var wire 32 ` ex_lo_o [31:0] $end
$var wire 64 a ex_hilo_temp_o [63:0] $end
$var wire 64 b ex_hilo_temp_i [63:0] $end
$var wire 32 c ex_hi_o [31:0] $end
$var wire 1 d ex_div_start_o $end
$var wire 64 e ex_div_result_i [63:0] $end
$var wire 1 f ex_div_ready_i $end
$var wire 32 g ex_div_opdata2_o [31:0] $end
$var wire 32 h ex_div_opdata1_o [31:0] $end
$var wire 2 i ex_cnt_o [1:0] $end
$var wire 2 j ex_cnt_i [1:0] $end
$var wire 3 k ex_alusel_i [2:0] $end
$var wire 8 l ex_aluop_i [7:0] $end
$var wire 6 m ctrl_stall_o [5:0] $end
$scope module ctrl0 $end
$var wire 1 " rst $end
$var wire 1 0 stall_from_id $end
$var wire 1 1 stall_from_ex $end
$var reg 6 n stall [5:0] $end
$upscope $end
$scope module div0 $end
$var wire 1 " Rst_n $end
$var wire 1 o annul_i $end
$var wire 1 ! clk $end
$var wire 1 d start_i $end
$var wire 1 ] signed_div_i $end
$var wire 32 p opdata2_i [31:0] $end
$var wire 32 q opdata1_i [31:0] $end
$var wire 33 r div_temp [32:0] $end
$var reg 6 s cnt [5:0] $end
$var reg 65 t dividend [64:0] $end
$var reg 32 u divisor [31:0] $end
$var reg 1 f ready_o $end
$var reg 64 v result_o [63:0] $end
$var reg 2 w state [1:0] $end
$var reg 32 x temp_op1 [31:0] $end
$var reg 32 y temp_op2 [31:0] $end
$upscope $end
$scope module ex0 $end
$var wire 1 " Rst_n $end
$var wire 1 f div_ready_i $end
$var wire 64 z div_result_i [63:0] $end
$var wire 1 { ov_sum $end
$var wire 32 | reg1_i_not [31:0] $end
$var wire 1 X wreg_i $end
$var wire 5 } wd_i [4:0] $end
$var wire 1 + wb_wen_hilo $end
$var wire 32 ~ wb_lo_i [31:0] $end
$var wire 32 !" wb_hi_i [31:0] $end
$var wire 32 "" result_sum [31:0] $end
$var wire 32 #" reg2_i_mux [31:0] $end
$var wire 32 $" reg2_i [31:0] $end
$var wire 1 %" reg1_lt_reg2 $end
$var wire 32 &" reg1_i [31:0] $end
$var wire 32 '" opdata2_mult [31:0] $end
$var wire 32 (" opdata1_mult [31:0] $end
$var wire 1 ; mem_wen_hilo $end
$var wire 32 )" mem_lo_i [31:0] $end
$var wire 32 *" mem_hi_i [31:0] $end
$var wire 32 +" lo_i [31:0] $end
$var wire 32 ," link_addres_i [31:0] $end
$var wire 1 D is_in_delayslot_i $end
$var wire 64 -" hilo_tmp [63:0] $end
$var wire 64 ." hilo_temp_i [63:0] $end
$var wire 32 /" hi_i [31:0] $end
$var wire 2 0" cnt_i [1:0] $end
$var wire 3 1" alusel_i [2:0] $end
$var wire 8 2" aluop_i [7:0] $end
$var reg 32 3" HI [31:0] $end
$var reg 32 4" LO [31:0] $end
$var reg 32 5" arithres [31:0] $end
$var reg 2 6" cnt_o [1:0] $end
$var reg 32 7" div_opdata1_o [31:0] $end
$var reg 32 8" div_opdata2_o [31:0] $end
$var reg 1 d div_start_o $end
$var reg 32 9" hi_o [31:0] $end
$var reg 64 :" hilo_temp1 [63:0] $end
$var reg 64 ;" hilo_temp_o [63:0] $end
$var reg 32 <" lo_o [31:0] $end
$var reg 32 =" logicout [31:0] $end
$var reg 32 >" movres [31:0] $end
$var reg 64 ?" mulres [63:0] $end
$var reg 32 @" shiftres [31:0] $end
$var reg 1 ] signed_div_o $end
$var reg 1 1 stall_req_ex $end
$var reg 1 A" stallreq_for_div $end
$var reg 1 B" stallreq_for_madd_msub $end
$var reg 5 C" wd_o [4:0] $end
$var reg 32 D" wdata_o [31:0] $end
$var reg 1 Y whilo_o $end
$var reg 1 W wreg_o $end
$upscope $end
$scope module ex_mem0 $end
$var wire 1 " Rst_n $end
$var wire 1 ! clk $end
$var wire 2 E" cnt_i [1:0] $end
$var wire 32 F" ex_hi_i [31:0] $end
$var wire 32 G" ex_lo_i [31:0] $end
$var wire 5 H" ex_wd [4:0] $end
$var wire 32 I" ex_wdata [31:0] $end
$var wire 1 Y ex_whilo $end
$var wire 1 W ex_wreg $end
$var wire 64 J" hilo_temp_i [63:0] $end
$var wire 6 K" stall [5:0] $end
$var reg 2 L" cnt_o [1:0] $end
$var reg 64 M" hilo_temp_o [63:0] $end
$var reg 32 N" mem_hi_o [31:0] $end
$var reg 32 O" mem_lo_o [31:0] $end
$var reg 5 P" mem_wd [4:0] $end
$var reg 32 Q" mem_wdata [31:0] $end
$var reg 1 T mem_whilo $end
$var reg 1 : mem_wreg $end
$upscope $end
$scope module hilo $end
$var wire 1 ! clk $end
$var wire 1 " rst $end
$var wire 1 + we $end
$var wire 32 R" lo_in [31:0] $end
$var wire 32 S" hi_in [31:0] $end
$var reg 32 T" hi_o [31:0] $end
$var reg 32 U" lo_o [31:0] $end
$upscope $end
$scope module id0 $end
$var wire 1 " Rst_n $end
$var wire 5 V" ex_wd_i [4:0] $end
$var wire 32 W" ex_wdata_i [31:0] $end
$var wire 1 W ex_wreg_i $end
$var wire 32 X" reg2_data_i [31:0] $end
$var wire 32 Y" reg1_data_i [31:0] $end
$var wire 32 Z" pc_plus_8 [31:0] $end
$var wire 32 [" pc_plus_4 [31:0] $end
$var wire 32 \" pc_i [31:0] $end
$var wire 5 ]" op4 [4:0] $end
$var wire 6 ^" op3 [5:0] $end
$var wire 5 _" op2 [4:0] $end
$var wire 6 `" op [5:0] $end
$var wire 1 9 mem_wreg_i $end
$var wire 32 a" mem_wdata_i [31:0] $end
$var wire 5 b" mem_wd_i [4:0] $end
$var wire 1 B is_in_delayslot_i $end
$var wire 32 c" inst_i [31:0] $end
$var wire 32 d" imm_sll2_signedext [31:0] $end
$var reg 8 e" aluop_o [7:0] $end
$var reg 3 f" alusel_o [2:0] $end
$var reg 1 K branch_flag_o $end
$var reg 32 g" branch_target_addr_o [31:0] $end
$var reg 32 h" imm [31:0] $end
$var reg 1 i" inst_valid $end
$var reg 1 O is_in_delayslot_o $end
$var reg 32 j" link_addr_o [31:0] $end
$var reg 1 M next_inst_in_delayslot_o $end
$var reg 5 k" reg1_addr_o [4:0] $end
$var reg 32 l" reg1_o [31:0] $end
$var reg 1 5 reg1_read_o $end
$var reg 5 m" reg2_addr_o [4:0] $end
$var reg 32 n" reg2_o [31:0] $end
$var reg 1 2 reg2_read_o $end
$var reg 1 0 stall_req_id $end
$var reg 5 o" wd_o [4:0] $end
$var reg 1 E wreg_o $end
$upscope $end
$scope module id_ex0 $end
$var wire 1 ! Clk $end
$var wire 1 " Rst_n $end
$var wire 8 p" id_aluop [7:0] $end
$var wire 3 q" id_alusel [2:0] $end
$var wire 1 O id_is_in_delayslot_i $end
$var wire 32 r" id_link_address_i [31:0] $end
$var wire 32 s" id_reg1 [31:0] $end
$var wire 32 t" id_reg2 [31:0] $end
$var wire 5 u" id_wd [4:0] $end
$var wire 1 E id_wreg $end
$var wire 1 M next_inst_in_delayslot_i $end
$var wire 6 v" stall [5:0] $end
$var reg 8 w" ex_aluop [7:0] $end
$var reg 3 x" ex_alusel [2:0] $end
$var reg 1 D ex_is_in_delayslot_o $end
$var reg 32 y" ex_link_address_o [31:0] $end
$var reg 32 z" ex_reg1 [31:0] $end
$var reg 32 {" ex_reg2 [31:0] $end
$var reg 5 |" ex_wd [4:0] $end
$var reg 1 X ex_wreg $end
$var reg 1 B is_in_delayslot_o $end
$upscope $end
$scope module if_id0 $end
$var wire 1 ! Clk $end
$var wire 1 " Rst_n $end
$var wire 32 }" if_inst [31:0] $end
$var wire 6 ~" stall [5:0] $end
$var wire 32 !# if_pc [31:0] $end
$var reg 32 "# id_inst [31:0] $end
$var reg 32 ## id_pc [31:0] $end
$upscope $end
$scope module mem0 $end
$var wire 32 $# hi_i [31:0] $end
$var wire 32 %# lo_i [31:0] $end
$var wire 1 " rst $end
$var wire 5 &# wd_i [4:0] $end
$var wire 32 '# wdata_i [31:0] $end
$var wire 1 T whilo_i $end
$var wire 1 : wreg_i $end
$var reg 32 (# hi_o [31:0] $end
$var reg 32 )# lo_o [31:0] $end
$var reg 5 *# wd_o [4:0] $end
$var reg 32 +# wdata_o [31:0] $end
$var reg 1 ; whilo_o $end
$var reg 1 9 wreg_o $end
$upscope $end
$scope module mem_wb0 $end
$var wire 1 ! clk $end
$var wire 32 ,# mem_hi_i [31:0] $end
$var wire 32 -# mem_lo_i [31:0] $end
$var wire 5 .# mem_wd [4:0] $end
$var wire 32 /# mem_wdata [31:0] $end
$var wire 1 ; mem_whilo_i $end
$var wire 1 9 mem_wreg $end
$var wire 1 " rst $end
$var wire 6 0# stall [5:0] $end
$var reg 32 1# wb_hi_o [31:0] $end
$var reg 32 2# wb_lo_o [31:0] $end
$var reg 5 3# wb_wd [4:0] $end
$var reg 32 4# wb_wdata [31:0] $end
$var reg 1 + wb_whilo_o $end
$var reg 1 * wb_wreg $end
$upscope $end
$scope module pc_reg0 $end
$var wire 1 ! Clk $end
$var wire 1 " Rst $end
$var wire 1 K branch_flag_i $end
$var wire 32 5# branch_target_address_i [31:0] $end
$var wire 6 6# stall [5:0] $end
$var reg 1 # ce $end
$var reg 32 7# pc [31:0] $end
$upscope $end
$scope module reg_file0 $end
$var wire 1 ! Clk $end
$var wire 1 " Rst_n $end
$var wire 5 8# raddr1 [4:0] $end
$var wire 5 9# raddr2 [4:0] $end
$var wire 1 5 re1 $end
$var wire 1 2 re2 $end
$var wire 5 :# waddr [4:0] $end
$var wire 32 ;# wdata [31:0] $end
$var wire 1 * we $end
$var reg 32 <# rdata1 [31:0] $end
$var reg 32 =# rdata2 [31:0] $end
$upscope $end
$upscope $end
$upscope $end
$upscope $end
$enddefinitions $end
#0
$dumpvars
b0 =#
b0 <#
bx ;#
bx :#
b0 9#
b0 8#
bx 7#
b0 6#
b0 5#
bx 4#
bx 3#
bx 2#
bx 1#
b0 0#
b0 /#
b0 .#
b0 -#
b0 ,#
b0 +#
b0 *#
b0 )#
b0 (#
bx '#
bx &#
bx %#
bx $#
bx ##
bx "#
bx !#
b0 ~"
bx }"
bx |"
bx {"
bx z"
bx y"
bx x"
bx w"
b0 v"
b0 u"
b0 t"
b0 s"
b0 r"
b0 q"
b0 p"
b0 o"
b0 n"
b0 m"
b0 l"
b0 k"
b0 j"
1i"
b0 h"
b0 g"
b0 f"
b0 e"
bx00 d"
bx c"
b0 b"
b0 a"
bx `"
bx _"
bx ^"
bx ]"
bx \"
bx ["
bx Z"
b0 Y"
b0 X"
b0 W"
bx V"
bx U"
bx T"
bx S"
bx R"
bx Q"
bx P"
bx O"
bx N"
bx M"
bx L"
b0 K"
b0 J"
b0 I"
bx H"
b0 G"
b0 F"
b0 E"
b0 D"
bx C"
0B"
0A"
b0 @"
b0 ?"
b0 >"
b0 ="
b0 <"
b0 ;"
bx :"
b0 9"
b0 8"
b0 7"
b0 6"
b0 5"
b0 4"
b0 3"
bx 2"
bx 1"
bx 0"
bx /"
bx ."
bx -"
bx ,"
bx +"
b0 *"
b0 )"
bx ("
bx '"
bx &"
x%"
bx $"
bx #"
bx ""
bx !"
bx ~
bx }
bx |
x{
bx z
bx y
bx x
bx w
bx v
bx u
bx t
bx s
bx r
b0 q
b0 p
0o
b0 n
b0 m
bx l
bx k
bx j
b0 i
b0 h
b0 g
xf
bx e
0d
b0 c
bx b
b0 a
b0 `
bx _
bx ^
0]
bx \
bx [
b0 Z
0Y
xX
xW
bx V
bx U
xT
bx S
bx R
b0 Q
b0 P
0O
b0 N
0M
bx L
0K
b0 J
bx I
b0 H
b0 G
b0 F
0E
xD
bx C
xB
b0 A
b0 @
bx ?
b0 >
bx =
b0 <
0;
x:
09
bx 8
b0 7
b0 6
05
b0 4
b0 3
02
01
00
bx /
bx .
bx -
bx ,
x+
x*
bx )
bx (
bx '
bx &
bx %
bx $
x#
1"
0!
$end
#10000
b0 %
b0 '
b0 )
b0 }"
0W
b0 [
b0 C"
b0 H"
b0 V"
0{
b0 d"
b0 ]"
b0 ^"
b0 _"
b0 `"
b0 -"
b0 '"
b0 ""
b0 #"
b0 ("
b11111111111111111111111111111111 |
0%"
0#
b0 L
b0 c"
b0 "#
b100 ["
b1000 Z"
b0 I
b0 \"
b0 ##
0B
0D
b0 C
b0 ,"
b0 y"
0X
b0 \
b0 }
b0 |"
b0 ^
b0 $"
b0 {"
b0 _
b0 &"
b0 z"
b0 k
b0 1"
b0 x"
b0 l
b0 2"
b0 w"
b0 =
b0 Q"
b0 '#
0:
b0 ?
b0 P"
b0 &#
b0 U
b0 O"
b0 %#
b0 V
b0 N"
b0 $#
0T
b0 ,
b0 4#
b0 ;#
0*
b0 -
b0 3#
b0 :#
b0 .
b0 ~
b0 R"
b0 2#
b0 /
b0 !"
b0 S"
b0 1#
0+
b0 R
b0 +"
b0 U"
b0 S
b0 /"
b0 T"
b0 t
b0 w
0f
b0 e
b0 v
b0 z
1!
#20000
0!
#30000
b0 $
b0 &
b0 (
b0 8
b0 !#
b0 7#
1!
#40000
0!
#50000
1!
#60000
0!
#70000
1!
#80000
0!
#90000
1!
#100000
0!
#110000
1!
#120000
0!
#130000
1!
#140000
0!
#150000
1!
#160000
0!
#170000
1!
#180000
0!
#190000
1!
#195000
b0 :"
12
b10 P
b10 f"
b10 q"
b1111100 Q
b1111100 e"
b1111100 p"
1E
1i"
0"
#200000
0!
#210000
b110100000000111000000000000000 %
b110100000000111000000000000000 '
b110100000000111000000000000000 )
b110100000000111000000000000000 }"
1W
1#
1X
b10 k
b10 1"
b10 x"
b1111100 l
b1111100 2"
b1111100 w"
b0 j
b0 0"
b0 L"
b0 b
b0 ."
b0 M"
1!
#220000
0!
#230000
b1000000000000000 G
b1000000000000000 n"
b1000000000000000 t"
b1000000000000000 h"
15
19
b11 4
b11 m"
b11 9#
02
1i"
1E
b11 F
b11 o"
b11 u"
b1 P
b1 f"
b1 q"
b100101 Q
b100101 e"
b100101 p"
b110001110000000000 %
b110001110000000000 '
b110001110000000000 )
b110001110000000000 }"
b11111111111111100000000000000000 d"
b11 ]"
b1101 `"
1:
b110100000000111000000000000000 L
b110100000000111000000000000000 c"
b110100000000111000000000000000 "#
b100 $
b100 &
b100 (
b100 8
b100 !#
b100 7#
1!
#240000
0!
#250000
bx 3
bx X"
bx =#
b1000000000000000 G
b1000000000000000 n"
b1000000000000000 t"
b10000 H
b10000 l"
b10000 s"
b1000000000000000 Z
b1000000000000000 D"
b1000000000000000 I"
b1000000000000000 W"
b110100000000010000000000000001 %
b110100000000010000000000000001 '
b110100000000010000000000000001 )
b110100000000010000000000000001 }"
12
b10000 h"
05
1i"
1E
b10 P
b10 f"
b10 q"
b1111100 Q
b1111100 e"
b1111100 p"
b11 [
b11 C"
b11 H"
b11 V"
b1000000000000000 ="
b111000000000000 d"
b10000 _"
b0 `"
b1000000000000000 '"
1%"
b1000000000000000 ""
b1000000000000000 #"
b1000 $
b1000 &
b1000 (
b1000 8
b1000 !#
b1000 7#
b110001110000000000 L
b110001110000000000 c"
b110001110000000000 "#
b1000 ["
b1100 Z"
b100 I
b100 \"
b100 ##
b11 \
b11 }
b11 |"
b1000000000000000 ^
b1000000000000000 $"
b1000000000000000 {"
b1 k
b1 1"
b1 x"
b100101 l
b100101 2"
b100101 w"
1*
1!
#260000
0!
#270000
b0 H
b0 l"
b0 s"
b1 G
b1 n"
b1 t"
b0 3
b0 X"
b0 =#
b10000000000000000000 ?"
15
b1000000000000000 <
b1000000000000000 a"
b1000000000000000 +#
b1000000000000000 /#
b11 >
b11 b"
b11 *#
b11 .#
b10000000000000000000000000000000 Z
b10000000000000000000000000000000 D"
b10000000000000000000000000000000 I"
b10000000000000000000000000000000 W"
b10000000000000000000000000000000 @"
b0 ="
b1 h"
b1 4
b1 m"
b1 9#
02
1i"
1E
b1 F
b1 o"
b1 u"
b1 P
b1 f"
b1 q"
b100101 Q
b100101 e"
b100101 p"
b10000000000000000000000000100 %
b10000000000000000000000000100 '
b10000000000000000000000000100 )
b10000000000000000000000000100 }"
b10000000000000000000 -"
b10000 ("
b11111111111111111111111111101111 |
b100 d"
b1 ]"
b1 ^"
b0 _"
b1101 `"
b1000000000000000 =
b1000000000000000 Q"
b1000000000000000 '#
b11 ?
b11 P"
b11 &#
b1000000000010000 ""
b10000 _
b10000 &"
b10000 z"
b10 k
b10 1"
b10 x"
b1111100 l
b1111100 2"
b1111100 w"
b110100000000010000000000000001 L
b110100000000010000000000000001 c"
b110100000000010000000000000001 "#
b1100 ["
b10000 Z"
b1000 I
b1000 \"
b1000 ##
b1100 $
b1100 &
b1100 (
b1100 8
b1100 !#
b1100 7#
1!
#280000
0!
#290000
1M
1K
b100000 J
b100000 g"
b100000 5#
b0 G
b0 n"
b0 t"
12
b0 ?"
b110100000000010000000000000010 %
b110100000000010000000000000010 '
b110100000000010000000000000010 )
b110100000000010000000000000010 }"
b0 h"
b0 4
b0 m"
b0 9#
15
1i"
0E
b0 F
b0 o"
b0 u"
b110 P
b110 f"
b110 q"
b1011001 Q
b1011001 e"
b1011001 p"
b1 Z
b1 D"
b1 I"
b1 W"
b1 [
b1 C"
b1 H"
b1 V"
b1 ="
b10000000000000000000000000000000 <
b10000000000000000000000000000000 a"
b10000000000000000000000000000000 +#
b10000000000000000000000000000000 /#
b10000 d"
b0 ]"
b100 ^"
b100 `"
b1 '"
b1 #"
b0 -"
b0 ("
b11111111111111111111111111111111 |
b10000 $
b10000 &
b10000 (
b10000 8
b10000 !#
b10000 7#
b10000000000000000000000000100 L
b10000000000000000000000000100 c"
b10000000000000000000000000100 "#
b10000 ["
b10100 Z"
b1100 I
b1100 \"
b1100 ##
b1 \
b1 }
b1 |"
b1 ^
b1 $"
b1 {"
b1 ""
b0 _
b0 &"
b0 z"
b1 k
b1 1"
b1 x"
b100101 l
b100101 2"
b100101 w"
b10000000000000000000000000000000 =
b10000000000000000000000000000000 Q"
b10000000000000000000000000000000 '#
b1000000000000000 ,
b1000000000000000 4#
b1000000000000000 ;#
b11 -
b11 3#
b11 :#
1!
#300000
0!
#310000
b10 G
b10 n"
b10 t"
b1 F
b1 o"
b1 u"
b10 h"
1E
b1 <
b1 a"
b1 +#
b1 /#
b1 >
b1 b"
b1 *#
b1 .#
1O
b0 Z
b0 D"
b0 I"
b0 W"
0W
b0 [
b0 C"
b0 H"
b0 V"
b0 ="
0M
0K
b0 J
b0 g"
b0 5#
b1 4
b1 m"
b1 9#
02
15
1i"
b1 P
b1 f"
b1 q"
b100101 Q
b100101 e"
b100101 p"
b110100000000010000000000000011 %
b110100000000010000000000000011 '
b110100000000010000000000000011 )
b110100000000010000000000000011 }"
b0 '"
0%"
b0 ""
b0 #"
b1000 d"
b1 ]"
b10 ^"
b1101 `"
b10000000000000000000000000000000 ,
b10000000000000000000000000000000 4#
b10000000000000000000000000000000 ;#
b1 =
b1 Q"
b1 '#
b1 ?
b1 P"
b1 &#
1B
0X
b0 \
b0 }
b0 |"
b0 ^
b0 $"
b0 {"
b110 k
b110 1"
b110 x"
b1011001 l
b1011001 2"
b1011001 w"
b110100000000010000000000000010 L
b110100000000010000000000000010 c"
b110100000000010000000000000010 "#
b10100 ["
b11000 Z"
b10000 I
b10000 \"
b10000 ##
b100000 $
b100000 &
b100000 (
b100000 8
b100000 !#
b100000 7#
1!
#320000
0!
#330000
b10 Z
b10 D"
b10 I"
b10 W"
b11 G
b11 n"
b11 t"
b100000100010000000000001010 %
b100000100010000000000001010 '
b100000100010000000000001010 )
b100000100010000000000001010 }"
b11 h"
15
1i"
1E
b1 F
b1 o"
b1 u"
b1 P
b1 f"
b1 q"
b100101 Q
b100101 e"
b100101 p"
0O
1W
b1 [
b1 C"
b1 H"
b1 V"
b10 ="
b0 <
b0 a"
b0 +#
b0 /#
09
b0 >
b0 b"
b0 *#
b0 .#
b1100 d"
b11 ^"
b10 '"
1%"
b10 ""
b10 #"
b100100 $
b100100 &
b100100 (
b100100 8
b100100 !#
b100100 7#
b110100000000010000000000000011 L
b110100000000010000000000000011 c"
b110100000000010000000000000011 "#
b100100 ["
b101000 Z"
b100000 I
b100000 \"
b100000 ##
0B
1D
1X
b1 \
b1 }
b1 |"
b10 ^
b10 $"
b10 {"
b1 k
b1 1"
b1 x"
b100101 l
b100101 2"
b100101 w"
b0 =
b0 Q"
b0 '#
0:
b0 ?
b0 P"
b0 &#
b1 ,
b1 4#
b1 ;#
b1 -
b1 3#
b1 :#
1!
#340000
0!
#350000
b11 Z
b11 D"
b11 I"
b11 W"
b0 G
b0 n"
b0 t"
1M
1K
b1010000 J
b1010000 g"
b1010000 5#
b101100 N
b101100 j"
b101100 r"
b10 <
b10 a"
b10 +#
b10 /#
19
b1 >
b1 b"
b1 *#
b1 .#
b11 ="
b0 h"
b10001 4
b10001 m"
b10001 9#
15
1i"
1E
b11111 F
b11111 o"
b11111 u"
b110 P
b110 f"
b110 q"
b1100000 Q
b1100000 e"
b1100000 p"
b11111000010000000000011010 %
b11111000010000000000011010 '
b11111000010000000000011010 )
b11111000010000000000011010 }"
b11 '"
b11 ""
b11 #"
b101000 d"
b10001 ]"
b1010 ^"
b1 `"
b0 ,
b0 4#
b0 ;#
0*
b0 -
b0 3#
b0 :#
b10 =
b10 Q"
b10 '#
1:
b1 ?
b1 P"
b1 &#
0D
b11 ^
b11 $"
b11 {"
b100000100010000000000001010 L
b100000100010000000000001010 c"
b100000100010000000000001010 "#
b101000 ["
b101100 Z"
b100100 I
b100100 \"
b100100 ##
b101000 $
b101000 &
b101000 (
b101000 8
b101000 !#
b101000 7#
1!
#360000
0!
#370000
b10 3
b10 X"
b10 =#
bx 6
bx Y"
bx <#
b11 G
b11 n"
b11 t"
b101100 H
b101100 l"
b101100 s"
12
b110100000000010000000000000100 %
b110100000000010000000000000100 '
b110100000000010000000000000100 )
b110100000000010000000000000100 }"
0M
0K
b0 J
b0 g"
b0 5#
b0 N
b0 j"
b0 r"
b1 4
b1 m"
b1 9#
b11111 7
b11111 k"
b11111 8#
15
1i"
0E
b0 F
b0 o"
b0 u"
b0 P
b0 f"
b0 q"
b1010011 Q
b1010011 e"
b1010011 p"
1O
b101100 Z
b101100 D"
b101100 I"
b101100 W"
b11111 [
b11111 C"
b11111 H"
b11111 V"
b0 ="
b11 <
b11 a"
b11 +#
b11 /#
b1101000 d"
b1 ]"
b11010 ^"
b0 `"
b0 '"
0%"
b0 ""
b0 #"
b1010000 $
b1010000 &
b1010000 (
b1010000 8
b1010000 !#
b1010000 7#
b11111000010000000000011010 L
b11111000010000000000011010 c"
b11111000010000000000011010 "#
b101100 ["
b110000 Z"
b101000 I
b101000 \"
b101000 ##
1B
b101100 C
b101100 ,"
b101100 y"
b11111 \
b11111 }
b11111 |"
b0 ^
b0 $"
b0 {"
b110 k
b110 1"
b110 x"
b1100000 l
b1100000 2"
b1100000 w"
b11 =
b11 Q"
b11 '#
b10 ,
b10 4#
b10 ;#
1*
b1 -
b1 3#
b1 :#
1!
#380000
0!
#390000
b1111 m
b1111 n
b1111 K"
b1111 v"
b1111 ~"
b1111 0#
b1111 6#
b100 G
b100 n"
b100 t"
b0 H
b0 l"
b0 s"
b0 6
b0 Y"
b0 <#
11
b10000100 ?"
b1 F
b1 o"
b1 u"
b100 h"
b1 P
b1 f"
b1 q"
1E
b101100 <
b101100 a"
b101100 +#
b101100 /#
b11111 >
b11111 b"
b11111 *#
b11111 .#
0O
1A"
1]
1d
b11 g
b11 p
b11 8"
b101100 h
b101100 q
b101100 7"
1Y
b0 Z
b0 D"
b0 I"
b0 W"
0W
b0 [
b0 C"
b0 H"
b0 V"
b0 3
b0 X"
b0 =#
b0 7
b0 k"
b0 8#
02
15
1i"
b100101 Q
b100101 e"
b100101 p"
b10000011000110000000000001010 %
b10000011000110000000000001010 '
b10000011000110000000000001010 )
b10000011000110000000000001010 }"
b10000100 -"
b11 '"
b11 #"
b101100 ("
b11111111111111111111111111010011 |
b10000 d"
b100 ^"
b1101 `"
b11 ,
b11 4#
b11 ;#
b101100 =
b101100 Q"
b101100 '#
b11111 ?
b11111 P"
b11111 &#
0B
1D
b0 C
b0 ,"
b0 y"
0X
b0 \
b0 }
b0 |"
b11 ^
b11 $"
b11 {"
b101111 ""
b101100 _
b101100 &"
b101100 z"
b0 k
b0 1"
b0 x"
b1010011 l
b1010011 2"
b1010011 w"
b110100000000010000000000000100 L
b110100000000010000000000000100 c"
b110100000000010000000000000100 "#
b1010100 ["
b1011000 Z"
b1010000 I
b1010000 \"
b1010000 ##
b1010100 $
b1010100 &
b1010100 (
b1010100 8
b1010100 !#
b1010100 7#
1!
#400000
0!
#410000
b0 <
b0 a"
b0 +#
b0 /#
09
b0 >
b0 b"
b0 *#
b0 .#
b0 =
b0 Q"
b0 '#
0:
b0 ?
b0 P"
b0 &#
b101100 ,
b101100 4#
b101100 ;#
b11111 -
b11111 3#
b11111 :#
b111111111111111111111111111111101 r
b11 u
b1011000 t
b0 s
b10 w
b11 y
b101100 x
1!
#420000
0!
#430000
b1 s
b10110000 t
b0 ,
b0 4#
b0 ;#
0*
b0 -
b0 3#
b0 :#
1!
#440000
0!
#450000
b10 s
b101100000 t
1!
#460000
0!
#470000
b11 s
b1011000000 t
1!
#480000
0!
#490000
b100 s
b10110000000 t
1!
#500000
0!
#510000
b101 s
b101100000000 t
1!
#520000
0!
#530000
b110 s
b1011000000000 t
1!
#540000
0!
#550000
b111 s
b10110000000000 t
1!
#560000
0!
#570000
b1000 s
b101100000000000 t
1!
#580000
0!
#590000
b1001 s
b1011000000000000 t
1!
#600000
0!
#610000
b1010 s
b10110000000000000 t
1!
#620000
0!
#630000
b1011 s
b101100000000000000 t
1!
#640000
0!
#650000
b1100 s
b1011000000000000000 t
1!
#660000
0!
#670000
b1101 s
b10110000000000000000 t
1!
#680000
0!
#690000
b1110 s
b101100000000000000000 t
1!
#700000
0!
#710000
b1111 s
b1011000000000000000000 t
1!
#720000
0!
#730000
b10000 s
b10110000000000000000000 t
1!
#740000
0!
#750000
b10001 s
b101100000000000000000000 t
1!
#760000
0!
#770000
b10010 s
b1011000000000000000000000 t
1!
#780000
0!
#790000
b10011 s
b10110000000000000000000000 t
1!
#800000
0!
#810000
b10100 s
b101100000000000000000000000 t
1!
#820000
0!
#830000
b10101 s
b1011000000000000000000000000 t
1!
#840000
0!
#850000
b10110 s
b10110000000000000000000000000 t
1!
#860000
0!
#870000
b10111 s
b101100000000000000000000000000 t
1!
#880000
0!
#890000
b11000 s
b1011000000000000000000000000000 t
1!
#900000
0!
#910000
b11001 s
b10110000000000000000000000000000 t
1!
#920000
0!
#930000
b111111111111111111111111111111110 r
b11010 s
b101100000000000000000000000000000 t
1!
