5-arithmetic-div/openmips_min_sopc_tb.vcd
$date
	Thu Dec 30 10:01:05 2021
$end
$version
	Icarus Verilog
$end
$timescale
	1ps
$end
$scope module openmips_min_sopc_tb $end
$var reg 1 ! clk $end
$var reg 1 " rst $end
$scope module openmips_min_sopc0 $end
$var wire 1 ! clk $end
$var wire 1 " rst $end
$var wire 1 # rom_ce $end
$var wire 32 $ inst_addr [31:0] $end
$var wire 32 % inst [31:0] $end
$scope module inst_rom0 $end
$var wire 1 # ce $end
$var wire 32 & addr [31:0] $end
$var reg 32 ' inst [31:0] $end
$upscope $end
$scope module openmips0 $end
$var wire 1 ! clk $end
$var wire 32 ( rom_addr_o [31:0] $end
$var wire 32 ) rom_data_i [31:0] $end
$var wire 1 " rst $end
$var wire 1 * wb_wreg_i $end
$var wire 1 + wb_whilo $end
$var wire 32 , wb_wdata_i [31:0] $end
$var wire 5 - wb_wd_i [4:0] $end
$var wire 32 . wb_lo [31:0] $end
$var wire 32 / wb_hi [31:0] $end
$var wire 1 0 stall_from_id $end
$var wire 1 1 stall_from_ex $end
$var wire 1 # rom_ce_o $end
$var wire 1 2 reg2_read $end
$var wire 32 3 reg2_data [31:0] $end
$var wire 5 4 reg2_addr [4:0] $end
$var wire 1 5 reg1_read $end
$var wire 32 6 reg1_data [31:0] $end
$var wire 5 7 reg1_addr [4:0] $end
$var wire 32 8 pc [31:0] $end
$var wire 1 9 mem_wreg_o $end
$var wire 1 : mem_wreg_i $end
$var wire 1 ; mem_whilo_o $end
$var wire 32 < mem_wdata_o [31:0] $end
$var wire 32 = mem_wdata_i [31:0] $end
$var wire 5 > mem_wd_o [4:0] $end
$var wire 5 ? mem_wd_i [4:0] $end
$var wire 32 @ mem_lo_o [31:0] $end
$var wire 32 A mem_hi_o [31:0] $end
$var wire 1 B id_wreg_o $end
$var wire 5 C id_wd_o [4:0] $end
$var wire 32 D id_reg2_o [31:0] $end
$var wire 32 E id_reg1_o [31:0] $end
$var wire 32 F id_pc_i [31:0] $end
$var wire 32 G id_inst_i [31:0] $end
$var wire 3 H id_alusel_o [2:0] $end
$var wire 8 I id_aluop_o [7:0] $end
$var wire 32 J hilo_lo_o [31:0] $end
$var wire 32 K hilo_hi_o [31:0] $end
$var wire 1 L exmem_whilo_o $end
$var wire 32 M exmem_lo_o [31:0] $end
$var wire 32 N exmem_hi_o [31:0] $end
$var wire 1 O ex_wreg_o $end
$var wire 1 P ex_wreg_i $end
$var wire 1 Q ex_whilo_o $end
$var wire 32 R ex_wdata_o [31:0] $end
$var wire 5 S ex_wd_o [4:0] $end
$var wire 5 T ex_wd_i [4:0] $end
$var wire 1 U ex_signed_div_o $end
$var wire 32 V ex_reg2_i [31:0] $end
$var wire 32 W ex_reg1_i [31:0] $end
$var wire 32 X ex_lo_o [31:0] $end
$var wire 64 Y ex_hilo_temp_o [63:0] $end
$var wire 64 Z ex_hilo_temp_i [63:0] $end
$var wire 32 [ ex_hi_o [31:0] $end
$var wire 1 \ ex_div_start_o $end
$var wire 64 ] ex_div_result_i [63:0] $end
$var wire 1 ^ ex_div_ready_i $end
$var wire 32 _ ex_div_opdata2_o [31:0] $end
$var wire 32 ` ex_div_opdata1_o [31:0] $end
$var wire 2 a ex_cnt_o [1:0] $end
$var wire 2 b ex_cnt_i [1:0] $end
$var wire 3 c ex_alusel_i [2:0] $end
$var wire 8 d ex_aluop_i [7:0] $end
$var wire 6 e ctrl_stall_o [5:0] $end
$scope module ctrl0 $end
$var wire 1 " rst $end
$var wire 1 0 stall_from_id $end
$var wire 1 1 stall_from_ex $end
$var reg 6 f stall [5:0] $end
$upscope $end
$scope module div0 $end
$var wire 1 " Rst_n $end
$var wire 1 g annul_i $end
$var wire 1 ! clk $end
$var wire 1 \ start_i $end
$var wire 1 U signed_div_i $end
$var wire 32 h opdata2_i [31:0] $end
$var wire 32 i opdata1_i [31:0] $end
$var wire 33 j div_temp [32:0] $end
$var reg 6 k cnt [5:0] $end
$var reg 65 l dividend [64:0] $end
$var reg 32 m divisor [31:0] $end
$var reg 1 ^ ready_o $end
$var reg 64 n result_o [63:0] $end
$var reg 2 o state [1:0] $end
$var reg 32 p temp_op1 [31:0] $end
$var reg 32 q temp_op2 [31:0] $end
$upscope $end
$scope module ex0 $end
$var wire 1 " Rst_n $end
$var wire 1 ^ div_ready_i $end
$var wire 64 r div_result_i [63:0] $end
$var wire 1 s ov_sum $end
$var wire 32 t reg1_i_not [31:0] $end
$var wire 1 P wreg_i $end
$var wire 5 u wd_i [4:0] $end
$var wire 1 + wb_wen_hilo $end
$var wire 32 v wb_lo_i [31:0] $end
$var wire 32 w wb_hi_i [31:0] $end
$var wire 32 x result_sum [31:0] $end
$var wire 32 y reg2_i_mux [31:0] $end
$var wire 32 z reg2_i [31:0] $end
$var wire 1 { reg1_lt_reg2 $end
$var wire 32 | reg1_i [31:0] $end
$var wire 32 } opdata2_mult [31:0] $end
$var wire 32 ~ opdata1_mult [31:0] $end
$var wire 1 ; mem_wen_hilo $end
$var wire 32 !" mem_lo_i [31:0] $end
$var wire 32 "" mem_hi_i [31:0] $end
$var wire 32 #" lo_i [31:0] $end
$var wire 64 $" hilo_tmp [63:0] $end
$var wire 64 %" hilo_temp_i [63:0] $end
$var wire 32 &" hi_i [31:0] $end
$var wire 2 '" cnt_i [1:0] $end
$var wire 3 (" alusel_i [2:0] $end
$var wire 8 )" aluop_i [7:0] $end
$var reg 32 *" HI [31:0] $end
$var reg 32 +" LO [31:0] $end
$var reg 32 ," arithres [31:0] $end
$var reg 2 -" cnt_o [1:0] $end
$var reg 32 ." div_opdata1_o [31:0] $end
$var reg 32 /" div_opdata2_o [31:0] $end
$var reg 1 \ div_start_o $end
$var reg 32 0" hi_o [31:0] $end
$var reg 64 1" hilo_temp1 [63:0] $end
$var reg 64 2" hilo_temp_o [63:0] $end
$var reg 32 3" lo_o [31:0] $end
$var reg 32 4" logicout [31:0] $end
$var reg 32 5" movres [31:0] $end
$var reg 64 6" mulres [63:0] $end
$var reg 32 7" shiftres [31:0] $end
$var reg 1 U signed_div_o $end
$var reg 1 1 stall_req_ex $end
$var reg 1 8" stallreq_for_div $end
$var reg 1 9" stallreq_for_madd_msub $end
$var reg 5 :" wd_o [4:0] $end
$var reg 32 ;" wdata_o [31:0] $end
$var reg 1 Q whilo_o $end
$var reg 1 O wreg_o $end
$upscope $end
$scope module ex_mem0 $end
$var wire 1 " Rst_n $end
$var wire 1 ! clk $end
$var wire 2 <" cnt_i [1:0] $end
$var wire 32 =" ex_hi_i [31:0] $end
$var wire 32 >" ex_lo_i [31:0] $end
$var wire 5 ?" ex_wd [4:0] $end
$var wire 32 @" ex_wdata [31:0] $end
$var wire 1 Q ex_whilo $end
$var wire 1 O ex_wreg $end
$var wire 64 A" hilo_temp_i [63:0] $end
$var wire 6 B" stall [5:0] $end
$var reg 2 C" cnt_o [1:0] $end
$var reg 64 D" hilo_temp_o [63:0] $end
$var reg 32 E" mem_hi_o [31:0] $end
$var reg 32 F" mem_lo_o [31:0] $end
$var reg 5 G" mem_wd [4:0] $end
$var reg 32 H" mem_wdata [31:0] $end
$var reg 1 L mem_whilo $end
$var reg 1 : mem_wreg $end
$upscope $end
$scope module hilo $end
$var wire 1 ! clk $end
$var wire 1 " rst $end
$var wire 1 + we $end
$var wire 32 I" lo_in [31:0] $end
$var wire 32 J" hi_in [31:0] $end
$var reg 32 K" hi_o [31:0] $end
$var reg 32 L" lo_o [31:0] $end
$upscope $end
$scope module id0 $end
$var wire 1 " Rst_n $end
$var wire 5 M" ex_wd_i [4:0] $end
$var wire 32 N" ex_wdata_i [31:0] $end
$var wire 1 O ex_wreg_i $end
$var wire 32 O" reg2_data_i [31:0] $end
$var wire 32 P" reg1_data_i [31:0] $end
$var wire 32 Q" pc_i [31:0] $end
$var wire 5 R" op4 [4:0] $end
$var wire 6 S" op3 [5:0] $end
$var wire 5 T" op2 [4:0] $end
$var wire 6 U" op [5:0] $end
$var wire 1 9 mem_wreg_i $end
$var wire 32 V" mem_wdata_i [31:0] $end
$var wire 5 W" mem_wd_i [4:0] $end
$var wire 32 X" inst_i [31:0] $end
$var reg 8 Y" aluop_o [7:0] $end
$var reg 3 Z" alusel_o [2:0] $end
$var reg 32 [" imm [31:0] $end
$var reg 1 \" inst_valid $end
$var reg 5 ]" reg1_addr_o [4:0] $end
$var reg 32 ^" reg1_o [31:0] $end
$var reg 1 5 reg1_read_o $end
$var reg 5 _" reg2_addr_o [4:0] $end
$var reg 32 `" reg2_o [31:0] $end
$var reg 1 2 reg2_read_o $end
$var reg 1 0 stall_req_id $end
$var reg 5 a" wd_o [4:0] $end
$var reg 1 B wreg_o $end
$upscope $end
$scope module id_ex0 $end
$var wire 1 ! Clk $end
$var wire 1 " Rst_n $end
$var wire 8 b" id_aluop [7:0] $end
$var wire 3 c" id_alusel [2:0] $end
$var wire 32 d" id_reg1 [31:0] $end
$var wire 32 e" id_reg2 [31:0] $end
$var wire 5 f" id_wd [4:0] $end
$var wire 1 B id_wreg $end
$var wire 6 g" stall [5:0] $end
$var reg 8 h" ex_aluop [7:0] $end
$var reg 3 i" ex_alusel [2:0] $end
$var reg 32 j" ex_reg1 [31:0] $end
$var reg 32 k" ex_reg2 [31:0] $end
$var reg 5 l" ex_wd [4:0] $end
$var reg 1 P ex_wreg $end
$upscope $end
$scope module if_id0 $end
$var wire 1 ! Clk $end
$var wire 1 " Rst_n $end
$var wire 32 m" if_inst [31:0] $end
$var wire 6 n" stall [5:0] $end
$var wire 32 o" if_pc [31:0] $end
$var reg 32 p" id_inst [31:0] $end
$var reg 32 q" id_pc [31:0] $end
$upscope $end
$scope module mem0 $end
$var wire 32 r" hi_i [31:0] $end
$var wire 32 s" lo_i [31:0] $end
$var wire 1 " rst $end
$var wire 5 t" wd_i [4:0] $end
$var wire 32 u" wdata_i [31:0] $end
$var wire 1 L whilo_i $end
$var wire 1 : wreg_i $end
$var reg 32 v" hi_o [31:0] $end
$var reg 32 w" lo_o [31:0] $end
$var reg 5 x" wd_o [4:0] $end
$var reg 32 y" wdata_o [31:0] $end
$var reg 1 ; whilo_o $end
$var reg 1 9 wreg_o $end
$upscope $end
$scope module mem_wb0 $end
$var wire 1 ! clk $end
$var wire 32 z" mem_hi_i [31:0] $end
$var wire 32 {" mem_lo_i [31:0] $end
$var wire 5 |" mem_wd [4:0] $end
$var wire 32 }" mem_wdata [31:0] $end
$var wire 1 ; mem_whilo_i $end
$var wire 1 9 mem_wreg $end
$var wire 1 " rst $end
$var wire 6 ~" stall [5:0] $end
$var reg 32 !# wb_hi_o [31:0] $end
$var reg 32 "# wb_lo_o [31:0] $end
$var reg 5 ## wb_wd [4:0] $end
$var reg 32 $# wb_wdata [31:0] $end
$var reg 1 + wb_whilo_o $end
$var reg 1 * wb_wreg $end
$upscope $end
$scope module pc_reg0 $end
$var wire 1 ! Clk $end
$var wire 1 " Rst $end
$var wire 6 %# stall [5:0] $end
$var reg 1 # ce $end
$var reg 32 &# pc [31:0] $end
$upscope $end
$scope module reg_file0 $end
$var wire 1 ! Clk $end
$var wire 1 " Rst_n $end
$var wire 5 '# raddr1 [4:0] $end
$var wire 5 (# raddr2 [4:0] $end
$var wire 1 5 re1 $end
$var wire 1 2 re2 $end
$var wire 5 )# waddr [4:0] $end
$var wire 32 *# wdata [31:0] $end
$var wire 1 * we $end
$var reg 32 +# rdata1 [31:0] $end
$var reg 32 ,# rdata2 [31:0] $end
$upscope $end
$upscope $end
$upscope $end
$upscope $end
$enddefinitions $end
#0
$dumpvars
b0 ,#
b0 +#
bx *#
bx )#
b0 (#
b0 '#
bx &#
b0 %#
bx $#
bx ##
bx "#
bx !#
b0 ~"
b0 }"
b0 |"
b0 {"
b0 z"
b0 y"
b0 x"
b0 w"
b0 v"
bx u"
bx t"
bx s"
bx r"
bx q"
bx p"
bx o"
b0 n"
bx m"
bx l"
bx k"
bx j"
bx i"
bx h"
b0 g"
b0 f"
b0 e"
b0 d"
b0 c"
b0 b"
b0 a"
b0 `"
b0 _"
b0 ^"
b0 ]"
1\"
b0 ["
b0 Z"
b0 Y"
bx X"
b0 W"
b0 V"
bx U"
bx T"
bx S"
bx R"
bx Q"
b0 P"
b0 O"
b0 N"
bx M"
bx L"
bx K"
bx J"
bx I"
bx H"
bx G"
bx F"
bx E"
bx D"
bx C"
b0 B"
b0 A"
b0 @"
bx ?"
b0 >"
b0 ="
b0 <"
b0 ;"
bx :"
09"
08"
b0 7"
b0 6"
b0 5"
b0 4"
b0 3"
b0 2"
bx 1"
b0 0"
b0 /"
b0 ."
b0 -"
b0 ,"
b0 +"
b0 *"
bx )"
bx ("
bx '"
bx &"
bx %"
bx $"
bx #"
b0 ""
b0 !"
bx ~
bx }
bx |
x{
bx z
bx y
bx x
bx w
bx v
bx u
bx t
xs
bx r
bx q
bx p
bx o
bx n
bx m
bx l
bx k
bx j
b0 i
b0 h
0g
b0 f
b0 e
bx d
bx c
bx b
b0 a
b0 `
b0 _
x^
bx ]
0\
b0 [
bx Z
b0 Y
b0 X
bx W
bx V
0U
bx T
bx S
b0 R
0Q
xP
xO
bx N
bx M
xL
bx K
bx J
b0 I
b0 H
bx G
bx F
b0 E
b0 D
b0 C
0B
b0 A
b0 @
bx ?
b0 >
bx =
b0 <
0;
x:
09
bx 8
b0 7
b0 6
05
b0 4
b0 3
02
01
00
bx /
bx .
bx -
bx ,
x+
x*
bx )
bx (
bx '
bx &
bx %
bx $
x#
1"
0!
$end
#10000
b0 %
b0 '
b0 )
b0 m"
0O
b0 S
b0 :"
b0 ?"
b0 M"
0s
b0 R"
b0 S"
b0 T"
b0 U"
b0 $"
b0 }
b0 x
b0 y
b0 ~
b11111111111111111111111111111111 t
0{
0#
b0 G
b0 X"
b0 p"
b0 F
b0 Q"
b0 q"
0P
b0 T
b0 u
b0 l"
b0 V
b0 z
b0 k"
b0 W
b0 |
b0 j"
b0 c
b0 ("
b0 i"
b0 d
b0 )"
b0 h"
b0 =
b0 H"
b0 u"
0:
b0 ?
b0 G"
b0 t"
b0 M
b0 F"
b0 s"
b0 N
b0 E"
b0 r"
0L
b0 ,
b0 $#
b0 *#
0*
b0 -
b0 ##
b0 )#
b0 .
b0 v
b0 I"
b0 "#
b0 /
b0 w
b0 J"
b0 !#
0+
b0 J
b0 #"
b0 L"
b0 K
b0 &"
b0 K"
b0 l
b0 o
0^
b0 ]
b0 n
b0 r
1!
#20000
0!
#30000
b0 $
b0 &
b0 (
b0 8
b0 o"
b0 &#
1!
#40000
0!
#50000
1!
#60000
0!
#70000
1!
#80000
0!
#90000
1!
#100000
0!
#110000
1!
#120000
0!
#130000
1!
#140000
0!
#150000
1!
#160000
0!
#170000
1!
#180000
0!
#190000
1!
#195000
b0 1"
12
b10 H
b10 Z"
b10 c"
b1111100 I
b1111100 Y"
b1111100 b"
1B
1\"
0"
#200000
0!
#210000
b110100000000101111111111111111 %
b110100000000101111111111111111 '
b110100000000101111111111111111 )
b110100000000101111111111111111 m"
1O
1#
1P
b10 c
b10 ("
b10 i"
b1111100 d
b1111100 )"
b1111100 h"
b0 b
b0 '"
b0 C"
b0 Z
b0 %"
b0 D"
1!
#220000
0!
#230000
b1111111111111111 D
b1111111111111111 `"
b1111111111111111 e"
b1111111111111111 ["
15
19
b10 4
b10 _"
b10 (#
02
1\"
1B
b10 C
b10 a"
b10 f"
b1 H
b1 Z"
b1 c"
b100101 I
b100101 Y"
b100101 b"
b100001010000000000 %
b100001010000000000 '
b100001010000000000 )
b100001010000000000 m"
b10 R"
b111111 S"
b11111 T"
b1101 U"
1:
b110100000000101111111111111111 G
b110100000000101111111111111111 X"
b110100000000101111111111111111 p"
b100 $
b100 &
b100 (
b100 8
b100 o"
b100 &#
1!
#240000
0!
#250000
bx 3
bx O"
bx ,#
b1111111111111111 D
b1111111111111111 `"
b1111111111111111 e"
b10000 E
b10000 ^"
b10000 d"
b1111111111111111 R
b1111111111111111 ;"
b1111111111111111 @"
b1111111111111111 N"
12
b110100010000101111111111110001 %
b110100010000101111111111110001 '
b110100010000101111111111110001 )
b110100010000101111111111110001 m"
b10000 ["
05
1\"
1B
b10 H
b10 Z"
b10 c"
b1111100 I
b1111100 Y"
b1111100 b"
b10 S
b10 :"
b10 ?"
b10 M"
b1111111111111111 4"
b0 S"
b10000 T"
b0 U"
b1111111111111111 }
1{
b1111111111111111 x
b1111111111111111 y
b1000 $
b1000 &
b1000 (
b1000 8
b1000 o"
b1000 &#
b100001010000000000 G
b100001010000000000 X"
b100001010000000000 p"
b100 F
b100 Q"
b100 q"
b10 T
b10 u
b10 l"
b1111111111111111 V
b1111111111111111 z
b1111111111111111 k"
b1 c
b1 ("
b1 i"
b100101 d
b100101 )"
b100101 h"
1*
1!
#260000
0!
#270000
b11111111111111110000000000000000 E
b11111111111111110000000000000000 ^"
b11111111111111110000000000000000 d"
bx 6
bx P"
bx +#
b1111111111110001 D
b1111111111110001 `"
b1111111111110001 e"
b0 3
b0 O"
b0 ,#
b11111111111111110000 6"
15
b1111111111111111 <
b1111111111111111 V"
b1111111111111111 y"
b1111111111111111 }"
b10 >
b10 W"
b10 x"
b10 |"
b11111111111111110000000000000000 R
b11111111111111110000000000000000 ;"
b11111111111111110000000000000000 @"
b11111111111111110000000000000000 N"
b11111111111111110000000000000000 7"
b0 4"
b1111111111110001 ["
b10 7
b10 ]"
b10 '#
02
1\"
1B
b10 C
b10 a"
b10 f"
b1 H
b1 Z"
b1 c"
b100101 I
b100101 Y"
b100101 b"
b110100000000110000000000010001 %
b110100000000110000000000010001 '
b110100000000110000000000010001 )
b110100000000110000000000010001 m"
b11111111111111110000 $"
b10000 ~
b11111111111111111111111111101111 t
b110001 S"
b11111 T"
b1101 U"
b1111111111111111 =
b1111111111111111 H"
b1111111111111111 u"
b10 ?
b10 G"
b10 t"
b10000000000001111 x
b10000 W
b10000 |
b10000 j"
b10 c
b10 ("
b10 i"
b1111100 d
b1111100 )"
b1111100 h"
b110100010000101111111111110001 G
b110100010000101111111111110001 X"
b110100010000101111111111110001 p"
b1000 F
b1000 Q"
b1000 q"
b1100 $
b1100 &
b1100 (
b1100 8
b1100 o"
b1100 &#
1!
#280000
0!
#290000
b10001 D
b10001 `"
b10001 e"
b0 E
b0 ^"
b0 d"
b111111111111000000000000000011110000000000000000 6"
b10000110000000000011010 %
b10000110000000000011010 '
b10000110000000000011010 )
b10000110000000000011010 m"
b10001 ["
b11 4
b11 _"
b11 (#
b0 7
b0 ]"
b0 '#
15
1\"
1B
b11 C
b11 a"
b11 f"
b1 H
b1 Z"
b1 c"
b100101 I
b100101 Y"
b100101 b"
b11111111111111111111111111110001 R
b11111111111111111111111111110001 ;"
b11111111111111111111111111110001 @"
b11111111111111111111111111110001 N"
b11111111111111111111111111110001 4"
b11111111111111110000000000000000 <
b11111111111111110000000000000000 V"
b11111111111111110000000000000000 y"
b11111111111111110000000000000000 }"
b0 6
b0 P"
b0 +#
0s
b11 R"
b10001 S"
b0 T"
b1111111111110001 }
b1111111111110001 y
b111111111111000000000000000011110000000000000000 $"
b11111111111111110000000000000000 ~
0{
b1111111111111111 t
b10000 $
b10000 &
b10000 (
b10000 8
b10000 o"
b10000 &#
b110100000000110000000000010001 G
b110100000000110000000000010001 X"
b110100000000110000000000010001 p"
b1100 F
b1100 Q"
b1100 q"
b1111111111110001 V
b1111111111110001 z
b1111111111110001 k"
b11111111111111111111111111110001 x
b11111111111111110000000000000000 W
b11111111111111110000000000000000 |
b11111111111111110000000000000000 j"
b1 c
b1 ("
b1 i"
b100101 d
b100101 )"
b100101 h"
b11111111111111110000000000000000 =
b11111111111111110000000000000000 H"
b11111111111111110000000000000000 u"
b1111111111111111 ,
b1111111111111111 $#
b1111111111111111 *#
b10 -
b10 ##
b10 )#
1!
#300000
0!
#310000
bx 3
bx O"
bx ,#
b10001 R
b10001 ;"
b10001 @"
b10001 N"
b10001 D
b10001 `"
b10001 e"
b11111111111111111111111111110001 E
b11111111111111111111111111110001 ^"
b11111111111111111111111111110001 d"
b11111111111111110000000000000000 6
b11111111111111110000000000000000 P"
b11111111111111110000000000000000 +#
b0 6"
12
b11111111111111111111111111110001 <
b11111111111111111111111111110001 V"
b11111111111111111111111111110001 y"
b11111111111111111111111111110001 }"
b11 S
b11 :"
b11 ?"
b11 M"
b10001 4"
b0 ["
b10 7
b10 ]"
b10 '#
15
1\"
0B
b0 C
b0 a"
b0 f"
b0 H
b0 Z"
b0 c"
b1010011 I
b1010011 Y"
b1010011 b"
b10000110000000000011011 %
b10000110000000000011011 '
b10000110000000000011011 )
b10000110000000000011011 m"
b10001 }
b10001 y
b0 $"
b0 ~
1{
b11111111111111111111111111111111 t
b11010 S"
b0 U"
b11111111111111110000000000000000 ,
b11111111111111110000000000000000 $#
b11111111111111110000000000000000 *#
b11111111111111111111111111110001 =
b11111111111111111111111111110001 H"
b11111111111111111111111111110001 u"
b11 T
b11 u
b11 l"
b10001 V
b10001 z
b10001 k"
b10001 x
b0 W
b0 |
b0 j"
b10000110000000000011010 G
b10000110000000000011010 X"
b10000110000000000011010 p"
b10000 F
b10000 Q"
b10000 q"
b10100 $
b10100 &
b10100 (
b10100 8
b10100 o"
b10100 &#
1!
#320000
0!
#330000
b1111 e
b1111 f
b1111 B"
b1111 g"
b1111 n"
b1111 ~"
b1111 %#
11
b1000011111111111111111111111100000001 6"
b11000100000000000011010 %
b11000100000000000011010 '
b11000100000000000011010 )
b11000100000000000011010 m"
12
15
1\"
b1010100 I
b1010100 Y"
b1010100 b"
18"
1U
1\
b10001 _
b10001 h
b10001 /"
b11111111111111111111111111110001 `
b11111111111111111111111111110001 i
b11111111111111111111111111110001 ."
1Q
b0 R
b0 ;"
b0 @"
b0 N"
0O
b0 S
b0 :"
b0 ?"
b0 M"
b0 4"
b10001 <
b10001 V"
b10001 y"
b10001 }"
b11 >
b11 W"
b11 x"
b11 |"
b11111111111111111111111111110001 6
b11111111111111111111111111110001 P"
b11111111111111111111111111110001 +#
b11011 S"
b1000011111111111111111111111100000001 $"
b11111111111111111111111111110001 ~
0{
b1110 t
b11000 $
b11000 &
b11000 (
b11000 8
b11000 o"
b11000 &#
b10000110000000000011011 G
b10000110000000000011011 X"
b10000110000000000011011 p"
b10100 F
b10100 Q"
b10100 q"
0P
b0 T
b0 u
b0 l"
b10 x
b11111111111111111111111111110001 W
b11111111111111111111111111110001 |
b11111111111111111111111111110001 j"
b0 c
b0 ("
b0 i"
b1010011 d
b1010011 )"
b1010011 h"
b10001 =
b10001 H"
b10001 u"
b11 ?
b11 G"
b11 t"
b11111111111111111111111111110001 ,
b11111111111111111111111111110001 $#
b11111111111111111111111111110001 *#
1!
#340000
0!
#350000
b0 <
b0 V"
b0 y"
b0 }"
09
b0 >
b0 W"
b0 x"
b0 |"
b10001 3
b10001 O"
b10001 ,#
b111111111111111111111111111101111 j
b10001 m
b11110 l
b0 k
b10 o
b10001 ,
b10001 $#
b10001 *#
b11 -
b11 ##
b11 )#
b0 =
b0 H"
b0 u"
0:
b0 ?
b0 G"
b0 t"
b10001 q
b1111 p
1!
#360000
0!
#370000
b0 ,
b0 $#
b0 *#
0*
b0 -
b0 ##
b0 )#
b1 k
b111100 l
1!
#380000
0!
#390000
b10 k
b1111000 l
1!
#400000
0!
#410000
b11 k
b11110000 l
1!
#420000
0!
#430000
b100 k
b111100000 l
1!
#440000
0!
#450000
b101 k
b1111000000 l
1!
#460000
0!
#470000
b110 k
b11110000000 l
1!
#480000
0!
#490000
b111 k
b111100000000 l
1!
#500000
0!
#510000
b1000 k
b1111000000000 l
1!
#520000
0!
#530000
b1001 k
b11110000000000 l
1!
#540000
0!
#550000
b1010 k
b111100000000000 l
1!
#560000
0!
#570000
b1011 k
b1111000000000000 l
1!
#580000
0!
#590000
b1100 k
b11110000000000000 l
1!
#600000
0!
#610000
b1101 k
b111100000000000000 l
1!
#620000
0!
#630000
b1110 k
b1111000000000000000 l
1!
#640000
0!
#650000
b1111 k
b11110000000000000000 l
1!
#660000
0!
#670000
b10000 k
b111100000000000000000 l
1!
#680000
0!
#690000
b10001 k
b1111000000000000000000 l
1!
#700000
0!
#710000
b10010 k
b11110000000000000000000 l
1!
#720000
0!
#730000
b10011 k
b111100000000000000000000 l
1!
#740000
0!
#750000
b10100 k
b1111000000000000000000000 l
1!
#760000
0!
#770000
b10101 k
b11110000000000000000000000 l
1!
#780000
0!
#790000
b10110 k
b111100000000000000000000000 l
1!
#800000
0!
#810000
b10111 k
b1111000000000000000000000000 l
1!
#820000
0!
#830000
b11000 k
b11110000000000000000000000000 l
1!
#840000
0!
#850000
b11001 k
b111100000000000000000000000000 l
1!
#860000
0!
#870000
b11010 k
b1111000000000000000000000000000 l
1!
#880000
0!
#890000
b11011 k
b11110000000000000000000000000000 l
1!
#900000
0!
#910000
b111111111111111111111111111110000 j
b11100 k
b111100000000000000000000000000000 l
1!
#920000
0!
#930000
b111111111111111111111111111110010 j
b11101 k
b1111000000000000000000000000000000 l
1!
#940000
0!
#950000
b111111111111111111111111111110110 j
b11110 k
b11110000000000000000000000000000000 l
1!
#960000
0!
#970000
b111111111111111111111111111111110 j
b11111 k
b111100000000000000000000000000000000 l
1!
#980000
0!
#990000
b1101 j
b100000 k
b1111000000000000000000000000000000000 l
1!
#1000000
0!
#1010000
b11111111111111111111111111010001 j
b11111111111111111111111111110001000000000000000000000000000000000 l
b0 k
b11 o
1!
#1020000
0!
#1030000
b0 e
b0 f
b0 B"
b0 g"
b0 n"
b0 ~"
b0 %#
01
0U
0\
b10001 _
b10001 h
b10001 /"
b11111111111111111111111111110001 `
b11111111111111111111111111110001 i
b11111111111111111111111111110001 ."
08"
b11111111111111111111111111110001 [
b11111111111111111111111111110001 0"
b11111111111111111111111111110001 ="
1^
b1111111111111111111111111111000100000000000000000000000000000000 ]
b1111111111111111111111111111000100000000000000000000000000000000 n
b1111111111111111111111111111000100000000000000000000000000000000 r
1!
#1040000
0!
#1050000
b11111111111111111111111111110001 D
b11111111111111111111111111110001 `"
b11111111111111111111111111110001 e"
b10001 E
b10001 ^"
b10001 d"
b1111 e
b1111 f
b1111 B"
b1111 g"
b1111 n"
b1111 ~"
b1111 %#
b11111111111111111111111111110001 3
b11111111111111111111111111110001 O"
b11111111111111111111111111110001 ,#
b10001 6
b10001 P"
b10001 +#
b11111111111111111111111111110001 *"
11
bx %
bx '
bx )
bx m"
b10 4
b10 _"
b10 (#
b11 7
b11 ]"
b11 '#
12
15
1\"
b1010011 I
b1010011 Y"
b1010011 b"
b11111111111111111111111111110001 A
b11111111111111111111111111110001 ""
b11111111111111111111111111110001 v"
b11111111111111111111111111110001 z"
1;
b0 [
b0 0"
b0 ="
18"
1\
b10001 _
b10001 h
b10001 /"
b11111111111111111111111111110001 `
b11111111111111111111111111110001 i
b11111111111111111111111111110001 ."
b10 R"
b11010 S"
b11100 $
b11100 &
b11100 (
b11100 8
b11100 o"
b11100 &#
b11000100000000000011010 G
b11000100000000000011010 X"
b11000100000000000011010 p"
b11000 F
b11000 Q"
b11000 q"
b1010100 d
b1010100 )"
b1010100 h"
b11111111111111111111111111110001 N
b11111111111111111111111111110001 E"
b11111111111111111111111111110001 r"
1L
b0 ]
b0 n
b0 r
0^
b0 o
1!
#1060000
0!
#1070000
b0 A
b0 ""
b0 v"
b0 z"
0;
b111111111111111111111111111110000 j
b111111111111111111111111111100010 l
b10 o
b11111111111111111111111111110001 /
b11111111111111111111111111110001 w
b11111111111111111111111111110001 J"
b11111111111111111111111111110001 !#
1+
b0 N
b0 E"
b0 r"
0L
b11111111111111111111111111110001 p
1!
#1080000
0!
#1090000
b111111111111111111111111111110010 j
b0 /
b0 w
b0 J"
b0 !#
0+
b11111111111111111111111111110001 K
b11111111111111111111111111110001 &"
b11111111111111111111111111110001 K"
b1 k
b1111111111111111111111111111000100 l
1!
#1100000
0!
#1110000
b111111111111111111111111111110110 j
b10 k
b11111111111111111111111111110001000 l
1!
#1120000
0!
#1130000
b111111111111111111111111111111110 j
b11 k
b111111111111111111111111111100010000 l
1!
#1140000
0!
#1150000
b1110 j
b100 k
b1111111111111111111111111111000100000 l
1!
#1160000
0!
#1170000
b1100 j
b101 k
b1110111111111111111111111110001000001 l
1!
#1180000
0!
#1190000
b1000 j
b110 k
b1100111111111111111111111100010000011 l
1!
#1200000
0!
#1210000
b0 j
b111 k
b1000111111111111111111111000100000111 l
1!
#1220000
0!
#1230000
b111111111111111111111111111110000 j
b1000 k
b111111111111111111110001000001111 l
1!
#1240000
0!
#1250000
b111111111111111111111111111110010 j
b1001 k
b1111111111111111111100010000011110 l
1!
#1260000
0!
#1270000
b111111111111111111111111111110110 j
b1010 k
b11111111111111111111000100000111100 l
1!
#1280000
0!
#1290000
b111111111111111111111111111111110 j
b1011 k
b111111111111111111110001000001111000 l
1!
#1300000
0!
#1310000
b1110 j
b1100 k
b1111111111111111111100010000011110000 l
1!
#1320000
0!
#1330000
b1100 j
b1101 k
b1110111111111111111000100000111100001 l
1!
#1340000
0!
#1350000
b1000 j
b1110 k
b1100111111111111110001000001111000011 l
1!
#1360000
0!
#1370000
b0 j
b1111 k
b1000111111111111100010000011110000111 l
1!
#1380000
0!
#1390000
b111111111111111111111111111110000 j
b10000 k
b111111111111000100000111100001111 l
1!
#1400000
0!
#1410000
b111111111111111111111111111110010 j
b10001 k
b1111111111110001000001111000011110 l
1!
#1420000
0!
#1430000
b111111111111111111111111111110110 j
b10010 k
b11111111111100010000011110000111100 l
1!
#1440000
0!
#1450000
b111111111111111111111111111111110 j
b10011 k
b111111111111000100000111100001111000 l
1!
#1460000
0!
#1470000
b1110 j
b10100 k
b1111111111110001000001111000011110000 l
1!
#1480000
0!
