3-move/openmips_min_sopc_tb.vcd
$date
	Thu Dec 23 17:14:53 2021
$end
$version
	Icarus Verilog
$end
$timescale
	1ps
$end
$scope module openmips_min_sopc_tb $end
$var reg 1 ! clk $end
$var reg 1 " rst $end
$scope module openmips_min_sopc0 $end
$var wire 1 ! clk $end
$var wire 1 " rst $end
$var wire 1 # rom_ce $end
$var wire 32 $ inst_addr [31:0] $end
$var wire 32 % inst [31:0] $end
$scope module inst_rom0 $end
$var wire 1 # ce $end
$var wire 32 & addr [31:0] $end
$var reg 32 ' inst [31:0] $end
$upscope $end
$scope module openmips0 $end
$var wire 1 ! clk $end
$var wire 32 ( rom_addr_o [31:0] $end
$var wire 32 ) rom_data_i [31:0] $end
$var wire 1 " rst $end
$var wire 1 * wb_wreg_i $end
$var wire 1 + wb_whilo $end
$var wire 32 , wb_wdata_i [31:0] $end
$var wire 5 - wb_wd_i [4:0] $end
$var wire 32 . wb_lo [31:0] $end
$var wire 32 / wb_hi [31:0] $end
$var wire 1 # rom_ce_o $end
$var wire 1 0 reg2_read $end
$var wire 32 1 reg2_data [31:0] $end
$var wire 5 2 reg2_addr [4:0] $end
$var wire 1 3 reg1_read $end
$var wire 32 4 reg1_data [31:0] $end
$var wire 5 5 reg1_addr [4:0] $end
$var wire 32 6 pc [31:0] $end
$var wire 1 7 mem_wreg_o $end
$var wire 1 8 mem_wreg_i $end
$var wire 1 9 mem_whilo_o $end
$var wire 32 : mem_wdata_o [31:0] $end
$var wire 32 ; mem_wdata_i [31:0] $end
$var wire 5 < mem_wd_o [4:0] $end
$var wire 5 = mem_wd_i [4:0] $end
$var wire 32 > mem_lo_o [31:0] $end
$var wire 32 ? mem_hi_o [31:0] $end
$var wire 1 @ id_wreg_o $end
$var wire 5 A id_wd_o [4:0] $end
$var wire 32 B id_reg2_o [31:0] $end
$var wire 32 C id_reg1_o [31:0] $end
$var wire 32 D id_pc_i [31:0] $end
$var wire 32 E id_inst_i [31:0] $end
$var wire 3 F id_alusel_o [2:0] $end
$var wire 8 G id_aluop_o [7:0] $end
$var wire 32 H hilo_lo_o [31:0] $end
$var wire 32 I hilo_hi_o [31:0] $end
$var wire 1 J exmem_whilo_o $end
$var wire 32 K exmem_lo_o [31:0] $end
$var wire 32 L exmem_hi_o [31:0] $end
$var wire 1 M ex_wreg_o $end
$var wire 1 N ex_wreg_i $end
$var wire 1 O ex_whilo_o $end
$var wire 32 P ex_wdata_o [31:0] $end
$var wire 5 Q ex_wd_o [4:0] $end
$var wire 5 R ex_wd_i [4:0] $end
$var wire 32 S ex_reg2_i [31:0] $end
$var wire 32 T ex_reg1_i [31:0] $end
$var wire 32 U ex_lo_o [31:0] $end
$var wire 32 V ex_hi_o [31:0] $end
$var wire 3 W ex_alusel_i [2:0] $end
$var wire 8 X ex_aluop_i [7:0] $end
$scope module ex0 $end
$var wire 1 " Rst_n $end
$var wire 32 Y mem_hi_i [31:0] $end
$var wire 32 Z mem_lo_i [31:0] $end
$var wire 1 [ mem_wen_hilo $end
$var wire 32 \ wb_hi_i [31:0] $end
$var wire 32 ] wb_lo_i [31:0] $end
$var wire 32 ^ wb_wen_hilo [31:0] $end
$var wire 1 N wreg_i $end
$var wire 5 _ wd_i [4:0] $end
$var wire 32 ` reg2_i [31:0] $end
$var wire 32 a reg1_i [31:0] $end
$var wire 32 b lo_i [31:0] $end
$var wire 32 c hi_i [31:0] $end
$var wire 3 d alusel_i [2:0] $end
$var wire 8 e aluop_i [7:0] $end
$var reg 32 f HI [31:0] $end
$var reg 32 g LO [31:0] $end
$var reg 32 h hi_o [31:0] $end
$var reg 32 i lo_o [31:0] $end
$var reg 32 j logicout [31:0] $end
$var reg 32 k movres [31:0] $end
$var reg 32 l shiftres [31:0] $end
$var reg 5 m wd_o [4:0] $end
$var reg 32 n wdata_o [31:0] $end
$var reg 1 O whilo_o $end
$var reg 1 M wreg_o $end
$upscope $end
$scope module ex_mem0 $end
$var wire 1 " Rst_n $end
$var wire 1 ! clk $end
$var wire 32 o ex_hi_i [31:0] $end
$var wire 32 p ex_lo_i [31:0] $end
$var wire 5 q ex_wd [4:0] $end
$var wire 32 r ex_wdata [31:0] $end
$var wire 1 O ex_whilo $end
$var wire 1 M ex_wreg $end
$var reg 32 s mem_hi_o [31:0] $end
$var reg 32 t mem_lo_o [31:0] $end
$var reg 5 u mem_wd [4:0] $end
$var reg 32 v mem_wdata [31:0] $end
$var reg 1 J mem_whilo $end
$var reg 1 8 mem_wreg $end
$upscope $end
$scope module hilo $end
$var wire 1 ! clk $end
$var wire 1 " rst $end
$var wire 1 + we $end
$var wire 32 w lo_in [31:0] $end
$var wire 32 x hi_in [31:0] $end
$var reg 32 y hi_o [31:0] $end
$var reg 32 z lo_o [31:0] $end
$upscope $end
$scope module id0 $end
$var wire 1 " Rst_n $end
$var wire 5 { ex_wd_i [4:0] $end
$var wire 32 | ex_wdata_i [31:0] $end
$var wire 1 M ex_wreg_i $end
$var wire 32 } reg2_data_i [31:0] $end
$var wire 32 ~ reg1_data_i [31:0] $end
$var wire 32 !" pc_i [31:0] $end
$var wire 5 "" op4 [4:0] $end
$var wire 6 #" op3 [5:0] $end
$var wire 5 $" op2 [4:0] $end
$var wire 6 %" op [5:0] $end
$var wire 1 7 mem_wreg_i $end
$var wire 32 &" mem_wdata_i [31:0] $end
$var wire 5 '" mem_wd_i [4:0] $end
$var wire 32 (" inst_i [31:0] $end
$var reg 8 )" aluop_o [7:0] $end
$var reg 3 *" alusel_o [2:0] $end
$var reg 32 +" imm [31:0] $end
$var reg 1 ," inst_valid $end
$var reg 5 -" reg1_addr_o [4:0] $end
$var reg 32 ." reg1_o [31:0] $end
$var reg 1 3 reg1_read_o $end
$var reg 5 /" reg2_addr_o [4:0] $end
$var reg 32 0" reg2_o [31:0] $end
$var reg 1 0 reg2_read_o $end
$var reg 5 1" wd_o [4:0] $end
$var reg 1 @ wreg_o $end
$upscope $end
$scope module id_ex0 $end
$var wire 1 ! Clk $end
$var wire 1 " Rst_n $end
$var wire 8 2" id_aluop [7:0] $end
$var wire 3 3" id_alusel [2:0] $end
$var wire 32 4" id_reg1 [31:0] $end
$var wire 32 5" id_reg2 [31:0] $end
$var wire 5 6" id_wd [4:0] $end
$var wire 1 @ id_wreg $end
$var reg 8 7" ex_aluop [7:0] $end
$var reg 3 8" ex_alusel [2:0] $end
$var reg 32 9" ex_reg1 [31:0] $end
$var reg 32 :" ex_reg2 [31:0] $end
$var reg 5 ;" ex_wd [4:0] $end
$var reg 1 N ex_wreg $end
$upscope $end
$scope module if_id0 $end
$var wire 1 ! Clk $end
$var wire 1 " Rst_n $end
$var wire 32 <" if_inst [31:0] $end
$var wire 32 =" if_pc [31:0] $end
$var reg 32 >" id_inst [31:0] $end
$var reg 32 ?" id_pc [31:0] $end
$upscope $end
$scope module mem0 $end
$var wire 32 @" hi_i [31:0] $end
$var wire 32 A" lo_i [31:0] $end
$var wire 1 " rst $end
$var wire 5 B" wd_i [4:0] $end
$var wire 32 C" wdata_i [31:0] $end
$var wire 1 J whilo_i $end
$var wire 1 8 wreg_i $end
$var reg 32 D" hi_o [31:0] $end
$var reg 32 E" lo_o [31:0] $end
$var reg 5 F" wd_o [4:0] $end
$var reg 32 G" wdata_o [31:0] $end
$var reg 1 9 whilo_o $end
$var reg 1 7 wreg_o $end
$upscope $end
$scope module mem_wb0 $end
$var wire 1 ! clk $end
$var wire 32 H" mem_hi_i [31:0] $end
$var wire 32 I" mem_lo_i [31:0] $end
$var wire 5 J" mem_wd [4:0] $end
$var wire 32 K" mem_wdata [31:0] $end
$var wire 1 9 mem_whilo_i $end
$var wire 1 7 mem_wreg $end
$var wire 1 " rst $end
$var reg 32 L" wb_hi_o [31:0] $end
$var reg 32 M" wb_lo_o [31:0] $end
$var reg 5 N" wb_wd [4:0] $end
$var reg 32 O" wb_wdata [31:0] $end
$var reg 1 + wb_whilo_o $end
$var reg 1 * wb_wreg $end
$upscope $end
$scope module pc_reg0 $end
$var wire 1 ! Clk $end
$var wire 1 " Rst $end
$var reg 1 # ce $end
$var reg 32 P" pc [31:0] $end
$upscope $end
$scope module reg_file0 $end
$var wire 1 ! Clk $end
$var wire 1 " Rst_n $end
$var wire 5 Q" raddr1 [4:0] $end
$var wire 5 R" raddr2 [4:0] $end
$var wire 1 3 re1 $end
$var wire 1 0 re2 $end
$var wire 5 S" waddr [4:0] $end
$var wire 32 T" wdata [31:0] $end
$var wire 1 * we $end
$var reg 32 U" rdata1 [31:0] $end
$var reg 32 V" rdata2 [31:0] $end
$upscope $end
$upscope $end
$upscope $end
$upscope $end
$enddefinitions $end
#0
$dumpvars
b0 V"
b0 U"
bx T"
bx S"
b0 R"
b0 Q"
bx P"
bx O"
bx N"
bx M"
bx L"
b0 K"
b0 J"
b0 I"
b0 H"
b0 G"
b0 F"
b0 E"
b0 D"
bx C"
bx B"
bx A"
bx @"
bx ?"
bx >"
bx ="
bx <"
bx ;"
bx :"
bx 9"
bx 8"
bx 7"
b0 6"
b0 5"
b0 4"
b0 3"
b0 2"
b0 1"
b0 0"
b0 /"
b0 ."
b0 -"
1,"
b0 +"
b0 *"
b0 )"
bx ("
b0 '"
b0 &"
bx %"
bx $"
bx #"
bx ""
bx !"
b0 ~
b0 }
b0 |
bx {
bx z
bx y
bx x
bx w
bx v
bx u
bx t
bx s
b0 r
bx q
b0 p
b0 o
b0 n
bx m
b0 l
b0 k
b0 j
b0 i
b0 h
b0 g
b0 f
bx e
bx d
bx c
bx b
bx a
bx `
bx _
bz ^
bz ]
bz \
z[
bz Z
bz Y
bx X
bx W
b0 V
b0 U
bx T
bx S
bx R
bx Q
b0 P
0O
xN
xM
bx L
bx K
xJ
bx I
bx H
b0 G
b0 F
bx E
bx D
b0 C
b0 B
b0 A
0@
b0 ?
b0 >
bx =
b0 <
bx ;
b0 :
09
x8
07
bx 6
b0 5
b0 4
03
b0 2
b0 1
00
bx /
bx .
bx -
bx ,
x+
x*
bx )
bx (
bx '
bx &
bx %
bx $
x#
1"
0!
$end
#10000
b0 %
b0 '
b0 )
b0 <"
0M
b0 Q
b0 m
b0 q
b0 {
b0 ""
b0 #"
b0 $"
b0 %"
0#
b0 E
b0 ("
b0 >"
b0 D
b0 !"
b0 ?"
0N
b0 R
b0 _
b0 ;"
b0 S
b0 `
b0 :"
b0 T
b0 a
b0 9"
b0 W
b0 d
b0 8"
b0 X
b0 e
b0 7"
b0 ;
b0 v
b0 C"
08
b0 =
b0 u
b0 B"
b0 K
b0 t
b0 A"
b0 L
b0 s
b0 @"
0J
b0 ,
b0 O"
b0 T"
0*
b0 -
b0 N"
b0 S"
b0 .
b0 w
b0 M"
b0 /
b0 x
b0 L"
0+
b0 H
b0 b
b0 z
b0 I
b0 c
b0 y
1!
#20000
0!
#30000
b0 $
b0 &
b0 (
b0 6
b0 ="
b0 P"
1!
#40000
0!
#50000
1!
#60000
0!
#70000
1!
#80000
0!
#90000
1!
#100000
0!
#110000
1!
#120000
0!
#130000
1!
#140000
0!
#150000
1!
#160000
0!
#170000
1!
#180000
0!
#190000
1!
#195000
10
b10 F
b10 *"
b10 3"
b1111100 G
b1111100 )"
b1111100 2"
1@
1,"
0"
#200000
0!
#210000
b111100000000010000000000000000 %
b111100000000010000000000000000 '
b111100000000010000000000000000 )
b111100000000010000000000000000 <"
1M
1#
1N
b10 W
b10 d
b10 8"
b1111100 X
b1111100 e
b1111100 7"
1!
#220000
0!
#230000
b1 A
b1 1"
b1 6"
13
17
b1 2
b1 /"
b1 R"
00
1,"
1@
b1 F
b1 *"
b1 3"
b100101 G
b100101 )"
b100101 2"
b111100000000101111111111111111 %
b111100000000101111111111111111 '
b111100000000101111111111111111 )
b111100000000101111111111111111 <"
b1 ""
b1111 %"
18
b111100000000010000000000000000 E
b111100000000010000000000000000 ("
b111100000000010000000000000000 >"
b100 $
b100 &
b100 (
b100 6
b100 ="
b100 P"
1!
#240000
0!
#250000
b11111111111111110000000000000000 B
b11111111111111110000000000000000 0"
b11111111111111110000000000000000 5"
b111100000000110000010100000101 %
b111100000000110000010100000101 '
b111100000000110000010100000101 )
b111100000000110000010100000101 <"
b11111111111111110000000000000000 +"
b10 2
b10 /"
b10 R"
13
1,"
1@
b10 A
b10 1"
b10 6"
b1 F
b1 *"
b1 3"
b100101 G
b100101 )"
b100101 2"
b1 Q
b1 m
b1 q
b1 {
b10 ""
b111111 #"
b11111 $"
b1000 $
b1000 &
b1000 (
b1000 6
b1000 ="
b1000 P"
b111100000000101111111111111111 E
b111100000000101111111111111111 ("
b111100000000101111111111111111 >"
b100 D
b100 !"
b100 ?"
b1 R
b1 _
b1 ;"
b1 W
b1 d
b1 8"
b100101 X
b100101 e
b100101 7"
1*
1!
#260000
0!
#270000
b11111111111111110000000000000000 P
b11111111111111110000000000000000 n
b11111111111111110000000000000000 r
b11111111111111110000000000000000 |
b101000001010000000000000000 B
b101000001010000000000000000 0"
b101000001010000000000000000 5"
b1 <
b1 '"
b1 F"
b1 J"
b10 Q
b10 m
b10 q
b10 {
b11111111111111110000000000000000 j
b101000001010000000000000000 +"
b11 2
b11 /"
b11 R"
13
1,"
1@
b11 A
b11 1"
b11 6"
b1 F
b1 *"
b1 3"
b100101 G
b100101 )"
b100101 2"
b111100000001000000000000000000 %
b111100000001000000000000000000 '
b111100000001000000000000000000 )
b111100000001000000000000000000 <"
b11 ""
b101 #"
b10100 $"
b1 =
b1 u
b1 B"
b10 R
b10 _
b10 ;"
b11111111111111110000000000000000 S
b11111111111111110000000000000000 `
b11111111111111110000000000000000 :"
b111100000000110000010100000101 E
b111100000000110000010100000101 ("
b111100000000110000010100000101 >"
b1000 D
b1000 !"
b1000 ?"
b1100 $
b1100 &
b1100 (
b1100 6
b1100 ="
b1100 P"
1!
#280000
0!
#290000
b101000001010000000000000000 P
b101000001010000000000000000 n
b101000001010000000000000000 r
b101000001010000000000000000 |
b0 B
b0 0"
b0 5"
b10000010010000000001010 %
b10000010010000000001010 '
b10000010010000000001010 )
b10000010010000000001010 <"
b0 +"
b100 2
b100 /"
b100 R"
13
1,"
1@
b100 A
b100 1"
b100 6"
b1 F
b1 *"
b1 3"
b100101 G
b100101 )"
b100101 2"
b11 Q
b11 m
b11 q
b11 {
b101000001010000000000000000 j
b11111111111111110000000000000000 :
b11111111111111110000000000000000 &"
b11111111111111110000000000000000 G"
b11111111111111110000000000000000 K"
b10 <
b10 '"
b10 F"
b10 J"
b100 ""
b0 #"
b0 $"
b10000 $
b10000 &
b10000 (
b10000 6
b10000 ="
b10000 P"
b111100000001000000000000000000 E
b111100000001000000000000000000 ("
b111100000001000000000000000000 >"
b1100 D
b1100 !"
b1100 ?"
b11 R
b11 _
b11 ;"
b101000001010000000000000000 S
b101000001010000000000000000 `
b101000001010000000000000000 :"
b11111111111111110000000000000000 ;
b11111111111111110000000000000000 v
b11111111111111110000000000000000 C"
b10 =
b10 u
b10 B"
b1 -
b1 N"
b1 S"
1!
#300000
0!
#310000
b11111111111111110000000000000000 C
b11111111111111110000000000000000 ."
b11111111111111110000000000000000 4"
b0 P
b0 n
b0 r
b0 |
b11111111111111110000000000000000 4
b11111111111111110000000000000000 ~
b11111111111111110000000000000000 U"
10
b101000001010000000000000000 :
b101000001010000000000000000 &"
b101000001010000000000000000 G"
b101000001010000000000000000 K"
b11 <
b11 '"
b11 F"
b11 J"
b100 Q
b100 m
b100 q
b100 {
b0 j
b100 A
b100 1"
b100 6"
b0 +"
b1 2
b1 /"
b1 R"
b10 5
b10 -"
b10 Q"
13
1,"
1@
b11 F
b11 *"
b11 3"
b10001 G
b10001 )"
b10001 2"
b11000010010000000001011 %
b11000010010000000001011 '
b11000010010000000001011 )
b11000010010000000001011 <"
b1 ""
b1010 #"
b0 %"
b11111111111111110000000000000000 ,
b11111111111111110000000000000000 O"
b11111111111111110000000000000000 T"
b10 -
b10 N"
b10 S"
b101000001010000000000000000 ;
b101000001010000000000000000 v
b101000001010000000000000000 C"
b11 =
b11 u
b11 B"
b100 R
b100 _
b100 ;"
b0 S
b0 `
b0 :"
b10000010010000000001010 E
b10000010010000000001010 ("
b10000010010000000001010 >"
b10000 D
b10000 !"
b10000 ?"
b10100 $
b10100 &
b10100 (
b10100 6
b10100 ="
b10100 P"
1!
#320000
0!
#330000
b101000001010000000000000000 C
b101000001010000000000000000 ."
b101000001010000000000000000 4"
b101000001010000000000000000 4
b101000001010000000000000000 ~
b101000001010000000000000000 U"
b11111111111111110000000000000000 P
b11111111111111110000000000000000 n
b11111111111111110000000000000000 r
b11111111111111110000000000000000 |
b11000100010000000001011 %
b11000100010000000001011 '
b11000100010000000001011 )
b11000100010000000001011 <"
b11 5
b11 -"
b11 Q"
10
13
1,"
0@
b11 F
b11 *"
b11 3"
b10000 G
b10000 )"
b10000 2"
b11111111111111110000000000000000 k
b0 :
b0 &"
b0 G"
b0 K"
b100 <
b100 '"
b100 F"
b100 J"
b1011 #"
b11000 $
b11000 &
b11000 (
b11000 6
b11000 ="
b11000 P"
b11000010010000000001011 E
b11000010010000000001011 ("
b11000010010000000001011 >"
b10100 D
b10100 !"
b10100 ?"
b11111111111111110000000000000000 T
b11111111111111110000000000000000 a
b11111111111111110000000000000000 9"
b11 W
b11 d
b11 8"
b10001 X
b10001 e
b10001 7"
b0 ;
b0 v
b0 C"
b100 =
b100 u
b100 B"
b101000001010000000000000000 ,
b101000001010000000000000000 O"
b101000001010000000000000000 T"
b11 -
b11 N"
b11 S"
1!
#340000
0!
#350000
1@
b11111111111111110000000000000000 B
b11111111111111110000000000000000 0"
b11111111111111110000000000000000 5"
b101000001010000000000000000 P
b101000001010000000000000000 n
b101000001010000000000000000 r
b101000001010000000000000000 |
b11111111111111110000000000000000 1
b11111111111111110000000000000000 }
b11111111111111110000000000000000 V"
b11111111111111110000000000000000 :
b11111111111111110000000000000000 &"
b11111111111111110000000000000000 G"
b11111111111111110000000000000000 K"
0M
b101000001010000000000000000 k
b10 2
b10 /"
b10 R"
10
13
1,"
b11 F
b11 *"
b11 3"
b10000 G
b10000 )"
b10000 2"
b10000110010000000001010 %
b10000110010000000001010 '
b10000110010000000001010 )
b10000110010000000001010 <"
b10 ""
b0 ,
b0 O"
b0 T"
b100 -
b100 N"
b100 S"
b11111111111111110000000000000000 ;
b11111111111111110000000000000000 v
b11111111111111110000000000000000 C"
0N
b101000001010000000000000000 T
b101000001010000000000000000 a
b101000001010000000000000000 9"
b10000 X
b10000 e
b10000 7"
b11000100010000000001011 E
b11000100010000000001011 ("
b11000100010000000001011 >"
b11000 D
b11000 !"
b11000 ?"
b11100 $
b11100 &
b11100 (
b11100 6
b11100 ="
b11100 P"
1!
#360000
0!
#370000
b101000001010000000000000000 B
b101000001010000000000000000 0"
b101000001010000000000000000 5"
b11111111111111110000000000000000 C
b11111111111111110000000000000000 ."
b11111111111111110000000000000000 4"
b101000001010000000000000000 1
b101000001010000000000000000 }
b101000001010000000000000000 V"
b11111111111111110000000000000000 4
b11111111111111110000000000000000 ~
b11111111111111110000000000000000 U"
b10001 %
b10001 '
b10001 )
b10001 <"
b11 2
b11 /"
b11 R"
b10 5
b10 -"
b10 Q"
10
13
1,"
0@
b11 F
b11 *"
b11 3"
b10001 G
b10001 )"
b10001 2"
1M
b101000001010000000000000000 :
b101000001010000000000000000 &"
b101000001010000000000000000 G"
b101000001010000000000000000 K"
07
b11 ""
b1010 #"
b100000 $
b100000 &
b100000 (
b100000 6
b100000 ="
b100000 P"
b10000110010000000001010 E
b10000110010000000001010 ("
b10000110010000000001010 >"
b11100 D
b11100 !"
b11100 ?"
1N
b11111111111111110000000000000000 S
b11111111111111110000000000000000 `
b11111111111111110000000000000000 :"
b101000001010000000000000000 ;
b101000001010000000000000000 v
b101000001010000000000000000 C"
08
b11111111111111110000000000000000 ,
b11111111111111110000000000000000 O"
b11111111111111110000000000000000 T"
1!
#380000
0!
#390000
b0 C
b0 ."
b0 4"
b11111111111111110000000000000000 P
b11111111111111110000000000000000 n
b11111111111111110000000000000000 r
b11111111111111110000000000000000 |
b0 B
b0 0"
b0 5"
b0 1
b0 }
b0 V"
b0 4
b0 ~
b0 U"
17
0M
b11111111111111110000000000000000 k
b0 2
b0 /"
b0 R"
b0 5
b0 -"
b0 Q"
00
13
1,"
b0 A
b0 1"
b0 6"
b11 F
b11 *"
b11 3"
b10100 G
b10100 )"
b10100 2"
b10000000000000000010001 %
b10000000000000000010001 '
b10000000000000000010001 )
b10000000000000000010001 <"
b0 ""
b10001 #"
b101000001010000000000000000 ,
b101000001010000000000000000 O"
b101000001010000000000000000 T"
0*
18
0N
b101000001010000000000000000 S
b101000001010000000000000000 `
b101000001010000000000000000 :"
b11111111111111110000000000000000 T
b11111111111111110000000000000000 a
b11111111111111110000000000000000 9"
b10001 X
b10001 e
b10001 7"
b10001 E
b10001 ("
b10001 >"
b100000 D
b100000 !"
b100000 ?"
b100100 $
b100100 &
b100100 (
b100100 6
b100100 ="
b100100 P"
1!
#400000
0!
#410000
b11111111111111110000000000000000 C
b11111111111111110000000000000000 ."
b11111111111111110000000000000000 4"
b11111111111111110000000000000000 4
b11111111111111110000000000000000 ~
b11111111111111110000000000000000 U"
b0 P
b0 n
b0 r
b0 |
b11000000000000000010001 %
b11000000000000000010001 '
b11000000000000000010001 )
b11000000000000000010001 <"
b10 5
b10 -"
b10 Q"
13
1,"
b11 F
b11 *"
b11 3"
b10100 G
b10100 )"
b10100 2"
b0 Q
b0 m
b0 q
b0 {
1O
b0 k
b11111111111111110000000000000000 :
b11111111111111110000000000000000 &"
b11111111111111110000000000000000 G"
b11111111111111110000000000000000 K"
07
b101000 $
b101000 &
b101000 (
b101000 6
b101000 ="
b101000 P"
b10000000000000000010001 E
b10000000000000000010001 ("
b10000000000000000010001 >"
b100100 D
b100100 !"
b100100 ?"
b0 R
b0 _
b0 ;"
b0 S
b0 `
b0 :"
b0 T
b0 a
b0 9"
b10100 X
b10100 e
b10100 7"
b11111111111111110000000000000000 ;
b11111111111111110000000000000000 v
b11111111111111110000000000000000 C"
08
1*
1!
#420000
0!
#430000
b101000001010000000000000000 C
b101000001010000000000000000 ."
b101000001010000000000000000 4"
b101000001010000000000000000 4
b101000001010000000000000000 ~
b101000001010000000000000000 U"
19
b0 :
b0 &"
b0 G"
b0 K"
b0 <
b0 '"
b0 F"
b0 J"
b11111111111111110000000000000000 V
b11111111111111110000000000000000 h
b11111111111111110000000000000000 o
b11 5
b11 -"
b11 Q"
13
1,"
b11 F
b11 *"
b11 3"
b10100 G
b10100 )"
b10100 2"
b10000000010000 %
b10000000010000 '
b10000000010000 )
b10000000010000 <"
b11111111111111110000000000000000 ,
b11111111111111110000000000000000 O"
b11111111111111110000000000000000 T"
0*
1J
b0 ;
b0 v
b0 C"
b0 =
b0 u
b0 B"
b11111111111111110000000000000000 T
b11111111111111110000000000000000 a
b11111111111111110000000000000000 9"
b11000000000000000010001 E
b11000000000000000010001 ("
b11000000000000000010001 >"
b101000 D
b101000 !"
b101000 ?"
b101100 $
b101100 &
b101100 (
b101100 6
b101100 ="
b101100 P"
1!
#440000
0!
#450000
b0 C
b0 ."
b0 4"
b0 4
b0 ~
b0 U"
1@
b11000000000000000010011 %
b11000000000000000010011 '
b11000000000000000010011 )
b11000000000000000010011 <"
b0 5
b0 -"
b0 Q"
03
1,"
b100 A
b100 1"
b100 6"
b11 F
b11 *"
b11 3"
b10010 G
b10010 )"
b10010 2"
b101000001010000000000000000 V
b101000001010000000000000000 h
b101000001010000000000000000 o
b11111111111111110000000000000000 ?
b11111111111111110000000000000000 D"
b11111111111111110000000000000000 H"
b10000 #"
b110000 $
b110000 &
b110000 (
b110000 6
b110000 ="
b110000 P"
b10000000010000 E
b10000000010000 ("
b10000000010000 >"
b101100 D
b101100 !"
b101100 ?"
b101000001010000000000000000 T
b101000001010000000000000000 a
b101000001010000000000000000 9"
b11111111111111110000000000000000 L
b11111111111111110000000000000000 s
b11111111111111110000000000000000 @"
b0 ,
b0 O"
b0 T"
b0 -
b0 N"
b0 S"
1+
1!
#460000
0!
#470000
b101000001010000000000000000 C
b101000001010000000000000000 ."
b101000001010000000000000000 4"
b101000001010000000000000000 4
b101000001010000000000000000 ~
b101000001010000000000000000 U"
13
b101000001010000000000000000 ?
b101000001010000000000000000 D"
b101000001010000000000000000 H"
1M
b100 Q
b100 m
b100 q
b100 {
b0 V
b0 h
b0 o
0O
b11 5
b11 -"
b11 Q"
1,"
0@
b0 A
b0 1"
b0 6"
b11 F
b11 *"
b11 3"
b10101 G
b10101 )"
b10101 2"
b10000000000000000010011 %
b10000000000000000010011 '
b10000000000000000010011 )
b10000000000000000010011 <"
b10011 #"
b11111111111111110000000000000000 /
b11111111111111110000000000000000 x
b11111111111111110000000000000000 L"
b101000001010000000000000000 L
b101000001010000000000000000 s
b101000001010000000000000000 @"
1N
b100 R
b100 _
b100 ;"
b0 T
b0 a
b0 9"
b10010 X
b10010 e
b10010 7"
b11000000000000000010011 E
b11000000000000000010011 ("
b11000000000000000010011 >"
b110000 D
b110000 !"
b110000 ?"
b110100 $
b110100 &
b110100 (
b110100 6
b110100 ="
b110100 P"
1!
#480000
0!
#490000
b11111111111111110000000000000000 C
b11111111111111110000000000000000 ."
b11111111111111110000000000000000 4"
b11111111111111110000000000000000 4
b11111111111111110000000000000000 ~
b11111111111111110000000000000000 U"
b11111111111111110000000000000000 V
b11111111111111110000000000000000 h
b11111111111111110000000000000000 o
b1000000000000000010011 %
b1000000000000000010011 '
b1000000000000000010011 )
b1000000000000000010011 <"
b10 5
b10 -"
b10 Q"
13
1,"
b11 F
b11 *"
b11 3"
b10101 G
b10101 )"
b10101 2"
0M
b0 Q
b0 m
b0 q
b0 {
b101000001010000000000000000 U
b101000001010000000000000000 i
b101000001010000000000000000 p
1O
17
b100 <
b100 '"
b100 F"
b100 J"
b0 ?
b0 D"
b0 H"
09
b11111111111111110000000000000000 f
b111000 $
b111000 &
b111000 (
b111000 6
b111000 ="
b111000 P"
b10000000000000000010011 E
b10000000000000000010011 ("
b10000000000000000010011 >"
b110100 D
b110100 !"
b110100 ?"
0N
b0 R
b0 _
b0 ;"
b101000001010000000000000000 T
b101000001010000000000000000 a
b101000001010000000000000000 9"
b10101 X
b10101 e
b10101 7"
18
b100 =
b100 u
b100 B"
b0 L
b0 s
b0 @"
0J
b101000001010000000000000000 /
b101000001010000000000000000 x
b101000001010000000000000000 L"
b11111111111111110000000000000000 I
b11111111111111110000000000000000 c
b11111111111111110000000000000000 y
1!
#500000
0!
#510000
b0 C
b0 ."
b0 4"
b101000001010000000000000000 V
b101000001010000000000000000 h
b101000001010000000000000000 o
b0 4
b0 ~
b0 U"
b101000001010000000000000000 f
b101000001010000000000000000 >
b101000001010000000000000000 E"
b101000001010000000000000000 I"
b11111111111111110000000000000000 ?
b11111111111111110000000000000000 D"
b11111111111111110000000000000000 H"
19
07
b0 <
b0 '"
b0 F"
b0 J"
b11111111111111110000000000000000 U
b11111111111111110000000000000000 i
b11111111111111110000000000000000 p
b1 5
b1 -"
b1 Q"
13
1,"
b11 F
b11 *"
b11 3"
b10101 G
b10101 )"
b10101 2"
b10000000010010 %
b10000000010010 '
b10000000010010 )
b10000000010010 <"
b101000001010000000000000000 I
b101000001010000000000000000 c
b101000001010000000000000000 y
b0 /
b0 x
b0 L"
0+
1*
b100 -
b100 N"
b100 S"
b101000001010000000000000000 K
b101000001010000000000000000 t
b101000001010000000000000000 A"
b11111111111111110000000000000000 L
b11111111111111110000000000000000 s
b11111111111111110000000000000000 @"
1J
08
b0 =
b0 u
b0 B"
b11111111111111110000000000000000 T
b11111111111111110000000000000000 a
b11111111111111110000000000000000 9"
b1000000000000000010011 E
b1000000000000000010011 ("
b1000000000000000010011 >"
b111000 D
b111000 !"
b111000 ?"
b111100 $
b111100 &
b111100 (
b111100 6
b111100 ="
b111100 P"
1!
#520000
0!
#530000
b0 V
b0 h
b0 o
1@
bx %
bx '
bx )
bx <"
b0 5
b0 -"
b0 Q"
03
1,"
b100 A
b100 1"
b100 6"
b11 F
b11 *"
b11 3"
b10011 G
b10011 )"
b10011 2"
b0 U
b0 i
b0 p
b11111111111111110000000000000000 >
b11111111111111110000000000000000 E"
b11111111111111110000000000000000 I"
b101000001010000000000000000 ?
b101000001010000000000000000 D"
b101000001010000000000000000 H"
b0 f
b10010 #"
b1000000 $
b1000000 &
b1000000 (
b1000000 6
b1000000 ="
b1000000 P"
b10000000010010 E
b10000000010010 ("
b10000000010010 >"
b111100 D
b111100 !"
b111100 ?"
b0 T
b0 a
b0 9"
b11111111111111110000000000000000 K
b11111111111111110000000000000000 t
b11111111111111110000000000000000 A"
b101000001010000000000000000 L
b101000001010000000000000000 s
b101000001010000000000000000 @"
0*
b0 -
b0 N"
b0 S"
b101000001010000000000000000 .
b101000001010000000000000000 w
b101000001010000000000000000 M"
b11111111111111110000000000000000 /
b11111111111111110000000000000000 x
b11111111111111110000000000000000 L"
1+
b0 I
b0 c
b0 y
1!
#540000
0!
