1-ori/openmips_min_sopc_tb.vcd
$date
	Thu Dec 16 09:48:33 2021
$end
$version
	Icarus Verilog
$end
$timescale
	1ps
$end
$scope module openmips_min_sopc_tb $end
$var reg 1 ! clk $end
$var reg 1 " rst $end
$scope module openmips_min_sopc0 $end
$var wire 1 ! clk $end
$var wire 1 " rst $end
$var wire 1 # rom_ce $end
$var wire 32 $ inst_addr [31:0] $end
$var wire 32 % inst [31:0] $end
$scope module inst_rom0 $end
$var wire 1 # ce $end
$var wire 32 & addr [31:0] $end
$var reg 32 ' inst [31:0] $end
$upscope $end
$scope module openmips0 $end
$var wire 1 ! clk $end
$var wire 32 ( rom_addr_o [31:0] $end
$var wire 32 ) rom_data_i [31:0] $end
$var wire 1 " rst $end
$var wire 1 * wb_wreg_i $end
$var wire 32 + wb_wdata_i [31:0] $end
$var wire 5 , wb_wd_i [4:0] $end
$var wire 1 # rom_ce_o $end
$var wire 1 - reg2_read $end
$var wire 32 . reg2_data [31:0] $end
$var wire 5 / reg2_addr [4:0] $end
$var wire 1 0 reg1_read $end
$var wire 32 1 reg1_data [31:0] $end
$var wire 5 2 reg1_addr [4:0] $end
$var wire 32 3 pc [31:0] $end
$var wire 1 4 mem_wreg_o $end
$var wire 1 5 mem_wreg_i $end
$var wire 32 6 mem_wdata_o [31:0] $end
$var wire 32 7 mem_wdata_i [31:0] $end
$var wire 5 8 mem_wd_o [4:0] $end
$var wire 5 9 mem_wd_i [4:0] $end
$var wire 1 : id_wreg_o $end
$var wire 5 ; id_wd_o [4:0] $end
$var wire 32 < id_reg2_o [31:0] $end
$var wire 32 = id_reg1_o [31:0] $end
$var wire 32 > id_pc_i [31:0] $end
$var wire 32 ? id_inst_i [31:0] $end
$var wire 3 @ id_alusel_o [2:0] $end
$var wire 8 A id_aluop_o [7:0] $end
$var wire 1 B ex_wreg_o $end
$var wire 1 C ex_wreg_i $end
$var wire 32 D ex_wdata_o [31:0] $end
$var wire 5 E ex_wd_o [4:0] $end
$var wire 5 F ex_wd_i [4:0] $end
$var wire 32 G ex_reg2_i [31:0] $end
$var wire 32 H ex_reg1_i [31:0] $end
$var wire 3 I ex_alusel_i [2:0] $end
$var wire 8 J ex_aluop_i [7:0] $end
$scope module ex0 $end
$var wire 1 " Rst_n $end
$var wire 1 C wreg_i $end
$var wire 5 K wd_i [4:0] $end
$var wire 32 L reg2_i [31:0] $end
$var wire 32 M reg1_i [31:0] $end
$var wire 3 N alusel_i [2:0] $end
$var wire 8 O aluop_i [7:0] $end
$var reg 32 P logicout [31:0] $end
$var reg 5 Q wd_o [4:0] $end
$var reg 32 R wdata_o [31:0] $end
$var reg 1 B wreg_o $end
$upscope $end
$scope module ex_mem0 $end
$var wire 1 " Rst_n $end
$var wire 1 ! clk $end
$var wire 5 S ex_wd [4:0] $end
$var wire 32 T ex_wdata [31:0] $end
$var wire 1 B ex_wreg $end
$var reg 5 U mem_wd [4:0] $end
$var reg 32 V mem_wdata [31:0] $end
$var reg 1 5 mem_wreg $end
$upscope $end
$scope module id0 $end
$var wire 1 " Rst_n $end
$var wire 32 W reg2_data_i [31:0] $end
$var wire 32 X reg1_data_i [31:0] $end
$var wire 32 Y pc_i [31:0] $end
$var wire 5 Z op4 [4:0] $end
$var wire 6 [ op3 [5:0] $end
$var wire 5 \ op2 [4:0] $end
$var wire 6 ] op [5:0] $end
$var wire 32 ^ inst_i [31:0] $end
$var reg 8 _ aluop_o [7:0] $end
$var reg 3 ` alusel_o [2:0] $end
$var reg 32 a imm [31:0] $end
$var reg 1 b inst_valid $end
$var reg 5 c reg1_addr_o [4:0] $end
$var reg 32 d reg1_o [31:0] $end
$var reg 1 0 reg1_read_o $end
$var reg 5 e reg2_addr_o [4:0] $end
$var reg 32 f reg2_o [31:0] $end
$var reg 1 - reg2_read_o $end
$var reg 5 g wd_o [4:0] $end
$var reg 1 : wreg_o $end
$upscope $end
$scope module id_ex0 $end
$var wire 1 ! Clk $end
$var wire 1 " Rst_n $end
$var wire 8 h id_aluop [7:0] $end
$var wire 3 i id_alusel [2:0] $end
$var wire 32 j id_reg1 [31:0] $end
$var wire 32 k id_reg2 [31:0] $end
$var wire 5 l id_wd [4:0] $end
$var wire 1 : id_wreg $end
$var reg 8 m ex_aluop [7:0] $end
$var reg 3 n ex_alusel [2:0] $end
$var reg 32 o ex_reg1 [31:0] $end
$var reg 32 p ex_reg2 [31:0] $end
$var reg 5 q ex_wd [4:0] $end
$var reg 1 C ex_wreg $end
$upscope $end
$scope module if_id0 $end
$var wire 1 ! Clk $end
$var wire 1 " Rst_n $end
$var wire 32 r if_inst [31:0] $end
$var wire 32 s if_pc [31:0] $end
$var reg 32 t id_inst [31:0] $end
$var reg 32 u id_pc [31:0] $end
$upscope $end
$scope module mem0 $end
$var wire 1 " rst $end
$var wire 5 v wd_i [4:0] $end
$var wire 32 w wdata_i [31:0] $end
$var wire 1 5 wreg_i $end
$var reg 5 x wd_o [4:0] $end
$var reg 32 y wdata_o [31:0] $end
$var reg 1 4 wreg_o $end
$upscope $end
$scope module mem_wb0 $end
$var wire 1 ! clk $end
$var wire 5 z mem_wd [4:0] $end
$var wire 32 { mem_wdata [31:0] $end
$var wire 1 4 mem_wreg $end
$var wire 1 " rst $end
$var reg 5 | wb_wd [4:0] $end
$var reg 32 } wb_wdata [31:0] $end
$var reg 1 * wb_wreg $end
$upscope $end
$scope module pc_reg0 $end
$var wire 1 ! Clk $end
$var wire 1 " Rst $end
$var reg 1 # ce $end
$var reg 32 ~ pc [31:0] $end
$upscope $end
$scope module reg_file0 $end
$var wire 1 ! Clk $end
$var wire 1 " Rst_n $end
$var wire 5 !" raddr1 [4:0] $end
$var wire 5 "" raddr2 [4:0] $end
$var wire 1 0 re1 $end
$var wire 1 - re2 $end
$var wire 5 #" waddr [4:0] $end
$var wire 32 $" wdata [31:0] $end
$var wire 1 * we $end
$var reg 32 %" rdata1 [31:0] $end
$var reg 32 &" rdata2 [31:0] $end
$upscope $end
$upscope $end
$upscope $end
$upscope $end
$enddefinitions $end
#0
$dumpvars
b0 &"
b0 %"
bx $"
bx #"
b0 ""
b0 !"
bx ~
bx }
bx |
b0 {
b0 z
b0 y
b0 x
bx w
bx v
bx u
bx t
bx s
bx r
bx q
bx p
bx o
bx n
bx m
b0 l
b0 k
b0 j
b0 i
b0 h
b0 g
b0 f
b0 e
b0 d
b0 c
1b
b0 a
b0 `
b0 _
bx ^
bx ]
bx \
bx [
bx Z
bx Y
b0 X
b0 W
bx V
bx U
b0 T
bx S
b0 R
bx Q
b0 P
bx O
bx N
bx M
bx L
bx K
bx J
bx I
bx H
bx G
bx F
bx E
b0 D
xC
xB
b0 A
b0 @
bx ?
bx >
b0 =
b0 <
b0 ;
0:
bx 9
b0 8
bx 7
b0 6
x5
04
bx 3
b0 2
b0 1
00
b0 /
b0 .
0-
bx ,
bx +
x*
bx )
bx (
bx '
bx &
bx %
bx $
x#
1"
0!
$end
#10000
b0 %
b0 '
b0 )
b0 r
0B
b0 E
b0 Q
b0 S
b0 Z
b0 [
b0 \
b0 ]
0#
b0 ?
b0 ^
b0 t
b0 >
b0 Y
b0 u
0C
b0 F
b0 K
b0 q
b0 G
b0 L
b0 p
b0 H
b0 M
b0 o
b0 I
b0 N
b0 n
b0 J
b0 O
b0 m
b0 7
b0 V
b0 w
05
b0 9
b0 U
b0 v
b0 +
b0 }
b0 $"
0*
b0 ,
b0 |
b0 #"
1!
#20000
0!
#30000
b0 $
b0 &
b0 (
b0 3
b0 s
b0 ~
1!
#40000
0!
#50000
1!
#60000
0!
#70000
1!
#80000
0!
#90000
1!
#100000
0!
#110000
1!
#120000
0!
#130000
1!
#140000
0!
#150000
1!
#160000
0!
#170000
1!
#180000
0!
#190000
1!
#195000
0b
0"
#200000
0!
#210000
b110100000000010001000100000000 %
b110100000000010001000100000000 '
b110100000000010001000100000000 )
b110100000000010001000100000000 r
1#
1!
#220000
0!
#230000
b1000100000000 <
b1000100000000 f
b1000100000000 k
1b
b1000100000000 a
10
b1 @
b1 `
b1 i
b100101 A
b100101 _
b100101 h
1:
b1 /
b1 e
b1 ""
b1 ;
b1 g
b1 l
b110100000000100000000000100000 %
b110100000000100000000000100000 '
b110100000000100000000000100000 )
b110100000000100000000000100000 r
b1 Z
b100 \
b1101 ]
b110100000000010001000100000000 ?
b110100000000010001000100000000 ^
b110100000000010001000100000000 t
b100 $
b100 &
b100 (
b100 3
b100 s
b100 ~
1!
#240000
0!
#250000
b100000 <
b100000 f
b100000 k
b1000100000000 D
b1000100000000 R
b1000100000000 T
b110100000000111111111100000000 %
b110100000000111111111100000000 '
b110100000000111111111100000000 )
b110100000000111111111100000000 r
b100000 a
b10 /
b10 e
b10 ""
10
1b
1:
b10 ;
b10 g
b10 l
b1 @
b1 `
b1 i
b100101 A
b100101 _
b100101 h
1B
b1 E
b1 Q
b1 S
b1000100000000 P
b10 Z
b100000 [
b0 \
b1000 $
b1000 &
b1000 (
b1000 3
b1000 s
b1000 ~
b110100000000100000000000100000 ?
b110100000000100000000000100000 ^
b110100000000100000000000100000 t
b100 >
b100 Y
b100 u
1C
b1 F
b1 K
b1 q
b1000100000000 G
b1000100000000 L
b1000100000000 p
b1 I
b1 N
b1 n
b100101 J
b100101 O
b100101 m
1!
#260000
0!
#270000
b100000 D
b100000 R
b100000 T
b1111111100000000 <
b1111111100000000 f
b1111111100000000 k
b1000100000000 6
b1000100000000 y
b1000100000000 {
14
b1 8
b1 x
b1 z
b10 E
b10 Q
b10 S
b100000 P
b1111111100000000 a
b11 /
b11 e
b11 ""
10
1b
1:
b11 ;
b11 g
b11 l
b1 @
b1 `
b1 i
b100101 A
b100101 _
b100101 h
b110100000001001111111111111111 %
b110100000001001111111111111111 '
b110100000001001111111111111111 )
b110100000001001111111111111111 r
b11 Z
b0 [
b11100 \
b1000100000000 7
b1000100000000 V
b1000100000000 w
15
b1 9
b1 U
b1 v
b10 F
b10 K
b10 q
b100000 G
b100000 L
b100000 p
b110100000000111111111100000000 ?
b110100000000111111111100000000 ^
b110100000000111111111100000000 t
b1000 >
b1000 Y
b1000 u
b1100 $
b1100 &
b1100 (
b1100 3
b1100 s
b1100 ~
1!
#280000
0!
#290000
b1111111111111111 <
b1111111111111111 f
b1111111111111111 k
b1111111100000000 D
b1111111100000000 R
b1111111100000000 T
bx %
bx '
bx )
bx r
b1111111111111111 a
b100 /
b100 e
b100 ""
10
1b
1:
b100 ;
b100 g
b100 l
b1 @
b1 `
b1 i
b100101 A
b100101 _
b100101 h
b11 E
b11 Q
b11 S
b1111111100000000 P
b100000 6
b100000 y
b100000 {
b10 8
b10 x
b10 z
b100 Z
b111111 [
b11111 \
b10000 $
b10000 &
b10000 (
b10000 3
b10000 s
b10000 ~
b110100000001001111111111111111 ?
b110100000001001111111111111111 ^
b110100000001001111111111111111 t
b1100 >
b1100 Y
b1100 u
b11 F
b11 K
b11 q
b1111111100000000 G
b1111111100000000 L
b1111111100000000 p
b100000 7
b100000 V
b100000 w
b10 9
b10 U
b10 v
b1000100000000 +
b1000100000000 }
b1000100000000 $"
1*
b1 ,
b1 |
b1 #"
1!
#300000
0!
#310000
b1111111111111111 D
b1111111111111111 R
b1111111111111111 T
b0 <
b0 f
b0 k
b1111111100000000 6
b1111111100000000 y
b1111111100000000 {
b11 8
b11 x
b11 z
b100 E
b100 Q
b100 S
b1111111111111111 P
b0 a
bx /
bx e
bx ""
bx 2
bx c
bx !"
00
0b
0:
bx ;
bx g
bx l
b0 @
b0 `
b0 i
b0 A
b0 _
b0 h
bx Z
bx [
bx \
bx ]
b100000 +
b100000 }
b100000 $"
b10 ,
b10 |
b10 #"
b1111111100000000 7
b1111111100000000 V
b1111111100000000 w
b11 9
b11 U
b11 v
b100 F
b100 K
b100 q
b1111111111111111 G
b1111111111111111 L
b1111111111111111 p
bx ?
bx ^
bx t
b10000 >
b10000 Y
b10000 u
b10100 $
b10100 &
b10100 (
b10100 3
b10100 s
b10100 ~
1!
#320000
0!
#330000
b0 D
b0 R
b0 T
0B
bx E
bx Q
bx S
b0 P
b1111111111111111 6
b1111111111111111 y
b1111111111111111 {
b100 8
b100 x
b100 z
b11000 $
b11000 &
b11000 (
b11000 3
b11000 s
b11000 ~
b10100 >
b10100 Y
b10100 u
0C
bx F
bx K
bx q
b0 G
b0 L
b0 p
b0 I
b0 N
b0 n
b0 J
b0 O
b0 m
b1111111111111111 7
b1111111111111111 V
b1111111111111111 w
b100 9
b100 U
b100 v
b1111111100000000 +
b1111111100000000 }
b1111111100000000 $"
b11 ,
b11 |
b11 #"
1!
#340000
0!
#350000
b0 6
b0 y
b0 {
04
bx 8
bx x
bx z
b1111111111111111 +
b1111111111111111 }
b1111111111111111 $"
b100 ,
b100 |
b100 #"
b0 7
b0 V
b0 w
05
bx 9
bx U
bx v
b11000 >
b11000 Y
b11000 u
b11100 $
b11100 &
b11100 (
b11100 3
b11100 s
b11100 ~
1!
#360000
0!
#370000
b100000 $
b100000 &
b100000 (
b100000 3
b100000 s
b100000 ~
b11100 >
b11100 Y
b11100 u
b0 +
b0 }
b0 $"
0*
bx ,
bx |
bx #"
1!
#380000
0!
#390000
b100000 >
b100000 Y
b100000 u
b100100 $
b100100 &
b100100 (
b100100 3
b100100 s
b100100 ~
1!
#400000
0!
#410000
b101000 $
b101000 &
b101000 (
b101000 3
b101000 s
b101000 ~
b100100 >
b100100 Y
b100100 u
1!
#420000
0!
#430000
b101000 >
b101000 Y
b101000 u
b101100 $
b101100 &
b101100 (
b101100 3
b101100 s
b101100 ~
1!
#440000
0!
#450000
b110000 $
b110000 &
b110000 (
b110000 3
b110000 s
b110000 ~
b101100 >
b101100 Y
b101100 u
1!
#460000
0!
#470000
b110000 >
b110000 Y
b110000 u
b110100 $
b110100 &
b110100 (
b110100 3
b110100 s
b110100 ~
1!
#480000
0!
#490000
b111000 $
b111000 &
b111000 (
b111000 3
b111000 s
b111000 ~
b110100 >
b110100 Y
b110100 u
1!
#500000
0!
#510000
b111000 >
b111000 Y
b111000 u
b111100 $
b111100 &
b111100 (
b111100 3
b111100 s
b111100 ~
1!
#520000
0!
#530000
b1000000 $
b1000000 &
b1000000 (
b1000000 3
b1000000 s
b1000000 ~
b111100 >
b111100 Y
b111100 u
1!
#540000
0!
#550000
b1000000 >
b1000000 Y
b1000000 u
b1000100 $
b1000100 &
b1000100 (
b1000100 3
b1000100 s
b1000100 ~
1!
#560000
0!
#570000
b1001000 $
b1001000 &
b1001000 (
b1001000 3
b1001000 s
b1001000 ~
b1000100 >
b1000100 Y
b1000100 u
1!
#580000
0!
#590000
b1001000 >
b1001000 Y
b1001000 u
b1001100 $
b1001100 &
b1001100 (
b1001100 3
b1001100 s
b1001100 ~
1!
#600000
0!
#610000
b1010000 $
b1010000 &
b1010000 (
b1010000 3
b1010000 s
b1010000 ~
b1001100 >
b1001100 Y
b1001100 u
1!
#620000
0!
#630000
b1010000 >
b1010000 Y
b1010000 u
b1010100 $
b1010100 &
b1010100 (
b1010100 3
b1010100 s
b1010100 ~
1!
#640000
0!
#650000
b1011000 $
b1011000 &
b1011000 (
b1011000 3
b1011000 s
b1011000 ~
b1010100 >
b1010100 Y
b1010100 u
1!
#660000
0!
#670000
b1011000 >
b1011000 Y
b1011000 u
b1011100 $
b1011100 &
b1011100 (
b1011100 3
b1011100 s
b1011100 ~
1!
#680000
0!
#690000
b1100000 $
b1100000 &
b1100000 (
b1100000 3
b1100000 s
b1100000 ~
b1011100 >
b1011100 Y
b1011100 u
1!
#700000
0!
#710000
b1100000 >
b1100000 Y
b1100000 u
b1100100 $
b1100100 &
b1100100 (
b1100100 3
b1100100 s
b1100100 ~
1!
#720000
0!
#730000
b1101000 $
b1101000 &
b1101000 (
b1101000 3
b1101000 s
b1101000 ~
b1100100 >
b1100100 Y
b1100100 u
1!
#740000
0!
#750000
b1101000 >
b1101000 Y
b1101000 u
b1101100 $
b1101100 &
b1101100 (
b1101100 3
b1101100 s
b1101100 ~
1!
#760000
0!
#770000
b1110000 $
b1110000 &
b1110000 (
b1110000 3
b1110000 s
b1110000 ~
b1101100 >
b1101100 Y
b1101100 u
1!
#780000
0!
#790000
b1110000 >
b1110000 Y
b1110000 u
b1110100 $
b1110100 &
b1110100 (
b1110100 3
b1110100 s
b1110100 ~
1!
#800000
0!
#810000
b1111000 $
b1111000 &
b1111000 (
b1111000 3
b1111000 s
b1111000 ~
b1110100 >
b1110100 Y
b1110100 u
1!
#820000
0!
#830000
b1111000 >
b1111000 Y
b1111000 u
b1111100 $
b1111100 &
b1111100 (
b1111100 3
b1111100 s
b1111100 ~
1!
#840000
0!
#850000
b10000000 $
b10000000 &
b10000000 (
b10000000 3
b10000000 s
b10000000 ~
b1111100 >
b1111100 Y
b1111100 u
1!
#860000
0!
#870000
b10000000 >
b10000000 Y
b10000000 u
b10000100 $
b10000100 &
b10000100 (
b10000100 3
b10000100 s
b10000100 ~
1!
#880000
0!
#890000
b10001000 $
b10001000 &
b10001000 (
b10001000 3
b10001000 s
b10001000 ~
b10000100 >
b10000100 Y
b10000100 u
1!
#900000
0!
#910000
b10001000 >
b10001000 Y
b10001000 u
b10001100 $
b10001100 &
b10001100 (
b10001100 3
b10001100 s
b10001100 ~
1!
#920000
0!
#930000
b10010000 $
b10010000 &
b10010000 (
b10010000 3
b10010000 s
b10010000 ~
b10001100 >
b10001100 Y
b10001100 u
1!
#940000
0!
#950000
b10010000 >
b10010000 Y
b10010000 u
b10010100 $
b10010100 &
b10010100 (
b10010100 3
b10010100 s
b10010100 ~
1!
#960000
0!
#970000
b10011000 $
b10011000 &
b10011000 (
b10011000 3
b10011000 s
b10011000 ~
b10010100 >
b10010100 Y
b10010100 u
1!
#980000
0!
#990000
b10011000 >
b10011000 Y
b10011000 u
b10011100 $
b10011100 &
b10011100 (
b10011100 3
b10011100 s
b10011100 ~
1!
#1000000
0!
#1010000
b10100000 $
b10100000 &
b10100000 (
b10100000 3
b10100000 s
b10100000 ~
b10011100 >
b10011100 Y
b10011100 u
1!
#1020000
0!
#1030000
b10100000 >
b10100000 Y
b10100000 u
b10100100 $
b10100100 &
b10100100 (
b10100100 3
b10100100 s
b10100100 ~
1!
#1040000
0!
#1050000
b10101000 $
b10101000 &
b10101000 (
b10101000 3
b10101000 s
b10101000 ~
b10100100 >
b10100100 Y
b10100100 u
1!
#1060000
0!
#1070000
b10101000 >
b10101000 Y
b10101000 u
b10101100 $
b10101100 &
b10101100 (
b10101100 3
b10101100 s
b10101100 ~
1!
#1080000
0!
#1090000
b10110000 $
b10110000 &
b10110000 (
b10110000 3
b10110000 s
b10110000 ~
b10101100 >
b10101100 Y
b10101100 u
1!
#1100000
0!
#1110000
b10110000 >
b10110000 Y
b10110000 u
b10110100 $
b10110100 &
b10110100 (
b10110100 3
b10110100 s
b10110100 ~
1!
#1120000
0!
#1130000
b10111000 $
b10111000 &
b10111000 (
b10111000 3
b10111000 s
b10111000 ~
b10110100 >
b10110100 Y
b10110100 u
1!
#1140000
0!
#1150000
b10111000 >
b10111000 Y
b10111000 u
b10111100 $
b10111100 &
b10111100 (
b10111100 3
b10111100 s
b10111100 ~
1!
#1160000
0!
#1170000
b11000000 $
b11000000 &
b11000000 (
b11000000 3
b11000000 s
b11000000 ~
b10111100 >
b10111100 Y
b10111100 u
1!
#1180000
0!
#1190000
b11000000 >
b11000000 Y
b11000000 u
b11000100 $
b11000100 &
b11000100 (
b11000100 3
b11000100 s
b11000100 ~
1!
