7-load-store/openmips_min_sopc_tb.vcd
$date
	Fri Jan  7 17:03:36 2022
$end
$version
	Icarus Verilog
$end
$timescale
	1ps
$end
$scope module openmips_min_sopc_tb $end
$var reg 1 ! clk $end
$var reg 1 " rst $end
$scope module openmips_min_sopc0 $end
$var wire 1 ! clk $end
$var wire 1 " rst $end
$var wire 1 # rom_ce $end
$var wire 1 $ ram_we_wire $end
$var wire 4 % ram_sel_wire [3:0] $end
$var wire 32 & ram_data_o_wire [31:0] $end
$var wire 32 ' ram_data_i_wire [31:0] $end
$var wire 1 ( ram_ce_wire $end
$var wire 32 ) ram_addr_wire [31:0] $end
$var wire 32 * inst_addr [31:0] $end
$var wire 32 + inst [31:0] $end
$scope module inst_rom0 $end
$var wire 1 # ce $end
$var wire 32 , addr [31:0] $end
$var reg 32 - inst [31:0] $end
$upscope $end
$scope module openmips0 $end
$var wire 1 ! clk $end
$var wire 32 . rom_addr_o [31:0] $end
$var wire 32 / rom_data_i [31:0] $end
$var wire 1 " rst $end
$var wire 1 0 wb_wreg_i $end
$var wire 1 1 wb_whilo $end
$var wire 32 2 wb_wdata_i [31:0] $end
$var wire 5 3 wb_wd_i [4:0] $end
$var wire 32 4 wb_lo [31:0] $end
$var wire 32 5 wb_hi [31:0] $end
$var wire 1 6 stall_from_id $end
$var wire 1 7 stall_from_ex $end
$var wire 1 # rom_ce_o $end
$var wire 1 8 reg2_read $end
$var wire 32 9 reg2_data [31:0] $end
$var wire 5 : reg2_addr [4:0] $end
$var wire 1 ; reg1_read $end
$var wire 32 < reg1_data [31:0] $end
$var wire 5 = reg1_addr [4:0] $end
$var wire 1 $ ram_we_o $end
$var wire 4 > ram_sel_o [3:0] $end
$var wire 32 ? ram_data_o [31:0] $end
$var wire 32 @ ram_data_i [31:0] $end
$var wire 1 ( ram_ce_o $end
$var wire 32 A ram_addr_o [31:0] $end
$var wire 32 B pc [31:0] $end
$var wire 1 C mem_wreg_o $end
$var wire 1 D mem_wreg_i $end
$var wire 1 E mem_whilo_o $end
$var wire 32 F mem_wdata_o [31:0] $end
$var wire 32 G mem_wdata_i [31:0] $end
$var wire 5 H mem_wd_o [4:0] $end
$var wire 5 I mem_wd_i [4:0] $end
$var wire 32 J mem_reg2_o [31:0] $end
$var wire 32 K mem_mem_addr_o [31:0] $end
$var wire 32 L mem_lo_o [31:0] $end
$var wire 32 M mem_hi_o [31:0] $end
$var wire 8 N mem_aluop_o [7:0] $end
$var wire 1 O idex_id_is_in_delayslot $end
$var wire 32 P idex_ex_link_address [31:0] $end
$var wire 1 Q idex_ex_is_in_delayslot $end
$var wire 1 R id_wreg_o $end
$var wire 5 S id_wd_o [4:0] $end
$var wire 32 T id_reg2_o [31:0] $end
$var wire 32 U id_reg1_o [31:0] $end
$var wire 32 V id_pc_i [31:0] $end
$var wire 32 W id_pc_branch_target_address [31:0] $end
$var wire 1 X id_pc_branch_flag $end
$var wire 32 Y id_inst_o [31:0] $end
$var wire 32 Z id_inst_i [31:0] $end
$var wire 1 [ id_idex_next_inst_in_delayslot $end
$var wire 32 \ id_idex_link_addr [31:0] $end
$var wire 1 ] id_idex_is_in_delayslot $end
$var wire 32 ^ id_ex2ex_inst_o [31:0] $end
$var wire 3 _ id_alusel_o [2:0] $end
$var wire 8 ` id_aluop_o [7:0] $end
$var wire 32 a hilo_lo_o [31:0] $end
$var wire 32 b hilo_hi_o [31:0] $end
$var wire 1 c exmem_whilo_o $end
$var wire 32 d exmem_lo_o [31:0] $end
$var wire 32 e exmem_hi_o [31:0] $end
$var wire 1 f ex_wreg_o $end
$var wire 1 g ex_wreg_i $end
$var wire 1 h ex_whilo_o $end
$var wire 32 i ex_wdata_o [31:0] $end
$var wire 5 j ex_wd_o [4:0] $end
$var wire 5 k ex_wd_i [4:0] $end
$var wire 1 l ex_signed_div_o $end
$var wire 32 m ex_reg2_o [31:0] $end
$var wire 32 n ex_reg2_i [31:0] $end
$var wire 32 o ex_reg1_i [31:0] $end
$var wire 32 p ex_mem_addr_o [31:0] $end
$var wire 32 q ex_lo_o [31:0] $end
$var wire 64 r ex_hilo_temp_o [63:0] $end
$var wire 64 s ex_hilo_temp_i [63:0] $end
$var wire 32 t ex_hi_o [31:0] $end
$var wire 1 u ex_div_start_o $end
$var wire 64 v ex_div_result_i [63:0] $end
$var wire 1 w ex_div_ready_i $end
$var wire 32 x ex_div_opdata2_o [31:0] $end
$var wire 32 y ex_div_opdata1_o [31:0] $end
$var wire 2 z ex_cnt_o [1:0] $end
$var wire 2 { ex_cnt_i [1:0] $end
$var wire 3 | ex_alusel_i [2:0] $end
$var wire 8 } ex_aluop_o [7:0] $end
$var wire 8 ~ ex_aluop_i [7:0] $end
$var wire 6 !" ctrl_stall_o [5:0] $end
$scope module ctrl0 $end
$var wire 1 " rst $end
$var wire 1 6 stall_from_id $end
$var wire 1 7 stall_from_ex $end
$var reg 6 "" stall [5:0] $end
$upscope $end
$scope module div0 $end
$var wire 1 " Rst_n $end
$var wire 1 #" annul_i $end
$var wire 1 ! clk $end
$var wire 1 u start_i $end
$var wire 1 l signed_div_i $end
$var wire 32 $" opdata2_i [31:0] $end
$var wire 32 %" opdata1_i [31:0] $end
$var wire 33 &" div_temp [32:0] $end
$var reg 6 '" cnt [5:0] $end
$var reg 65 (" dividend [64:0] $end
$var reg 32 )" divisor [31:0] $end
$var reg 1 w ready_o $end
$var reg 64 *" result_o [63:0] $end
$var reg 2 +" state [1:0] $end
$var reg 32 ," temp_op1 [31:0] $end
$var reg 32 -" temp_op2 [31:0] $end
$upscope $end
$scope module ex0 $end
$var wire 1 " Rst_n $end
$var wire 8 ." aluop_o [7:0] $end
$var wire 1 w div_ready_i $end
$var wire 64 /" div_result_i [63:0] $end
$var wire 1 0" ov_sum $end
$var wire 32 1" reg1_i_not [31:0] $end
$var wire 32 2" reg2_o [31:0] $end
$var wire 1 g wreg_i $end
$var wire 5 3" wd_i [4:0] $end
$var wire 1 1 wb_wen_hilo $end
$var wire 32 4" wb_lo_i [31:0] $end
$var wire 32 5" wb_hi_i [31:0] $end
$var wire 32 6" result_sum [31:0] $end
$var wire 32 7" reg2_i_mux [31:0] $end
$var wire 32 8" reg2_i [31:0] $end
$var wire 1 9" reg1_lt_reg2 $end
$var wire 32 :" reg1_i [31:0] $end
$var wire 32 ;" opdata2_mult [31:0] $end
$var wire 32 <" opdata1_mult [31:0] $end
$var wire 1 E mem_wen_hilo $end
$var wire 32 =" mem_lo_i [31:0] $end
$var wire 32 >" mem_hi_i [31:0] $end
$var wire 32 ?" mem_addr_o [31:0] $end
$var wire 32 @" lo_i [31:0] $end
$var wire 32 A" link_addres_i [31:0] $end
$var wire 1 Q is_in_delayslot_i $end
$var wire 32 B" inst_i [31:0] $end
$var wire 64 C" hilo_tmp [63:0] $end
$var wire 64 D" hilo_temp_i [63:0] $end
$var wire 32 E" hi_i [31:0] $end
$var wire 2 F" cnt_i [1:0] $end
$var wire 3 G" alusel_i [2:0] $end
$var wire 8 H" aluop_i [7:0] $end
$var reg 32 I" HI [31:0] $end
$var reg 32 J" LO [31:0] $end
$var reg 32 K" arithres [31:0] $end
$var reg 2 L" cnt_o [1:0] $end
$var reg 32 M" div_opdata1_o [31:0] $end
$var reg 32 N" div_opdata2_o [31:0] $end
$var reg 1 u div_start_o $end
$var reg 32 O" hi_o [31:0] $end
$var reg 64 P" hilo_temp1 [63:0] $end
$var reg 64 Q" hilo_temp_o [63:0] $end
$var reg 32 R" lo_o [31:0] $end
$var reg 32 S" logicout [31:0] $end
$var reg 32 T" movres [31:0] $end
$var reg 64 U" mulres [63:0] $end
$var reg 32 V" shiftres [31:0] $end
$var reg 1 l signed_div_o $end
$var reg 1 7 stall_req_ex $end
$var reg 1 W" stallreq_for_div $end
$var reg 1 X" stallreq_for_madd_msub $end
$var reg 5 Y" wd_o [4:0] $end
$var reg 32 Z" wdata_o [31:0] $end
$var reg 1 h whilo_o $end
$var reg 1 f wreg_o $end
$upscope $end
$scope module ex_mem0 $end
$var wire 1 " Rst_n $end
$var wire 1 ! clk $end
$var wire 2 [" cnt_i [1:0] $end
$var wire 8 \" ex_aluop [7:0] $end
$var wire 32 ]" ex_hi_i [31:0] $end
$var wire 32 ^" ex_lo_i [31:0] $end
$var wire 32 _" ex_mem_addr [31:0] $end
$var wire 32 `" ex_reg2 [31:0] $end
$var wire 5 a" ex_wd [4:0] $end
$var wire 32 b" ex_wdata [31:0] $end
$var wire 1 h ex_whilo $end
$var wire 1 f ex_wreg $end
$var wire 64 c" hilo_temp_i [63:0] $end
$var wire 6 d" stall [5:0] $end
$var reg 2 e" cnt_o [1:0] $end
$var reg 64 f" hilo_temp_o [63:0] $end
$var reg 8 g" mem_aluop_o [7:0] $end
$var reg 32 h" mem_hi_o [31:0] $end
$var reg 32 i" mem_lo_o [31:0] $end
$var reg 32 j" mem_mem_addr_o [31:0] $end
$var reg 32 k" mem_reg2_o [31:0] $end
$var reg 5 l" mem_wd [4:0] $end
$var reg 32 m" mem_wdata [31:0] $end
$var reg 1 c mem_whilo $end
$var reg 1 D mem_wreg $end
$upscope $end
$scope module hilo $end
$var wire 1 ! clk $end
$var wire 1 " rst $end
$var wire 1 1 we $end
$var wire 32 n" lo_in [31:0] $end
$var wire 32 o" hi_in [31:0] $end
$var reg 32 p" hi_o [31:0] $end
$var reg 32 q" lo_o [31:0] $end
$upscope $end
$scope module id0 $end
$var wire 1 " Rst_n $end
$var wire 5 r" ex_wd_i [4:0] $end
$var wire 32 s" ex_wdata_i [31:0] $end
$var wire 1 f ex_wreg_i $end
$var wire 32 t" inst_o [31:0] $end
$var wire 32 u" reg2_data_i [31:0] $end
$var wire 32 v" reg1_data_i [31:0] $end
$var wire 32 w" pc_plus_8 [31:0] $end
$var wire 32 x" pc_plus_4 [31:0] $end
$var wire 32 y" pc_i [31:0] $end
$var wire 5 z" op4 [4:0] $end
$var wire 6 {" op3 [5:0] $end
$var wire 5 |" op2 [4:0] $end
$var wire 6 }" op [5:0] $end
$var wire 1 C mem_wreg_i $end
$var wire 32 ~" mem_wdata_i [31:0] $end
$var wire 5 !# mem_wd_i [4:0] $end
$var wire 1 O is_in_delayslot_i $end
$var wire 32 "# inst_i [31:0] $end
$var wire 32 ## imm_sll2_signedext [31:0] $end
$var reg 8 $# aluop_o [7:0] $end
$var reg 3 %# alusel_o [2:0] $end
$var reg 1 X branch_flag_o $end
$var reg 32 &# branch_target_addr_o [31:0] $end
$var reg 32 '# imm [31:0] $end
$var reg 1 (# inst_valid $end
$var reg 1 ] is_in_delayslot_o $end
$var reg 32 )# link_addr_o [31:0] $end
$var reg 1 [ next_inst_in_delayslot_o $end
$var reg 5 *# reg1_addr_o [4:0] $end
$var reg 32 +# reg1_o [31:0] $end
$var reg 1 ; reg1_read_o $end
$var reg 5 ,# reg2_addr_o [4:0] $end
$var reg 32 -# reg2_o [31:0] $end
$var reg 1 8 reg2_read_o $end
$var reg 1 6 stall_req_id $end
$var reg 5 .# wd_o [4:0] $end
$var reg 1 R wreg_o $end
$upscope $end
$scope module id_ex0 $end
$var wire 1 ! Clk $end
$var wire 1 " Rst_n $end
$var wire 8 /# id_aluop [7:0] $end
$var wire 3 0# id_alusel [2:0] $end
$var wire 32 1# id_inst_i [31:0] $end
$var wire 1 ] id_is_in_delayslot_i $end
$var wire 32 2# id_link_address_i [31:0] $end
$var wire 32 3# id_reg1 [31:0] $end
$var wire 32 4# id_reg2 [31:0] $end
$var wire 5 5# id_wd [4:0] $end
$var wire 1 R id_wreg $end
$var wire 1 [ next_inst_in_delayslot_i $end
$var wire 6 6# stall [5:0] $end
$var reg 8 7# ex_aluop [7:0] $end
$var reg 3 8# ex_alusel [2:0] $end
$var reg 32 9# ex_inst_o [31:0] $end
$var reg 1 Q ex_is_in_delayslot_o $end
$var reg 32 :# ex_link_address_o [31:0] $end
$var reg 32 ;# ex_reg1 [31:0] $end
$var reg 32 <# ex_reg2 [31:0] $end
$var reg 5 =# ex_wd [4:0] $end
$var reg 1 g ex_wreg $end
$var reg 1 O is_in_delayslot_o $end
$upscope $end
$scope module if_id0 $end
$var wire 1 ! Clk $end
$var wire 1 " Rst_n $end
$var wire 32 ># if_inst [31:0] $end
$var wire 6 ?# stall [5:0] $end
$var wire 32 @# if_pc [31:0] $end
$var reg 32 A# id_inst [31:0] $end
$var reg 32 B# id_pc [31:0] $end
$upscope $end
$scope module mem0 $end
$var wire 8 C# aluop_i [7:0] $end
$var wire 32 D# hi_i [31:0] $end
$var wire 32 E# lo_i [31:0] $end
$var wire 32 F# mem_addr_i [31:0] $end
$var wire 1 $ mem_we_o $end
$var wire 32 G# reg2_i [31:0] $end
$var wire 1 " rst $end
$var wire 5 H# wd_i [4:0] $end
$var wire 32 I# wdata_i [31:0] $end
$var wire 1 c whilo_i $end
$var wire 1 D wreg_i $end
$var wire 32 J# zero32 [31:0] $end
$var wire 32 K# mem_data_i [31:0] $end
$var reg 32 L# hi_o [31:0] $end
$var reg 32 M# lo_o [31:0] $end
$var reg 32 N# mem_addr_o [31:0] $end
$var reg 1 ( mem_ce_o $end
$var reg 32 O# mem_data_o [31:0] $end
$var reg 4 P# mem_sel_o [3:0] $end
$var reg 1 Q# mem_we $end
$var reg 5 R# wd_o [4:0] $end
$var reg 32 S# wdata_o [31:0] $end
$var reg 1 E whilo_o $end
$var reg 1 C wreg_o $end
$upscope $end
$scope module mem_wb0 $end
$var wire 1 ! clk $end
$var wire 32 T# mem_hi_i [31:0] $end
$var wire 32 U# mem_lo_i [31:0] $end
$var wire 5 V# mem_wd [4:0] $end
$var wire 32 W# mem_wdata [31:0] $end
$var wire 1 E mem_whilo_i $end
$var wire 1 C mem_wreg $end
$var wire 1 " rst $end
$var wire 6 X# stall [5:0] $end
$var reg 32 Y# wb_hi_o [31:0] $end
$var reg 32 Z# wb_lo_o [31:0] $end
$var reg 5 [# wb_wd [4:0] $end
$var reg 32 \# wb_wdata [31:0] $end
$var reg 1 1 wb_whilo_o $end
$var reg 1 0 wb_wreg $end
$upscope $end
$scope module pc_reg0 $end
$var wire 1 ! Clk $end
$var wire 1 " Rst $end
$var wire 1 X branch_flag_i $end
$var wire 32 ]# branch_target_address_i [31:0] $end
$var wire 6 ^# stall [5:0] $end
$var reg 1 # ce $end
$var reg 32 _# pc [31:0] $end
$upscope $end
$scope module reg_file0 $end
$var wire 1 ! Clk $end
$var wire 1 " Rst_n $end
$var wire 5 `# raddr1 [4:0] $end
$var wire 5 a# raddr2 [4:0] $end
$var wire 1 ; re1 $end
$var wire 1 8 re2 $end
$var wire 5 b# waddr [4:0] $end
$var wire 32 c# wdata [31:0] $end
$var wire 1 0 we $end
$var reg 32 d# rdata1 [31:0] $end
$var reg 32 e# rdata2 [31:0] $end
$upscope $end
$upscope $end
$scope module ram0 $end
$var wire 32 f# addr [31:0] $end
$var wire 1 ( ce $end
$var wire 1 ! clk $end
$var wire 32 g# data [31:0] $end
$var wire 4 h# sel [3:0] $end
$var wire 1 $ we $end
$var reg 32 i# data_o [31:0] $end
$upscope $end
$upscope $end
$upscope $end
$enddefinitions $end
#0
$dumpvars
b0 i#
b0 h#
b0 g#
b0 f#
b0 e#
b0 d#
bx c#
bx b#
b0 a#
b0 `#
bx _#
b0 ^#
b0 ]#
bx \#
bx [#
bx Z#
bx Y#
b0 X#
b0 W#
b0 V#
b0 U#
b0 T#
b0 S#
b0 R#
0Q#
b0 P#
b0 O#
b0 N#
b0 M#
b0 L#
b0 K#
b0 J#
bx I#
bx H#
bx G#
bx F#
bx E#
bx D#
bx C#
bx B#
bx A#
bx @#
b0 ?#
bx >#
bx =#
bx <#
bx ;#
bx :#
bx 9#
bx 8#
bx 7#
b0 6#
b0 5#
b0 4#
b0 3#
b0 2#
bx 1#
b0 0#
b0 /#
b0 .#
b0 -#
b0 ,#
b0 +#
b0 *#
b0 )#
1(#
b0 '#
b0 &#
b0 %#
b0 $#
bx00 ##
bx "#
b0 !#
b0 ~"
bx }"
bx |"
bx {"
bx z"
bx y"
bx x"
bx w"
b0 v"
b0 u"
bx t"
b0 s"
bx r"
bx q"
bx p"
bx o"
bx n"
bx m"
bx l"
bx k"
bx j"
bx i"
bx h"
bx g"
bx f"
bx e"
b0 d"
b0 c"
b0 b"
bx a"
bx `"
bx _"
b0 ^"
b0 ]"
bx \"
b0 ["
b0 Z"
bx Y"
0X"
0W"
b0 V"
b0 U"
b0 T"
b0 S"
b0 R"
b0 Q"
bx P"
b0 O"
b0 N"
b0 M"
b0 L"
b0 K"
b0 J"
b0 I"
bx H"
bx G"
bx F"
bx E"
bx D"
bx C"
bx B"
bx A"
bx @"
bx ?"
b0 >"
b0 ="
bx <"
bx ;"
bx :"
x9"
bx 8"
bx 7"
bx 6"
bx 5"
bx 4"
bx 3"
bx 2"
bx 1"
x0"
bx /"
bx ."
bx -"
bx ,"
bx +"
bx *"
bx )"
bx ("
bx '"
bx &"
b0 %"
b0 $"
0#"
b0 ""
b0 !"
bx ~
bx }
bx |
bx {
b0 z
b0 y
b0 x
xw
bx v
0u
b0 t
bx s
b0 r
b0 q
bx p
bx o
bx n
bx m
0l
bx k
bx j
b0 i
0h
xg
xf
bx e
bx d
xc
bx b
bx a
b0 `
b0 _
bx ^
0]
b0 \
0[
bx Z
bx Y
0X
b0 W
bx V
b0 U
b0 T
b0 S
0R
xQ
bx P
xO
bx N
b0 M
b0 L
bx K
bx J
bx I
b0 H
bx G
b0 F
0E
xD
0C
bx B
b0 A
b0 @
b0 ?
b0 >
b0 =
b0 <
0;
b0 :
b0 9
08
07
06
bx 5
bx 4
bx 3
bx 2
x1
x0
bx /
bx .
bx -
bx ,
bx +
bx *
b0 )
0(
b0 '
b0 &
b0 %
0$
x#
1"
0!
$end
#10000
b0 +
b0 -
b0 /
b0 >#
0f
b0 j
b0 Y"
b0 a"
b0 r"
00"
b0 ##
b0 z"
b0 {"
b0 |"
b0 }"
b0 p
b0 ?"
b0 _"
b0 C"
b0 ;"
b0 6"
b0 7"
b0 <"
b11111111111111111111111111111111 1"
09"
0#
b0 Y
b0 t"
b0 1#
b0 Z
b0 "#
b0 A#
b100 x"
b1000 w"
b0 V
b0 y"
b0 B#
b0 ^
b0 B"
b0 9#
0O
0Q
b0 P
b0 A"
b0 :#
0g
b0 k
b0 3"
b0 =#
b0 m
b0 2"
b0 `"
b0 n
b0 8"
b0 <#
b0 o
b0 :"
b0 ;#
b0 |
b0 G"
b0 8#
b0 }
b0 ."
b0 \"
b0 ~
b0 H"
b0 7#
b0 G
b0 m"
b0 I#
0D
b0 I
b0 l"
b0 H#
b0 J
b0 k"
b0 G#
b0 K
b0 j"
b0 F#
b0 N
b0 g"
b0 C#
b0 d
b0 i"
b0 E#
b0 e
b0 h"
b0 D#
0c
b0 2
b0 \#
b0 c#
00
b0 3
b0 [#
b0 b#
b0 4
b0 4"
b0 n"
b0 Z#
b0 5
b0 5"
b0 o"
b0 Y#
01
b0 a
b0 @"
b0 q"
b0 b
b0 E"
b0 p"
b0 ("
b0 +"
0w
b0 v
b0 *"
b0 /"
1!
#20000
0!
#30000
b0 *
b0 ,
b0 .
b0 B
b0 @#
b0 _#
1!
#40000
0!
#50000
1!
#60000
0!
#70000
1!
#80000
0!
#90000
1!
#100000
0!
#110000
1!
#120000
0!
#130000
1!
#140000
0!
#150000
1!
#160000
0!
#170000
1!
#180000
0!
#190000
1!
#195000
b0 P"
18
b10 _
b10 %#
b10 0#
b1111100 `
b1111100 $#
b1111100 /#
1R
1(#
0"
#200000
0!
#210000
b110100000000111110111011111111 +
b110100000000111110111011111111 -
b110100000000111110111011111111 /
b110100000000111110111011111111 >#
1f
1#
1g
b10 |
b10 G"
b10 8#
b1111100 }
b1111100 ."
b1111100 \"
b1111100 ~
b1111100 H"
b1111100 7#
b0 {
b0 F"
b0 e"
b0 s
b0 D"
b0 f"
1!
#220000
0!
#230000
b1110111011111111 T
b1110111011111111 -#
b1110111011111111 4#
b1110111011111111 '#
1;
1C
b11 :
b11 ,#
b11 a#
08
1(#
1R
b11 S
b11 .#
b11 5#
b1 _
b1 %#
b1 0#
b100101 `
b100101 $#
b100101 /#
b10100000000000110000000000000011 +
b10100000000000110000000000000011 -
b10100000000000110000000000000011 /
b10100000000000110000000000000011 >#
b11111111111111111011101111111100 ##
b11 z"
b111111 {"
b11011 |"
b1101 }"
b1111100 N
b1111100 g"
b1111100 C#
1D
b110100000000111110111011111111 Y
b110100000000111110111011111111 t"
b110100000000111110111011111111 1#
b110100000000111110111011111111 Z
b110100000000111110111011111111 "#
b110100000000111110111011111111 A#
b100 *
b100 ,
b100 .
b100 B
b100 @#
b100 _#
1!
#240000
0!
#250000
bx 9
bx u"
bx e#
b1110111011111111 T
b1110111011111111 -#
b1110111011111111 4#
b1110111011111111 i
b1110111011111111 Z"
b1110111011111111 b"
b1110111011111111 s"
18
b110001101000000010 +
b110001101000000010 -
b110001101000000010 /
b110001101000000010 >#
b0 '#
1;
1(#
0R
b0 S
b0 .#
b0 5#
b111 _
b111 %#
b111 0#
b1101000 `
b1101000 $#
b1101000 /#
b11 j
b11 Y"
b11 a"
b11 r"
b1110111011111111 S"
b1100 ##
b11 {"
b0 |"
b101000 }"
b11111111111111111110111011111111 p
b11111111111111111110111011111111 ?"
b11111111111111111110111011111111 _"
b1110111011111111 ;"
19"
b1110111011111111 6"
b1110111011111111 7"
b1000 *
b1000 ,
b1000 .
b1000 B
b1000 @#
b1000 _#
b10100000000000110000000000000011 Y
b10100000000000110000000000000011 t"
b10100000000000110000000000000011 1#
b10100000000000110000000000000011 Z
b10100000000000110000000000000011 "#
b10100000000000110000000000000011 A#
b1000 x"
b1100 w"
b100 V
b100 y"
b100 B#
b110100000000111110111011111111 ^
b110100000000111110111011111111 B"
b110100000000111110111011111111 9#
b11 k
b11 3"
b11 =#
b1110111011111111 m
b1110111011111111 2"
b1110111011111111 `"
b1110111011111111 n
b1110111011111111 8"
b1110111011111111 <#
b1 |
b1 G"
b1 8#
b100101 }
b100101 ."
b100101 \"
b100101 ~
b100101 H"
b100101 7#
10
1!
#260000
0!
#270000
b1000 U
b1000 +#
b1000 3#
b1110111011111111 F
b1110111011111111 ~"
b1110111011111111 S#
b1110111011111111 W#
b11 H
b11 !#
b11 R#
b11 V#
b0 i
b0 Z"
b0 b"
b0 s"
0f
b0 j
b0 Y"
b0 a"
b0 r"
b0 S"
b1000 '#
1R
18
0;
1(#
b11 S
b11 .#
b11 5#
b10 _
b10 %#
b10 0#
b10 `
b10 $#
b10 /#
b10100000000000110000000000000010 +
b10100000000000110000000000000010 -
b10100000000000110000000000000010 /
b10100000000000110000000000000010 >#
b11 p
b11 ?"
b11 _"
b110100000001000 ##
b10 {"
b1000 |"
b0 }"
b1110111011111111 J
b1110111011111111 k"
b1110111011111111 G#
b11111111111111111110111011111111 K
b11111111111111111110111011111111 j"
b11111111111111111110111011111111 F#
b100101 N
b100101 g"
b100101 C#
b1110111011111111 G
b1110111011111111 m"
b1110111011111111 I#
b11 I
b11 l"
b11 H#
b10100000000000110000000000000011 ^
b10100000000000110000000000000011 B"
b10100000000000110000000000000011 9#
0g
b0 k
b0 3"
b0 =#
b111 |
b111 G"
b111 8#
b1101000 }
b1101000 ."
b1101000 \"
b1101000 ~
b1101000 H"
b1101000 7#
b110001101000000010 Y
b110001101000000010 t"
b110001101000000010 1#
b110001101000000010 Z
b110001101000000010 "#
b110001101000000010 A#
b1100 x"
b10000 w"
b1000 V
b1000 y"
b1000 B#
b1100 *
b1100 ,
b1100 .
b1100 B
b1100 @#
b1100 _#
1!
#280000
0!
#290000
b11101110 i
b11101110 Z"
b11101110 b"
b11101110 s"
b0 U
b0 +#
b0 3#
b11101110 T
b11101110 -#
b11101110 4#
1;
b1110111011111111000 U"
b110100000000111100110011011101 +
b110100000000111100110011011101 -
b110100000000111100110011011101 /
b110100000000111100110011011101 >#
b0 '#
18
1(#
0R
b0 S
b0 .#
b0 5#
b111 _
b111 %#
b111 0#
b1101000 `
b1101000 $#
b1101000 /#
1f
b11 j
b11 Y"
b11 a"
b11 r"
b11101110 V"
b1 %
b1 >
b1 P#
b1 h#
1(
b11111111111111111111111111111111 &
b11111111111111111111111111111111 ?
b11111111111111111111111111111111 O#
b11111111111111111111111111111111 g#
1$
1Q#
b11 )
b11 A
b11 N#
b11 f#
b0 F
b0 ~"
b0 S#
b0 W#
0C
b0 H
b0 !#
b0 R#
b0 V#
b1110111011111111 9
b1110111011111111 u"
b1110111011111111 e#
b1000 ##
b0 |"
b101000 }"
b1110111011111111000 C"
b1000 <"
b11111111111111111111111111110111 1"
b10000 *
b10000 ,
b10000 .
b10000 B
b10000 @#
b10000 _#
b10100000000000110000000000000010 Y
b10100000000000110000000000000010 t"
b10100000000000110000000000000010 1#
b10100000000000110000000000000010 Z
b10100000000000110000000000000010 "#
b10100000000000110000000000000010 A#
b10000 x"
b10100 w"
b1100 V
b1100 y"
b1100 B#
b110001101000000010 ^
b110001101000000010 B"
b110001101000000010 9#
1g
b11 k
b11 3"
b11 =#
b1101000001010 p
b1101000001010 ?"
b1101000001010 _"
b1110111100000111 6"
b1000 o
b1000 :"
b1000 ;#
b10 |
b10 G"
b10 8#
b10 }
b10 ."
b10 \"
b10 ~
b10 H"
b10 7#
b0 G
b0 m"
b0 I#
0D
b0 I
b0 l"
b0 H#
b11 K
b11 j"
b11 F#
b1101000 N
b1101000 g"
b1101000 C#
b1110111011111111 2
b1110111011111111 \#
b1110111011111111 c#
b11 3
b11 [#
b11 b#
1!
#300000
0!
#310000
b1100110011011101 T
b1100110011011101 -#
b1100110011011101 4#
b0 9
b0 u"
b0 e#
b0 U"
b1100110011011101 '#
1R
0(
b0 %
b0 >
b0 P#
b0 h#
0$
0Q#
b0 )
b0 A
b0 N#
b0 f#
b11101110 F
b11101110 ~"
b11101110 S#
b11101110 W#
1C
b11 H
b11 !#
b11 R#
b11 V#
b0 i
b0 Z"
b0 b"
b0 s"
0f
b0 j
b0 Y"
b0 a"
b0 r"
08
1;
1(#
b11 S
b11 .#
b11 5#
b1 _
b1 %#
b1 0#
b100101 `
b100101 $#
b100101 /#
b10100000000000110000000000000001 +
b10100000000000110000000000000001 -
b10100000000000110000000000000001 /
b10100000000000110000000000000001 >#
b11101110 ;"
b11101110 7"
b0 C"
b0 <"
b11111111111111111111111111111111 1"
b11111111111111110011001101110100 ##
b11101 {"
b10011 |"
b1101 }"
b0 2
b0 \#
b0 c#
00
b0 3
b0 [#
b0 b#
b1101000001010 K
b1101000001010 j"
b1101000001010 F#
b10 N
b10 g"
b10 C#
b11101110 G
b11101110 m"
b11101110 I#
1D
b11 I
b11 l"
b11 H#
b10100000000000110000000000000010 ^
b10100000000000110000000000000010 B"
b10100000000000110000000000000010 9#
0g
b0 k
b0 3"
b0 =#
b11101110 m
b11101110 2"
b11101110 `"
b11101110 n
b11101110 8"
b11101110 <#
b10 p
b10 ?"
b10 _"
b11101110 6"
b0 o
b0 :"
b0 ;#
b111 |
b111 G"
b111 8#
b1101000 }
b1101000 ."
b1101000 \"
b1101000 ~
b1101000 H"
b1101000 7#
b110100000000111100110011011101 Y
b110100000000111100110011011101 t"
b110100000000111100110011011101 1#
b110100000000111100110011011101 Z
b110100000000111100110011011101 "#
b110100000000111100110011011101 A#
b10100 x"
b11000 w"
b10000 V
b10000 y"
b10000 B#
b10100 *
b10100 ,
b10100 .
b10100 B
b10100 @#
b10100 _#
1!
#320000
0!
#330000
b11101110 9
b11101110 u"
b11101110 e#
b1100110011011101 i
b1100110011011101 Z"
b1100110011011101 b"
b1100110011011101 s"
b1100110011011101 T
b1100110011011101 -#
b1100110011011101 4#
18
b110001101000000010 +
b110001101000000010 -
b110001101000000010 /
b110001101000000010 >#
b0 '#
1;
1(#
0R
b0 S
b0 .#
b0 5#
b111 _
b111 %#
b111 0#
b1101000 `
b1101000 $#
b1101000 /#
1f
b11 j
b11 Y"
b11 a"
b11 r"
b1100110011011101 S"
b10 %
b10 >
b10 P#
b10 h#
1(
b11101110111011101110111011101110 &
b11101110111011101110111011101110 ?
b11101110111011101110111011101110 O#
b11101110111011101110111011101110 g#
1$
1Q#
b10 )
b10 A
b10 N#
b10 f#
b0 F
b0 ~"
b0 S#
b0 W#
0C
b0 H
b0 !#
b0 R#
b0 V#
b100 ##
b1 {"
b0 |"
b101000 }"
b11111111111111111100110011011101 p
b11111111111111111100110011011101 ?"
b11111111111111111100110011011101 _"
b1100110011011101 ;"
b1100110011011101 6"
b1100110011011101 7"
b11000 *
b11000 ,
b11000 .
b11000 B
b11000 @#
b11000 _#
b10100000000000110000000000000001 Y
b10100000000000110000000000000001 t"
b10100000000000110000000000000001 1#
b10100000000000110000000000000001 Z
b10100000000000110000000000000001 "#
b10100000000000110000000000000001 A#
b11000 x"
b11100 w"
b10100 V
b10100 y"
b10100 B#
b110100000000111100110011011101 ^
b110100000000111100110011011101 B"
b110100000000111100110011011101 9#
1g
b11 k
b11 3"
b11 =#
b1100110011011101 m
b1100110011011101 2"
b1100110011011101 `"
b1100110011011101 n
b1100110011011101 8"
b1100110011011101 <#
b1 |
b1 G"
b1 8#
b100101 }
b100101 ."
b100101 \"
b100101 ~
b100101 H"
b100101 7#
b0 G
b0 m"
b0 I#
0D
b0 I
b0 l"
b0 H#
b11101110 J
b11101110 k"
b11101110 G#
b10 K
b10 j"
b10 F#
b1101000 N
b1101000 g"
b1101000 C#
b11101110 2
b11101110 \#
b11101110 c#
10
b11 3
b11 [#
b11 b#
1!
#340000
0!
