8-load-store-loadrelate/openmips_min_sopc_tb.vcd
$date
	Mon Jan 10 09:28:23 2022
$end
$version
	Icarus Verilog
$end
$timescale
	1ps
$end
$scope module openmips_min_sopc_tb $end
$var reg 1 ! clk $end
$var reg 1 " rst $end
$scope module openmips_min_sopc0 $end
$var wire 1 ! clk $end
$var wire 1 " rst $end
$var wire 1 # rom_ce $end
$var wire 1 $ ram_we_wire $end
$var wire 4 % ram_sel_wire [3:0] $end
$var wire 32 & ram_data_o_wire [31:0] $end
$var wire 32 ' ram_data_i_wire [31:0] $end
$var wire 1 ( ram_ce_wire $end
$var wire 32 ) ram_addr_wire [31:0] $end
$var wire 32 * inst_addr [31:0] $end
$var wire 32 + inst [31:0] $end
$scope module inst_rom0 $end
$var wire 1 # ce $end
$var wire 32 , addr [31:0] $end
$var reg 32 - inst [31:0] $end
$upscope $end
$scope module openmips0 $end
$var wire 1 ! clk $end
$var wire 32 . rom_addr_o [31:0] $end
$var wire 32 / rom_data_i [31:0] $end
$var wire 1 " rst $end
$var wire 1 0 wb_wreg_i $end
$var wire 1 1 wb_whilo $end
$var wire 32 2 wb_wdata_i [31:0] $end
$var wire 5 3 wb_wd_i [4:0] $end
$var wire 32 4 wb_lo [31:0] $end
$var wire 32 5 wb_hi [31:0] $end
$var wire 1 6 stall_from_id $end
$var wire 1 7 stall_from_ex $end
$var wire 1 # rom_ce_o $end
$var wire 1 8 reg2_read $end
$var wire 32 9 reg2_data [31:0] $end
$var wire 5 : reg2_addr [4:0] $end
$var wire 1 ; reg1_read $end
$var wire 32 < reg1_data [31:0] $end
$var wire 5 = reg1_addr [4:0] $end
$var wire 1 $ ram_we_o $end
$var wire 4 > ram_sel_o [3:0] $end
$var wire 32 ? ram_data_o [31:0] $end
$var wire 32 @ ram_data_i [31:0] $end
$var wire 1 ( ram_ce_o $end
$var wire 32 A ram_addr_o [31:0] $end
$var wire 32 B pc [31:0] $end
$var wire 1 C mem_wreg_o $end
$var wire 1 D mem_wreg_i $end
$var wire 1 E mem_whilo_o $end
$var wire 32 F mem_wdata_o [31:0] $end
$var wire 32 G mem_wdata_i [31:0] $end
$var wire 5 H mem_wd_o [4:0] $end
$var wire 5 I mem_wd_i [4:0] $end
$var wire 32 J mem_reg2_o [31:0] $end
$var wire 32 K mem_mem_addr_o [31:0] $end
$var wire 32 L mem_lo_o [31:0] $end
$var wire 32 M mem_hi_o [31:0] $end
$var wire 8 N mem_aluop_o [7:0] $end
$var wire 1 O idex_id_is_in_delayslot $end
$var wire 32 P idex_ex_link_address [31:0] $end
$var wire 1 Q idex_ex_is_in_delayslot $end
$var wire 1 R id_wreg_o $end
$var wire 5 S id_wd_o [4:0] $end
$var wire 32 T id_reg2_o [31:0] $end
$var wire 32 U id_reg1_o [31:0] $end
$var wire 32 V id_pc_i [31:0] $end
$var wire 32 W id_pc_branch_target_address [31:0] $end
$var wire 1 X id_pc_branch_flag $end
$var wire 32 Y id_inst_o [31:0] $end
$var wire 32 Z id_inst_i [31:0] $end
$var wire 1 [ id_idex_next_inst_in_delayslot $end
$var wire 32 \ id_idex_link_addr [31:0] $end
$var wire 1 ] id_idex_is_in_delayslot $end
$var wire 32 ^ id_ex2ex_inst_o [31:0] $end
$var wire 3 _ id_alusel_o [2:0] $end
$var wire 8 ` id_aluop_o [7:0] $end
$var wire 32 a hilo_lo_o [31:0] $end
$var wire 32 b hilo_hi_o [31:0] $end
$var wire 1 c exmem_whilo_o $end
$var wire 32 d exmem_lo_o [31:0] $end
$var wire 32 e exmem_hi_o [31:0] $end
$var wire 1 f ex_wreg_o $end
$var wire 1 g ex_wreg_i $end
$var wire 1 h ex_whilo_o $end
$var wire 32 i ex_wdata_o [31:0] $end
$var wire 5 j ex_wd_o [4:0] $end
$var wire 5 k ex_wd_i [4:0] $end
$var wire 1 l ex_signed_div_o $end
$var wire 32 m ex_reg2_o [31:0] $end
$var wire 32 n ex_reg2_i [31:0] $end
$var wire 32 o ex_reg1_i [31:0] $end
$var wire 32 p ex_mem_addr_o [31:0] $end
$var wire 32 q ex_lo_o [31:0] $end
$var wire 64 r ex_hilo_temp_o [63:0] $end
$var wire 64 s ex_hilo_temp_i [63:0] $end
$var wire 32 t ex_hi_o [31:0] $end
$var wire 1 u ex_div_start_o $end
$var wire 64 v ex_div_result_i [63:0] $end
$var wire 1 w ex_div_ready_i $end
$var wire 32 x ex_div_opdata2_o [31:0] $end
$var wire 32 y ex_div_opdata1_o [31:0] $end
$var wire 2 z ex_cnt_o [1:0] $end
$var wire 2 { ex_cnt_i [1:0] $end
$var wire 3 | ex_alusel_i [2:0] $end
$var wire 8 } ex_aluop_o [7:0] $end
$var wire 8 ~ ex_aluop_i [7:0] $end
$var wire 6 !" ctrl_stall_o [5:0] $end
$scope module ctrl0 $end
$var wire 1 " rst $end
$var wire 1 6 stall_from_id $end
$var wire 1 7 stall_from_ex $end
$var reg 6 "" stall [5:0] $end
$upscope $end
$scope module div0 $end
$var wire 1 " Rst_n $end
$var wire 1 #" annul_i $end
$var wire 1 ! clk $end
$var wire 1 u start_i $end
$var wire 1 l signed_div_i $end
$var wire 32 $" opdata2_i [31:0] $end
$var wire 32 %" opdata1_i [31:0] $end
$var wire 33 &" div_temp [32:0] $end
$var reg 6 '" cnt [5:0] $end
$var reg 65 (" dividend [64:0] $end
$var reg 32 )" divisor [31:0] $end
$var reg 1 w ready_o $end
$var reg 64 *" result_o [63:0] $end
$var reg 2 +" state [1:0] $end
$var reg 32 ," temp_op1 [31:0] $end
$var reg 32 -" temp_op2 [31:0] $end
$upscope $end
$scope module ex0 $end
$var wire 1 " Rst_n $end
$var wire 8 ." aluop_o [7:0] $end
$var wire 1 w div_ready_i $end
$var wire 64 /" div_result_i [63:0] $end
$var wire 1 0" ov_sum $end
$var wire 32 1" reg1_i_not [31:0] $end
$var wire 32 2" reg2_o [31:0] $end
$var wire 1 g wreg_i $end
$var wire 5 3" wd_i [4:0] $end
$var wire 1 1 wb_wen_hilo $end
$var wire 32 4" wb_lo_i [31:0] $end
$var wire 32 5" wb_hi_i [31:0] $end
$var wire 32 6" result_sum [31:0] $end
$var wire 32 7" reg2_i_mux [31:0] $end
$var wire 32 8" reg2_i [31:0] $end
$var wire 1 9" reg1_lt_reg2 $end
$var wire 32 :" reg1_i [31:0] $end
$var wire 32 ;" opdata2_mult [31:0] $end
$var wire 32 <" opdata1_mult [31:0] $end
$var wire 1 E mem_wen_hilo $end
$var wire 32 =" mem_lo_i [31:0] $end
$var wire 32 >" mem_hi_i [31:0] $end
$var wire 32 ?" mem_addr_o [31:0] $end
$var wire 32 @" lo_i [31:0] $end
$var wire 32 A" link_addres_i [31:0] $end
$var wire 1 Q is_in_delayslot_i $end
$var wire 32 B" inst_i [31:0] $end
$var wire 64 C" hilo_tmp [63:0] $end
$var wire 64 D" hilo_temp_i [63:0] $end
$var wire 32 E" hi_i [31:0] $end
$var wire 2 F" cnt_i [1:0] $end
$var wire 3 G" alusel_i [2:0] $end
$var wire 8 H" aluop_i [7:0] $end
$var reg 32 I" HI [31:0] $end
$var reg 32 J" LO [31:0] $end
$var reg 32 K" arithres [31:0] $end
$var reg 2 L" cnt_o [1:0] $end
$var reg 32 M" div_opdata1_o [31:0] $end
$var reg 32 N" div_opdata2_o [31:0] $end
$var reg 1 u div_start_o $end
$var reg 32 O" hi_o [31:0] $end
$var reg 64 P" hilo_temp1 [63:0] $end
$var reg 64 Q" hilo_temp_o [63:0] $end
$var reg 32 R" lo_o [31:0] $end
$var reg 32 S" logicout [31:0] $end
$var reg 32 T" movres [31:0] $end
$var reg 64 U" mulres [63:0] $end
$var reg 32 V" shiftres [31:0] $end
$var reg 1 l signed_div_o $end
$var reg 1 7 stall_req_ex $end
$var reg 1 W" stallreq_for_div $end
$var reg 1 X" stallreq_for_madd_msub $end
$var reg 5 Y" wd_o [4:0] $end
$var reg 32 Z" wdata_o [31:0] $end
$var reg 1 h whilo_o $end
$var reg 1 f wreg_o $end
$upscope $end
$scope module ex_mem0 $end
$var wire 1 " Rst_n $end
$var wire 1 ! clk $end
$var wire 2 [" cnt_i [1:0] $end
$var wire 8 \" ex_aluop [7:0] $end
$var wire 32 ]" ex_hi_i [31:0] $end
$var wire 32 ^" ex_lo_i [31:0] $end
$var wire 32 _" ex_mem_addr [31:0] $end
$var wire 32 `" ex_reg2 [31:0] $end
$var wire 5 a" ex_wd [4:0] $end
$var wire 32 b" ex_wdata [31:0] $end
$var wire 1 h ex_whilo $end
$var wire 1 f ex_wreg $end
$var wire 64 c" hilo_temp_i [63:0] $end
$var wire 6 d" stall [5:0] $end
$var reg 2 e" cnt_o [1:0] $end
$var reg 64 f" hilo_temp_o [63:0] $end
$var reg 8 g" mem_aluop_o [7:0] $end
$var reg 32 h" mem_hi_o [31:0] $end
$var reg 32 i" mem_lo_o [31:0] $end
$var reg 32 j" mem_mem_addr_o [31:0] $end
$var reg 32 k" mem_reg2_o [31:0] $end
$var reg 5 l" mem_wd [4:0] $end
$var reg 32 m" mem_wdata [31:0] $end
$var reg 1 c mem_whilo $end
$var reg 1 D mem_wreg $end
$upscope $end
$scope module hilo $end
$var wire 1 ! clk $end
$var wire 1 " rst $end
$var wire 1 1 we $end
$var wire 32 n" lo_in [31:0] $end
$var wire 32 o" hi_in [31:0] $end
$var reg 32 p" hi_o [31:0] $end
$var reg 32 q" lo_o [31:0] $end
$upscope $end
$scope module id0 $end
$var wire 1 " Rst_n $end
$var wire 8 r" ex_aluop_i [7:0] $end
$var wire 5 s" ex_wd_i [4:0] $end
$var wire 32 t" ex_wdata_i [31:0] $end
$var wire 1 f ex_wreg_i $end
$var wire 32 u" inst_o [31:0] $end
$var wire 1 6 stall_req_id $end
$var wire 32 v" reg2_data_i [31:0] $end
$var wire 32 w" reg1_data_i [31:0] $end
$var wire 1 x" pre_inst_is_load $end
$var wire 32 y" pc_plus_8 [31:0] $end
$var wire 32 z" pc_plus_4 [31:0] $end
$var wire 32 {" pc_i [31:0] $end
$var wire 5 |" op4 [4:0] $end
$var wire 6 }" op3 [5:0] $end
$var wire 5 ~" op2 [4:0] $end
$var wire 6 !# op [5:0] $end
$var wire 1 C mem_wreg_i $end
$var wire 32 "# mem_wdata_i [31:0] $end
$var wire 5 ## mem_wd_i [4:0] $end
$var wire 1 O is_in_delayslot_i $end
$var wire 32 $# inst_i [31:0] $end
$var wire 32 %# imm_sll2_signedext [31:0] $end
$var reg 8 &# aluop_o [7:0] $end
$var reg 3 '# alusel_o [2:0] $end
$var reg 1 X branch_flag_o $end
$var reg 32 (# branch_target_addr_o [31:0] $end
$var reg 32 )# imm [31:0] $end
$var reg 1 *# inst_valid $end
$var reg 1 ] is_in_delayslot_o $end
$var reg 32 +# link_addr_o [31:0] $end
$var reg 1 [ next_inst_in_delayslot_o $end
$var reg 5 ,# reg1_addr_o [4:0] $end
$var reg 32 -# reg1_o [31:0] $end
$var reg 1 ; reg1_read_o $end
$var reg 5 .# reg2_addr_o [4:0] $end
$var reg 32 /# reg2_o [31:0] $end
$var reg 1 8 reg2_read_o $end
$var reg 1 0# stallreq_for_reg1_loadrelate $end
$var reg 1 1# stallreq_for_reg2_loadrelate $end
$var reg 5 2# wd_o [4:0] $end
$var reg 1 R wreg_o $end
$upscope $end
$scope module id_ex0 $end
$var wire 1 ! Clk $end
$var wire 1 " Rst_n $end
$var wire 8 3# id_aluop [7:0] $end
$var wire 3 4# id_alusel [2:0] $end
$var wire 32 5# id_inst_i [31:0] $end
$var wire 1 ] id_is_in_delayslot_i $end
$var wire 32 6# id_link_address_i [31:0] $end
$var wire 32 7# id_reg1 [31:0] $end
$var wire 32 8# id_reg2 [31:0] $end
$var wire 5 9# id_wd [4:0] $end
$var wire 1 R id_wreg $end
$var wire 1 [ next_inst_in_delayslot_i $end
$var wire 6 :# stall [5:0] $end
$var reg 8 ;# ex_aluop [7:0] $end
$var reg 3 <# ex_alusel [2:0] $end
$var reg 32 =# ex_inst_o [31:0] $end
$var reg 1 Q ex_is_in_delayslot_o $end
$var reg 32 ># ex_link_address_o [31:0] $end
$var reg 32 ?# ex_reg1 [31:0] $end
$var reg 32 @# ex_reg2 [31:0] $end
$var reg 5 A# ex_wd [4:0] $end
$var reg 1 g ex_wreg $end
$var reg 1 O is_in_delayslot_o $end
$upscope $end
$scope module if_id0 $end
$var wire 1 ! Clk $end
$var wire 1 " Rst_n $end
$var wire 32 B# if_inst [31:0] $end
$var wire 6 C# stall [5:0] $end
$var wire 32 D# if_pc [31:0] $end
$var reg 32 E# id_inst [31:0] $end
$var reg 32 F# id_pc [31:0] $end
$upscope $end
$scope module mem0 $end
$var wire 8 G# aluop_i [7:0] $end
$var wire 32 H# hi_i [31:0] $end
$var wire 32 I# lo_i [31:0] $end
$var wire 32 J# mem_addr_i [31:0] $end
$var wire 1 $ mem_we_o $end
$var wire 32 K# reg2_i [31:0] $end
$var wire 1 " rst $end
$var wire 5 L# wd_i [4:0] $end
$var wire 32 M# wdata_i [31:0] $end
$var wire 1 c whilo_i $end
$var wire 1 D wreg_i $end
$var wire 32 N# zero32 [31:0] $end
$var wire 32 O# mem_data_i [31:0] $end
$var reg 32 P# hi_o [31:0] $end
$var reg 32 Q# lo_o [31:0] $end
$var reg 32 R# mem_addr_o [31:0] $end
$var reg 1 ( mem_ce_o $end
$var reg 32 S# mem_data_o [31:0] $end
$var reg 4 T# mem_sel_o [3:0] $end
$var reg 1 U# mem_we $end
$var reg 5 V# wd_o [4:0] $end
$var reg 32 W# wdata_o [31:0] $end
$var reg 1 E whilo_o $end
$var reg 1 C wreg_o $end
$upscope $end
$scope module mem_wb0 $end
$var wire 1 ! clk $end
$var wire 32 X# mem_hi_i [31:0] $end
$var wire 32 Y# mem_lo_i [31:0] $end
$var wire 5 Z# mem_wd [4:0] $end
$var wire 32 [# mem_wdata [31:0] $end
$var wire 1 E mem_whilo_i $end
$var wire 1 C mem_wreg $end
$var wire 1 " rst $end
$var wire 6 \# stall [5:0] $end
$var reg 32 ]# wb_hi_o [31:0] $end
$var reg 32 ^# wb_lo_o [31:0] $end
$var reg 5 _# wb_wd [4:0] $end
$var reg 32 `# wb_wdata [31:0] $end
$var reg 1 1 wb_whilo_o $end
$var reg 1 0 wb_wreg $end
$upscope $end
$scope module pc_reg0 $end
$var wire 1 ! Clk $end
$var wire 1 " Rst $end
$var wire 1 X branch_flag_i $end
$var wire 32 a# branch_target_address_i [31:0] $end
$var wire 6 b# stall [5:0] $end
$var reg 1 # ce $end
$var reg 32 c# pc [31:0] $end
$upscope $end
$scope module reg_file0 $end
$var wire 1 ! Clk $end
$var wire 1 " Rst_n $end
$var wire 5 d# raddr1 [4:0] $end
$var wire 5 e# raddr2 [4:0] $end
$var wire 1 ; re1 $end
$var wire 1 8 re2 $end
$var wire 5 f# waddr [4:0] $end
$var wire 32 g# wdata [31:0] $end
$var wire 1 0 we $end
$var reg 32 h# rdata1 [31:0] $end
$var reg 32 i# rdata2 [31:0] $end
$upscope $end
$upscope $end
$scope module ram0 $end
$var wire 32 j# addr [31:0] $end
$var wire 1 ( ce $end
$var wire 1 ! clk $end
$var wire 32 k# data [31:0] $end
$var wire 4 l# sel [3:0] $end
$var wire 1 $ we $end
$var reg 32 m# data_o [31:0] $end
$upscope $end
$upscope $end
$upscope $end
$enddefinitions $end
#0
$dumpvars
b0 m#
b0 l#
b0 k#
b0 j#
b0 i#
b0 h#
bx g#
bx f#
b0 e#
b0 d#
bx c#
b0 b#
b0 a#
bx `#
bx _#
bx ^#
bx ]#
b0 \#
b0 [#
b0 Z#
b0 Y#
b0 X#
b0 W#
b0 V#
0U#
b0 T#
b0 S#
b0 R#
b0 Q#
b0 P#
b0 O#
b0 N#
bx M#
bx L#
bx K#
bx J#
bx I#
bx H#
bx G#
bx F#
bx E#
bx D#
b0 C#
bx B#
bx A#
bx @#
bx ?#
bx >#
bx =#
bx <#
bx ;#
b0 :#
b0 9#
b0 8#
b0 7#
b0 6#
bx 5#
b0 4#
b0 3#
b0 2#
01#
00#
b0 /#
b0 .#
b0 -#
b0 ,#
b0 +#
1*#
b0 )#
b0 (#
b0 '#
b0 &#
bx00 %#
bx $#
b0 ##
b0 "#
bx !#
bx ~"
bx }"
bx |"
bx {"
bx z"
bx y"
xx"
b0 w"
b0 v"
bx u"
b0 t"
bx s"
bx r"
bx q"
bx p"
bx o"
bx n"
bx m"
bx l"
bx k"
bx j"
bx i"
bx h"
bx g"
bx f"
bx e"
b0 d"
b0 c"
b0 b"
bx a"
bx `"
bx _"
b0 ^"
b0 ]"
bx \"
b0 ["
b0 Z"
bx Y"
0X"
0W"
b0 V"
b0 U"
b0 T"
b0 S"
b0 R"
b0 Q"
bx P"
b0 O"
b0 N"
b0 M"
b0 L"
b0 K"
b0 J"
b0 I"
bx H"
bx G"
bx F"
bx E"
bx D"
bx C"
bx B"
bx A"
bx @"
bx ?"
b0 >"
b0 ="
bx <"
bx ;"
bx :"
x9"
bx 8"
bx 7"
bx 6"
bx 5"
bx 4"
bx 3"
bx 2"
bx 1"
x0"
bx /"
bx ."
bx -"
bx ,"
bx +"
bx *"
bx )"
bx ("
bx '"
bx &"
b0 %"
b0 $"
0#"
b0 ""
b0 !"
bx ~
bx }
bx |
bx {
b0 z
b0 y
b0 x
xw
bx v
0u
b0 t
bx s
b0 r
b0 q
bx p
bx o
bx n
bx m
0l
bx k
bx j
b0 i
0h
xg
xf
bx e
bx d
xc
bx b
bx a
b0 `
b0 _
bx ^
0]
b0 \
0[
bx Z
bx Y
0X
b0 W
bx V
b0 U
b0 T
b0 S
0R
xQ
bx P
xO
bx N
b0 M
b0 L
bx K
bx J
bx I
b0 H
bx G
b0 F
0E
xD
0C
bx B
b0 A
b0 @
b0 ?
b0 >
b0 =
b0 <
0;
b0 :
b0 9
08
07
06
bx 5
bx 4
bx 3
bx 2
x1
x0
bx /
bx .
bx -
bx ,
bx +
bx *
b0 )
0(
b0 '
b0 &
b0 %
0$
x#
1"
0!
$end
#10000
b0 +
b0 -
b0 /
b0 B#
0f
b0 j
b0 Y"
b0 a"
b0 s"
0x"
00"
b0 %#
b0 |"
b0 }"
b0 ~"
b0 !#
b0 p
b0 ?"
b0 _"
b0 C"
b0 ;"
b0 6"
b0 7"
b0 <"
b11111111111111111111111111111111 1"
09"
0#
b0 Y
b0 u"
b0 5#
b0 Z
b0 $#
b0 E#
b100 z"
b1000 y"
b0 V
b0 {"
b0 F#
b0 ^
b0 B"
b0 =#
0O
0Q
b0 P
b0 A"
b0 >#
0g
b0 k
b0 3"
b0 A#
b0 m
b0 2"
b0 `"
b0 n
b0 8"
b0 @#
b0 o
b0 :"
b0 ?#
b0 |
b0 G"
b0 <#
b0 }
b0 ."
b0 \"
b0 r"
b0 ~
b0 H"
b0 ;#
b0 G
b0 m"
b0 M#
0D
b0 I
b0 l"
b0 L#
b0 J
b0 k"
b0 K#
b0 K
b0 j"
b0 J#
b0 N
b0 g"
b0 G#
b0 d
b0 i"
b0 I#
b0 e
b0 h"
b0 H#
0c
b0 2
b0 `#
b0 g#
00
b0 3
b0 _#
b0 f#
b0 4
b0 4"
b0 n"
b0 ^#
b0 5
b0 5"
b0 o"
b0 ]#
01
b0 a
b0 @"
b0 q"
b0 b
b0 E"
b0 p"
b0 ("
b0 +"
0w
b0 v
b0 *"
b0 /"
1!
#20000
0!
#30000
b0 *
b0 ,
b0 .
b0 B
b0 D#
b0 c#
1!
#40000
0!
#50000
1!
#60000
0!
#70000
1!
#80000
0!
#90000
1!
#100000
0!
#110000
1!
#120000
0!
#130000
1!
#140000
0!
#150000
1!
#160000
0!
#170000
1!
#180000
0!
#190000
1!
#195000
b0 P"
18
b10 _
b10 '#
b10 4#
b1111100 `
b1111100 &#
b1111100 3#
1R
1*#
0"
#200000
0!
#210000
b110100000000010001001000110100 +
b110100000000010001001000110100 -
b110100000000010001001000110100 /
b110100000000010001001000110100 B#
1f
1#
1g
b10 |
b10 G"
b10 <#
b1111100 }
b1111100 ."
b1111100 \"
b1111100 r"
b1111100 ~
b1111100 H"
b1111100 ;#
b0 {
b0 F"
b0 e"
b0 s
b0 D"
b0 f"
1!
#220000
0!
#230000
b1001000110100 T
b1001000110100 /#
b1001000110100 8#
b1001000110100 )#
1;
1C
b1 :
b1 .#
b1 e#
08
1*#
1R
b1 S
b1 2#
b1 9#
b1 _
b1 '#
b1 4#
b100101 `
b100101 &#
b100101 3#
b10101100000000010000000000000000 +
b10101100000000010000000000000000 -
b10101100000000010000000000000000 /
b10101100000000010000000000000000 B#
b100100011010000 %#
b1 |"
b110100 }"
b1000 ~"
b1101 !#
b1111100 N
b1111100 g"
b1111100 G#
1D
b110100000000010001001000110100 Y
b110100000000010001001000110100 u"
b110100000000010001001000110100 5#
b110100000000010001001000110100 Z
b110100000000010001001000110100 $#
b110100000000010001001000110100 E#
b100 *
b100 ,
b100 .
b100 B
b100 D#
b100 c#
1!
#240000
0!
#250000
bx 9
bx v"
bx i#
b1001000110100 T
b1001000110100 /#
b1001000110100 8#
b1001000110100 i
b1001000110100 Z"
b1001000110100 b"
b1001000110100 t"
18
b110100000000100001001000110100 +
b110100000000100001001000110100 -
b110100000000100001001000110100 /
b110100000000100001001000110100 B#
b0 )#
1;
1*#
0R
b0 S
b0 2#
b0 9#
b111 _
b111 '#
b111 4#
b1101010 `
b1101010 &#
b1101010 3#
b1 j
b1 Y"
b1 a"
b1 s"
b1001000110100 S"
b0 %#
b0 }"
b0 ~"
b101011 !#
b1001000110100 p
b1001000110100 ?"
b1001000110100 _"
b1001000110100 ;"
19"
b1001000110100 6"
b1001000110100 7"
b1000 *
b1000 ,
b1000 .
b1000 B
b1000 D#
b1000 c#
b10101100000000010000000000000000 Y
b10101100000000010000000000000000 u"
b10101100000000010000000000000000 5#
b10101100000000010000000000000000 Z
b10101100000000010000000000000000 $#
b10101100000000010000000000000000 E#
b1000 z"
b1100 y"
b100 V
b100 {"
b100 F#
b110100000000010001001000110100 ^
b110100000000010001001000110100 B"
b110100000000010001001000110100 =#
b1 k
b1 3"
b1 A#
b1001000110100 m
b1001000110100 2"
b1001000110100 `"
b1001000110100 n
b1001000110100 8"
b1001000110100 @#
b1 |
b1 G"
b1 <#
b100101 }
b100101 ."
b100101 \"
b100101 r"
b100101 ~
b100101 H"
b100101 ;#
10
1!
#260000
0!
#270000
b0 9
b0 v"
b0 i#
b1001000110100 )#
1R
b1001000110100 F
b1001000110100 "#
b1001000110100 W#
b1001000110100 [#
b1 H
b1 ##
b1 V#
b1 Z#
b0 i
b0 Z"
b0 b"
b0 t"
0f
b0 j
b0 Y"
b0 a"
b0 s"
b0 S"
b10 :
b10 .#
b10 e#
08
1;
1*#
b10 S
b10 2#
b10 9#
b1 _
b1 '#
b1 4#
b100101 `
b100101 &#
b100101 3#
b110100000000010000000000000000 +
b110100000000010000000000000000 -
b110100000000010000000000000000 /
b110100000000010000000000000000 B#
b0 p
b0 ?"
b0 _"
b100100011010000 %#
b10 |"
b110100 }"
b1000 ~"
b1101 !#
b1001000110100 J
b1001000110100 k"
b1001000110100 K#
b1001000110100 K
b1001000110100 j"
b1001000110100 J#
b100101 N
b100101 g"
b100101 G#
b1001000110100 G
b1001000110100 m"
b1001000110100 M#
b1 I
b1 l"
b1 L#
b10101100000000010000000000000000 ^
b10101100000000010000000000000000 B"
b10101100000000010000000000000000 =#
0g
b0 k
b0 3"
b0 A#
b111 |
b111 G"
b111 <#
b1101010 }
b1101010 ."
b1101010 \"
b1101010 r"
b1101010 ~
b1101010 H"
b1101010 ;#
b110100000000100001001000110100 Y
b110100000000100001001000110100 u"
b110100000000100001001000110100 5#
b110100000000100001001000110100 Z
b110100000000100001001000110100 $#
b110100000000100001001000110100 E#
b1100 z"
b10000 y"
b1000 V
b1000 {"
b1000 F#
b1100 *
b1100 ,
b1100 .
b1100 B
b1100 D#
b1100 c#
1!
#280000
0!
#290000
b1001000110100 i
b1001000110100 Z"
b1001000110100 b"
b1001000110100 t"
b0 T
b0 /#
b0 8#
b10001100000000010000000000000000 +
b10001100000000010000000000000000 -
b10001100000000010000000000000000 /
b10001100000000010000000000000000 B#
b0 )#
b1 :
b1 .#
b1 e#
1;
1*#
1R
b1 S
b1 2#
b1 9#
b1 _
b1 '#
b1 4#
b100101 `
b100101 &#
b100101 3#
1f
b10 j
b10 Y"
b10 a"
b10 s"
b1001000110100 S"
1(
b1111 %
b1111 >
b1111 T#
b1111 l#
b1001000110100 &
b1001000110100 ?
b1001000110100 S#
b1001000110100 k#
1$
1U#
b0 F
b0 "#
b0 W#
b0 [#
0C
b0 H
b0 ##
b0 V#
b0 Z#
b0 %#
b1 |"
b0 }"
b0 ~"
b1001000110100 p
b1001000110100 ?"
b1001000110100 _"
b10000 *
b10000 ,
b10000 .
b10000 B
b10000 D#
b10000 c#
b110100000000010000000000000000 Y
b110100000000010000000000000000 u"
b110100000000010000000000000000 5#
b110100000000010000000000000000 Z
b110100000000010000000000000000 $#
b110100000000010000000000000000 E#
b10000 z"
b10100 y"
b1100 V
b1100 {"
b1100 F#
b110100000000100001001000110100 ^
b110100000000100001001000110100 B"
b110100000000100001001000110100 =#
1g
b10 k
b10 3"
b10 A#
b1 |
b1 G"
b1 <#
b100101 }
b100101 ."
b100101 \"
b100101 r"
b100101 ~
b100101 H"
b100101 ;#
b0 G
b0 m"
b0 M#
0D
b0 I
b0 l"
b0 L#
b0 K
b0 j"
b0 J#
b1101010 N
b1101010 g"
b1101010 G#
b1001000110100 2
b1001000110100 `#
b1001000110100 g#
b1 3
b1 _#
b1 f#
1!
#300000
0!
#310000
b0 i
b0 Z"
b0 b"
b0 t"
0(
b0 %
b0 >
b0 T#
b0 l#
0$
0U#
b1001000110100 F
b1001000110100 "#
b1001000110100 W#
b1001000110100 [#
1C
b10 H
b10 ##
b10 V#
b10 Z#
b1 j
b1 Y"
b1 a"
b1 s"
b0 S"
1;
1*#
1R
b1 S
b1 2#
b1 9#
b111 _
b111 '#
b111 4#
b1100101 `
b1100101 &#
b1100101 3#
b10000001000100000000000000011 +
b10000001000100000000000000011 -
b10000001000100000000000000011 /
b10000001000100000000000000011 B#
b0 p
b0 ?"
b0 _"
b0 ;"
09"
b0 6"
b0 7"
b100011 !#
b0 2
b0 `#
b0 g#
00
b0 3
b0 _#
b0 f#
b1001000110100 K
b1001000110100 j"
b1001000110100 J#
b100101 N
b100101 g"
b100101 G#
b1001000110100 G
b1001000110100 m"
b1001000110100 M#
1D
b10 I
b10 l"
b10 L#
b110100000000010000000000000000 ^
b110100000000010000000000000000 B"
b110100000000010000000000000000 =#
b1 k
b1 3"
b1 A#
b0 m
b0 2"
b0 `"
b0 n
b0 8"
b0 @#
b10001100000000010000000000000000 Y
b10001100000000010000000000000000 u"
b10001100000000010000000000000000 5#
b10001100000000010000000000000000 Z
b10001100000000010000000000000000 $#
b10001100000000010000000000000000 E#
b10100 z"
b11000 y"
b10000 V
b10000 {"
b10000 F#
b10100 *
b10100 ,
b10100 .
b10100 B
b10100 D#
b10100 c#
1!
#320000
0!
#330000
b111 !"
b111 ""
b111 d"
b111 :#
b111 C#
b111 \#
b111 b#
b1001000110100 T
b1001000110100 /#
b1001000110100 8#
16
b1001000110100 9
b1001000110100 v"
b1001000110100 i#
b1001000110100 <
b1001000110100 w"
b1001000110100 h#
10#
0[
0X
b0 W
b0 (#
b0 a#
18
b0 +
b0 -
b0 /
b0 B#
b10 :
b10 .#
b10 e#
b1 =
b1 ,#
b1 d#
1;
1*#
0R
b0 S
b0 2#
b0 9#
b110 _
b110 '#
b110 4#
b1011001 `
b1011001 &#
b1011001 3#
b0 F
b0 "#
b0 W#
b0 [#
b1 H
b1 ##
b1 V#
b1 Z#
1x"
b1100 %#
b10 |"
b11 }"
b100 !#
b11000 *
b11000 ,
b11000 .
b11000 B
b11000 D#
b11000 c#
b10000001000100000000000000011 Y
b10000001000100000000000000011 u"
b10000001000100000000000000011 5#
b10000001000100000000000000011 Z
b10000001000100000000000000011 $#
b10000001000100000000000000011 E#
b11000 z"
b11100 y"
b10100 V
b10100 {"
b10100 F#
b10001100000000010000000000000000 ^
b10001100000000010000000000000000 B"
b10001100000000010000000000000000 =#
b111 |
b111 G"
b111 <#
b1100101 }
b1100101 ."
b1100101 \"
b1100101 r"
b1100101 ~
b1100101 H"
b1100101 ;#
b0 G
b0 m"
b0 M#
b1 I
b1 l"
b1 L#
b0 J
b0 k"
b0 K#
b0 K
b0 j"
b0 J#
b1001000110100 2
b1001000110100 `#
b1001000110100 g#
10
b10 3
b10 _#
b10 f#
1!
#340000
0!
#350000
1[
1X
b100100 W
b100100 (#
b100100 a#
18
1;
1*#
b110 _
b110 '#
b110 4#
b1011001 `
b1011001 &#
b1011001 3#
b1001000110100 U
b1001000110100 -#
b1001000110100 7#
b1001000110100 F
b1001000110100 "#
b1001000110100 W#
b1001000110100 [#
b0 !"
b0 ""
b0 d"
b0 :#
b0 C#
b0 \#
b0 b#
b1001000110100 '
b1001000110100 @
b1001000110100 O#
b1001000110100 m#
06
00#
b1111 %
b1111 >
b1111 T#
b1111 l#
1(
0f
b0 j
b0 Y"
b0 a"
b0 s"
b0 <
b0 w"
b0 h#
0x"
b0 2
b0 `#
b0 g#
b1 3
b1 _#
b1 f#
b1100101 N
b1100101 g"
b1100101 G#
b0 ^
b0 B"
b0 =#
0g
b0 k
b0 3"
b0 A#
b0 |
b0 G"
b0 <#
b0 }
b0 ."
b0 \"
b0 r"
b0 ~
b0 H"
b0 ;#
1!
#360000
0!
