9-load-store-ll-sc /openmips_min_sopc_tb.vcd
$date
	Mon Jan 10 08:56:45 2022
$end
$version
	Icarus Verilog
$end
$timescale
	1ps
$end
$scope module openmips_min_sopc_tb $end
$var reg 1 ! clk $end
$var reg 1 " rst $end
$scope module openmips_min_sopc0 $end
$var wire 1 ! clk $end
$var wire 1 " rst $end
$var wire 1 # rom_ce $end
$var wire 1 $ ram_we_wire $end
$var wire 4 % ram_sel_wire [3:0] $end
$var wire 32 & ram_data_o_wire [31:0] $end
$var wire 32 ' ram_data_i_wire [31:0] $end
$var wire 1 ( ram_ce_wire $end
$var wire 32 ) ram_addr_wire [31:0] $end
$var wire 32 * inst_addr [31:0] $end
$var wire 32 + inst [31:0] $end
$scope module inst_rom0 $end
$var wire 1 # ce $end
$var wire 32 , addr [31:0] $end
$var reg 32 - inst [31:0] $end
$upscope $end
$scope module openmips0 $end
$var wire 1 . LLbit_reg0_LLbit_o $end
$var wire 1 ! clk $end
$var wire 32 / rom_addr_o [31:0] $end
$var wire 32 0 rom_data_i [31:0] $end
$var wire 1 " rst $end
$var wire 1 1 wb_wreg_i $end
$var wire 1 2 wb_whilo $end
$var wire 32 3 wb_wdata_i [31:0] $end
$var wire 5 4 wb_wd_i [4:0] $end
$var wire 32 5 wb_lo [31:0] $end
$var wire 32 6 wb_hi [31:0] $end
$var wire 1 7 wb_LLbit_we_o $end
$var wire 1 8 wb_LLbit_value_o $end
$var wire 1 9 stall_from_id $end
$var wire 1 : stall_from_ex $end
$var wire 1 # rom_ce_o $end
$var wire 1 ; reg2_read $end
$var wire 32 < reg2_data [31:0] $end
$var wire 5 = reg2_addr [4:0] $end
$var wire 1 > reg1_read $end
$var wire 32 ? reg1_data [31:0] $end
$var wire 5 @ reg1_addr [4:0] $end
$var wire 1 $ ram_we_o $end
$var wire 4 A ram_sel_o [3:0] $end
$var wire 32 B ram_data_o [31:0] $end
$var wire 32 C ram_data_i [31:0] $end
$var wire 1 ( ram_ce_o $end
$var wire 32 D ram_addr_o [31:0] $end
$var wire 32 E pc [31:0] $end
$var wire 1 F mem_wreg_o $end
$var wire 1 G mem_wreg_i $end
$var wire 1 H mem_whilo_o $end
$var wire 32 I mem_wdata_o [31:0] $end
$var wire 32 J mem_wdata_i [31:0] $end
$var wire 5 K mem_wd_o [4:0] $end
$var wire 5 L mem_wd_i [4:0] $end
$var wire 32 M mem_reg2_o [31:0] $end
$var wire 32 N mem_mem_addr_o [31:0] $end
$var wire 32 O mem_lo_o [31:0] $end
$var wire 32 P mem_hi_o [31:0] $end
$var wire 8 Q mem_aluop_o [7:0] $end
$var wire 1 R mem_LLbit_we_o $end
$var wire 1 S mem_LLbit_value_o $end
$var wire 1 T idex_id_is_in_delayslot $end
$var wire 32 U idex_ex_link_address [31:0] $end
$var wire 1 V idex_ex_is_in_delayslot $end
$var wire 1 W id_wreg_o $end
$var wire 5 X id_wd_o [4:0] $end
$var wire 32 Y id_reg2_o [31:0] $end
$var wire 32 Z id_reg1_o [31:0] $end
$var wire 32 [ id_pc_i [31:0] $end
$var wire 32 \ id_pc_branch_target_address [31:0] $end
$var wire 1 ] id_pc_branch_flag $end
$var wire 32 ^ id_inst_o [31:0] $end
$var wire 32 _ id_inst_i [31:0] $end
$var wire 1 ` id_idex_next_inst_in_delayslot $end
$var wire 32 a id_idex_link_addr [31:0] $end
$var wire 1 b id_idex_is_in_delayslot $end
$var wire 32 c id_ex2ex_inst_o [31:0] $end
$var wire 3 d id_alusel_o [2:0] $end
$var wire 8 e id_aluop_o [7:0] $end
$var wire 32 f hilo_lo_o [31:0] $end
$var wire 32 g hilo_hi_o [31:0] $end
$var wire 1 h exmem_whilo_o $end
$var wire 32 i exmem_lo_o [31:0] $end
$var wire 32 j exmem_hi_o [31:0] $end
$var wire 1 k ex_wreg_o $end
$var wire 1 l ex_wreg_i $end
$var wire 1 m ex_whilo_o $end
$var wire 32 n ex_wdata_o [31:0] $end
$var wire 5 o ex_wd_o [4:0] $end
$var wire 5 p ex_wd_i [4:0] $end
$var wire 1 q ex_signed_div_o $end
$var wire 32 r ex_reg2_o [31:0] $end
$var wire 32 s ex_reg2_i [31:0] $end
$var wire 32 t ex_reg1_i [31:0] $end
$var wire 32 u ex_mem_addr_o [31:0] $end
$var wire 32 v ex_lo_o [31:0] $end
$var wire 64 w ex_hilo_temp_o [63:0] $end
$var wire 64 x ex_hilo_temp_i [63:0] $end
$var wire 32 y ex_hi_o [31:0] $end
$var wire 1 z ex_div_start_o $end
$var wire 64 { ex_div_result_i [63:0] $end
$var wire 1 | ex_div_ready_i $end
$var wire 32 } ex_div_opdata2_o [31:0] $end
$var wire 32 ~ ex_div_opdata1_o [31:0] $end
$var wire 2 !" ex_cnt_o [1:0] $end
$var wire 2 "" ex_cnt_i [1:0] $end
$var wire 3 #" ex_alusel_i [2:0] $end
$var wire 8 $" ex_aluop_o [7:0] $end
$var wire 8 %" ex_aluop_i [7:0] $end
$var wire 6 &" ctrl_stall_o [5:0] $end
$scope module LLbit_reg0 $end
$var wire 1 '" LLbit_i $end
$var wire 1 " Rst_n $end
$var wire 1 ! clk $end
$var wire 1 (" flush $end
$var wire 1 )" we $end
$var reg 1 *" LLbit_o $end
$upscope $end
$scope module ctrl0 $end
$var wire 1 " rst $end
$var wire 1 9 stall_from_id $end
$var wire 1 : stall_from_ex $end
$var reg 6 +" stall [5:0] $end
$upscope $end
$scope module div0 $end
$var wire 1 " Rst_n $end
$var wire 1 ," annul_i $end
$var wire 1 ! clk $end
$var wire 1 z start_i $end
$var wire 1 q signed_div_i $end
$var wire 32 -" opdata2_i [31:0] $end
$var wire 32 ." opdata1_i [31:0] $end
$var wire 33 /" div_temp [32:0] $end
$var reg 6 0" cnt [5:0] $end
$var reg 65 1" dividend [64:0] $end
$var reg 32 2" divisor [31:0] $end
$var reg 1 | ready_o $end
$var reg 64 3" result_o [63:0] $end
$var reg 2 4" state [1:0] $end
$var reg 32 5" temp_op1 [31:0] $end
$var reg 32 6" temp_op2 [31:0] $end
$upscope $end
$scope module ex0 $end
$var wire 1 " Rst_n $end
$var wire 8 7" aluop_o [7:0] $end
$var wire 1 | div_ready_i $end
$var wire 64 8" div_result_i [63:0] $end
$var wire 1 9" ov_sum $end
$var wire 32 :" reg1_i_not [31:0] $end
$var wire 32 ;" reg2_o [31:0] $end
$var wire 1 l wreg_i $end
$var wire 5 <" wd_i [4:0] $end
$var wire 1 2 wb_wen_hilo $end
$var wire 32 =" wb_lo_i [31:0] $end
$var wire 32 >" wb_hi_i [31:0] $end
$var wire 32 ?" result_sum [31:0] $end
$var wire 32 @" reg2_i_mux [31:0] $end
$var wire 32 A" reg2_i [31:0] $end
$var wire 1 B" reg1_lt_reg2 $end
$var wire 32 C" reg1_i [31:0] $end
$var wire 32 D" opdata2_mult [31:0] $end
$var wire 32 E" opdata1_mult [31:0] $end
$var wire 1 H mem_wen_hilo $end
$var wire 32 F" mem_lo_i [31:0] $end
$var wire 32 G" mem_hi_i [31:0] $end
$var wire 32 H" mem_addr_o [31:0] $end
$var wire 32 I" lo_i [31:0] $end
$var wire 32 J" link_addres_i [31:0] $end
$var wire 1 V is_in_delayslot_i $end
$var wire 32 K" inst_i [31:0] $end
$var wire 64 L" hilo_tmp [63:0] $end
$var wire 64 M" hilo_temp_i [63:0] $end
$var wire 32 N" hi_i [31:0] $end
$var wire 2 O" cnt_i [1:0] $end
$var wire 3 P" alusel_i [2:0] $end
$var wire 8 Q" aluop_i [7:0] $end
$var reg 32 R" HI [31:0] $end
$var reg 32 S" LO [31:0] $end
$var reg 32 T" arithres [31:0] $end
$var reg 2 U" cnt_o [1:0] $end
$var reg 32 V" div_opdata1_o [31:0] $end
$var reg 32 W" div_opdata2_o [31:0] $end
$var reg 1 z div_start_o $end
$var reg 32 X" hi_o [31:0] $end
$var reg 64 Y" hilo_temp1 [63:0] $end
$var reg 64 Z" hilo_temp_o [63:0] $end
$var reg 32 [" lo_o [31:0] $end
$var reg 32 \" logicout [31:0] $end
$var reg 32 ]" movres [31:0] $end
$var reg 64 ^" mulres [63:0] $end
$var reg 32 _" shiftres [31:0] $end
$var reg 1 q signed_div_o $end
$var reg 1 : stall_req_ex $end
$var reg 1 `" stallreq_for_div $end
$var reg 1 a" stallreq_for_madd_msub $end
$var reg 5 b" wd_o [4:0] $end
$var reg 32 c" wdata_o [31:0] $end
$var reg 1 m whilo_o $end
$var reg 1 k wreg_o $end
$upscope $end
$scope module ex_mem0 $end
$var wire 1 " Rst_n $end
$var wire 1 ! clk $end
$var wire 2 d" cnt_i [1:0] $end
$var wire 8 e" ex_aluop [7:0] $end
$var wire 32 f" ex_hi_i [31:0] $end
$var wire 32 g" ex_lo_i [31:0] $end
$var wire 32 h" ex_mem_addr [31:0] $end
$var wire 32 i" ex_reg2 [31:0] $end
$var wire 5 j" ex_wd [4:0] $end
$var wire 32 k" ex_wdata [31:0] $end
$var wire 1 m ex_whilo $end
$var wire 1 k ex_wreg $end
$var wire 64 l" hilo_temp_i [63:0] $end
$var wire 6 m" stall [5:0] $end
$var reg 2 n" cnt_o [1:0] $end
$var reg 64 o" hilo_temp_o [63:0] $end
$var reg 8 p" mem_aluop_o [7:0] $end
$var reg 32 q" mem_hi_o [31:0] $end
$var reg 32 r" mem_lo_o [31:0] $end
$var reg 32 s" mem_mem_addr_o [31:0] $end
$var reg 32 t" mem_reg2_o [31:0] $end
$var reg 5 u" mem_wd [4:0] $end
$var reg 32 v" mem_wdata [31:0] $end
$var reg 1 h mem_whilo $end
$var reg 1 G mem_wreg $end
$upscope $end
$scope module hilo $end
$var wire 1 ! clk $end
$var wire 1 " rst $end
$var wire 1 2 we $end
$var wire 32 w" lo_in [31:0] $end
$var wire 32 x" hi_in [31:0] $end
$var reg 32 y" hi_o [31:0] $end
$var reg 32 z" lo_o [31:0] $end
$upscope $end
$scope module id0 $end
$var wire 1 " Rst_n $end
$var wire 8 {" ex_aluop_i [7:0] $end
$var wire 5 |" ex_wd_i [4:0] $end
$var wire 32 }" ex_wdata_i [31:0] $end
$var wire 1 k ex_wreg_i $end
$var wire 32 ~" inst_o [31:0] $end
$var wire 1 9 stall_req_id $end
$var wire 32 !# reg2_data_i [31:0] $end
$var wire 32 "# reg1_data_i [31:0] $end
$var wire 1 ## pre_inst_is_load $end
$var wire 32 $# pc_plus_8 [31:0] $end
$var wire 32 %# pc_plus_4 [31:0] $end
$var wire 32 &# pc_i [31:0] $end
$var wire 5 '# op4 [4:0] $end
$var wire 6 (# op3 [5:0] $end
$var wire 5 )# op2 [4:0] $end
$var wire 6 *# op [5:0] $end
$var wire 1 F mem_wreg_i $end
$var wire 32 +# mem_wdata_i [31:0] $end
$var wire 5 ,# mem_wd_i [4:0] $end
$var wire 1 T is_in_delayslot_i $end
$var wire 32 -# inst_i [31:0] $end
$var wire 32 .# imm_sll2_signedext [31:0] $end
$var reg 8 /# aluop_o [7:0] $end
$var reg 3 0# alusel_o [2:0] $end
$var reg 1 ] branch_flag_o $end
$var reg 32 1# branch_target_addr_o [31:0] $end
$var reg 32 2# imm [31:0] $end
$var reg 1 3# inst_valid $end
$var reg 1 b is_in_delayslot_o $end
$var reg 32 4# link_addr_o [31:0] $end
$var reg 1 ` next_inst_in_delayslot_o $end
$var reg 5 5# reg1_addr_o [4:0] $end
$var reg 32 6# reg1_o [31:0] $end
$var reg 1 > reg1_read_o $end
$var reg 5 7# reg2_addr_o [4:0] $end
$var reg 32 8# reg2_o [31:0] $end
$var reg 1 ; reg2_read_o $end
$var reg 1 9# stallreq_for_reg1_loadrelate $end
$var reg 1 :# stallreq_for_reg2_loadrelate $end
$var reg 5 ;# wd_o [4:0] $end
$var reg 1 W wreg_o $end
$upscope $end
$scope module id_ex0 $end
$var wire 1 ! Clk $end
$var wire 1 " Rst_n $end
$var wire 8 <# id_aluop [7:0] $end
$var wire 3 =# id_alusel [2:0] $end
$var wire 32 ># id_inst_i [31:0] $end
$var wire 1 b id_is_in_delayslot_i $end
$var wire 32 ?# id_link_address_i [31:0] $end
$var wire 32 @# id_reg1 [31:0] $end
$var wire 32 A# id_reg2 [31:0] $end
$var wire 5 B# id_wd [4:0] $end
$var wire 1 W id_wreg $end
$var wire 1 ` next_inst_in_delayslot_i $end
$var wire 6 C# stall [5:0] $end
$var reg 8 D# ex_aluop [7:0] $end
$var reg 3 E# ex_alusel [2:0] $end
$var reg 32 F# ex_inst_o [31:0] $end
$var reg 1 V ex_is_in_delayslot_o $end
$var reg 32 G# ex_link_address_o [31:0] $end
$var reg 32 H# ex_reg1 [31:0] $end
$var reg 32 I# ex_reg2 [31:0] $end
$var reg 5 J# ex_wd [4:0] $end
$var reg 1 l ex_wreg $end
$var reg 1 T is_in_delayslot_o $end
$upscope $end
$scope module if_id0 $end
$var wire 1 ! Clk $end
$var wire 1 " Rst_n $end
$var wire 32 K# if_inst [31:0] $end
$var wire 6 L# stall [5:0] $end
$var wire 32 M# if_pc [31:0] $end
$var reg 32 N# id_inst [31:0] $end
$var reg 32 O# id_pc [31:0] $end
$upscope $end
$scope module mem0 $end
$var wire 1 . LLbit_i $end
$var wire 8 P# aluop_i [7:0] $end
$var wire 32 Q# hi_i [31:0] $end
$var wire 32 R# lo_i [31:0] $end
$var wire 32 S# mem_addr_i [31:0] $end
$var wire 1 $ mem_we_o $end
$var wire 32 T# reg2_i [31:0] $end
$var wire 1 " rst $end
$var wire 5 U# wd_i [4:0] $end
$var wire 32 V# wdata_i [31:0] $end
$var wire 1 h whilo_i $end
$var wire 1 G wreg_i $end
$var wire 32 W# zero32 [31:0] $end
$var wire 1 7 wb_LLbit_we_i $end
$var wire 1 8 wb_LLbit_value_i $end
$var wire 32 X# mem_data_i [31:0] $end
$var reg 1 Y# LLbit $end
$var reg 1 S LLbit_value_o $end
$var reg 1 R LLbit_we_o $end
$var reg 32 Z# hi_o [31:0] $end
$var reg 32 [# lo_o [31:0] $end
$var reg 32 \# mem_addr_o [31:0] $end
$var reg 1 ( mem_ce_o $end
$var reg 32 ]# mem_data_o [31:0] $end
$var reg 4 ^# mem_sel_o [3:0] $end
$var reg 1 _# mem_we $end
$var reg 5 `# wd_o [4:0] $end
$var reg 32 a# wdata_o [31:0] $end
$var reg 1 H whilo_o $end
$var reg 1 F wreg_o $end
$upscope $end
$scope module mem_wb0 $end
$var wire 1 ! clk $end
$var wire 1 S mem_LLbit_value_i $end
$var wire 1 R mem_LLbit_we_i $end
$var wire 32 b# mem_hi_i [31:0] $end
$var wire 32 c# mem_lo_i [31:0] $end
$var wire 5 d# mem_wd [4:0] $end
$var wire 32 e# mem_wdata [31:0] $end
$var wire 1 H mem_whilo_i $end
$var wire 1 F mem_wreg $end
$var wire 1 " rst $end
$var wire 6 f# stall [5:0] $end
$var reg 1 8 wb_LLbit_value $end
$var reg 1 7 wb_LLbit_we $end
$var reg 32 g# wb_hi_o [31:0] $end
$var reg 32 h# wb_lo_o [31:0] $end
$var reg 5 i# wb_wd [4:0] $end
$var reg 32 j# wb_wdata [31:0] $end
$var reg 1 2 wb_whilo_o $end
$var reg 1 1 wb_wreg $end
$upscope $end
$scope module pc_reg0 $end
$var wire 1 ! Clk $end
$var wire 1 " Rst $end
$var wire 1 ] branch_flag_i $end
$var wire 32 k# branch_target_address_i [31:0] $end
$var wire 6 l# stall [5:0] $end
$var reg 1 # ce $end
$var reg 32 m# pc [31:0] $end
$upscope $end
$scope module reg_file0 $end
$var wire 1 ! Clk $end
$var wire 1 " Rst_n $end
$var wire 5 n# raddr1 [4:0] $end
$var wire 5 o# raddr2 [4:0] $end
$var wire 1 > re1 $end
$var wire 1 ; re2 $end
$var wire 5 p# waddr [4:0] $end
$var wire 32 q# wdata [31:0] $end
$var wire 1 1 we $end
$var reg 32 r# rdata1 [31:0] $end
$var reg 32 s# rdata2 [31:0] $end
$upscope $end
$upscope $end
$scope module ram0 $end
$var wire 32 t# addr [31:0] $end
$var wire 1 ( ce $end
$var wire 1 ! clk $end
$var wire 32 u# data [31:0] $end
$var wire 4 v# sel [3:0] $end
$var wire 1 $ we $end
$var reg 32 w# data_o [31:0] $end
$upscope $end
$upscope $end
$upscope $end
$enddefinitions $end
#0
$dumpvars
b0 w#
b0 v#
b0 u#
b0 t#
b0 s#
b0 r#
bx q#
bx p#
b0 o#
b0 n#
bx m#
b0 l#
b0 k#
bx j#
bx i#
bx h#
bx g#
b0 f#
b0 e#
b0 d#
b0 c#
b0 b#
b0 a#
b0 `#
0_#
b0 ^#
b0 ]#
b0 \#
b0 [#
b0 Z#
0Y#
b0 X#
b0 W#
bx V#
bx U#
bx T#
bx S#
bx R#
bx Q#
bx P#
bx O#
bx N#
bx M#
b0 L#
bx K#
bx J#
bx I#
bx H#
bx G#
bx F#
bx E#
bx D#
b0 C#
b0 B#
b0 A#
b0 @#
b0 ?#
bx >#
b0 =#
b0 <#
b0 ;#
0:#
09#
b0 8#
b0 7#
b0 6#
b0 5#
b0 4#
13#
b0 2#
b0 1#
b0 0#
b0 /#
bx00 .#
bx -#
b0 ,#
b0 +#
bx *#
bx )#
bx (#
bx '#
bx &#
bx %#
bx $#
x##
b0 "#
b0 !#
bx ~"
b0 }"
bx |"
bx {"
bx z"
bx y"
bx x"
bx w"
bx v"
bx u"
bx t"
bx s"
bx r"
bx q"
bx p"
bx o"
bx n"
b0 m"
b0 l"
b0 k"
bx j"
bx i"
bx h"
b0 g"
b0 f"
bx e"
b0 d"
b0 c"
bx b"
0a"
0`"
b0 _"
b0 ^"
b0 ]"
b0 \"
b0 ["
b0 Z"
bx Y"
b0 X"
b0 W"
b0 V"
b0 U"
b0 T"
b0 S"
b0 R"
bx Q"
bx P"
bx O"
bx N"
bx M"
bx L"
bx K"
bx J"
bx I"
bx H"
b0 G"
b0 F"
bx E"
bx D"
bx C"
xB"
bx A"
bx @"
bx ?"
bx >"
bx ="
bx <"
bx ;"
bx :"
x9"
bx 8"
bx 7"
bx 6"
bx 5"
bx 4"
bx 3"
bx 2"
bx 1"
bx 0"
bx /"
b0 ."
b0 -"
0,"
b0 +"
0*"
z)"
z("
z'"
b0 &"
bx %"
bx $"
bx #"
bx ""
b0 !"
b0 ~
b0 }
x|
bx {
0z
b0 y
bx x
b0 w
b0 v
bx u
bx t
bx s
bx r
0q
bx p
bx o
b0 n
0m
xl
xk
bx j
bx i
xh
bx g
bx f
b0 e
b0 d
bx c
0b
b0 a
0`
bx _
bx ^
0]
b0 \
bx [
b0 Z
b0 Y
b0 X
0W
xV
bx U
xT
0S
0R
bx Q
b0 P
b0 O
bx N
bx M
bx L
b0 K
bx J
b0 I
0H
xG
0F
bx E
b0 D
b0 C
b0 B
b0 A
b0 @
b0 ?
0>
b0 =
b0 <
0;
0:
09
x8
x7
bx 6
bx 5
bx 4
bx 3
x2
x1
bx 0
bx /
z.
bx -
bx ,
bx +
bx *
b0 )
0(
b0 '
b0 &
b0 %
0$
x#
1"
0!
$end
#10000
b0 +
b0 -
b0 0
b0 K#
0k
b0 o
b0 b"
b0 j"
b0 |"
0##
09"
b0 .#
b0 '#
b0 (#
b0 )#
b0 *#
b0 u
b0 H"
b0 h"
b0 L"
b0 D"
b0 ?"
b0 @"
b0 E"
b11111111111111111111111111111111 :"
0B"
0#
b0 ^
b0 ~"
b0 >#
b0 _
b0 -#
b0 N#
b100 %#
b1000 $#
b0 [
b0 &#
b0 O#
b0 c
b0 K"
b0 F#
0T
0V
b0 U
b0 J"
b0 G#
0l
b0 p
b0 <"
b0 J#
b0 r
b0 ;"
b0 i"
b0 s
b0 A"
b0 I#
b0 t
b0 C"
b0 H#
b0 #"
b0 P"
b0 E#
b0 $"
b0 7"
b0 e"
b0 {"
b0 %"
b0 Q"
b0 D#
b0 J
b0 v"
b0 V#
0G
b0 L
b0 u"
b0 U#
b0 M
b0 t"
b0 T#
b0 N
b0 s"
b0 S#
b0 Q
b0 p"
b0 P#
b0 i
b0 r"
b0 R#
b0 j
b0 q"
b0 Q#
0h
07
08
b0 3
b0 j#
b0 q#
01
b0 4
b0 i#
b0 p#
b0 5
b0 ="
b0 w"
b0 h#
b0 6
b0 >"
b0 x"
b0 g#
02
b0 f
b0 I"
b0 z"
b0 g
b0 N"
b0 y"
b0 1"
b0 4"
0|
b0 {
b0 3"
b0 8"
1!
#20000
0!
#30000
b0 *
b0 ,
b0 /
b0 E
b0 M#
b0 m#
1!
#40000
0!
#50000
1!
#60000
0!
#70000
1!
#80000
0!
#90000
1!
#100000
0!
#110000
1!
#120000
0!
#130000
1!
#140000
0!
#150000
1!
#160000
0!
#170000
1!
#180000
0!
#190000
1!
#195000
b0 Y"
1;
b10 d
b10 0#
b10 =#
b1111100 e
b1111100 /#
b1111100 <#
1W
13#
zY#
0"
#200000
0!
#210000
b110100000000010001001000110100 +
b110100000000010001001000110100 -
b110100000000010001001000110100 0
b110100000000010001001000110100 K#
1k
1#
1l
b10 #"
b10 P"
b10 E#
b1111100 $"
b1111100 7"
b1111100 e"
b1111100 {"
b1111100 %"
b1111100 Q"
b1111100 D#
b0 ""
b0 O"
b0 n"
b0 x
b0 M"
b0 o"
1!
#220000
0!
#230000
b1001000110100 Y
b1001000110100 8#
b1001000110100 A#
b1001000110100 2#
1>
1F
b1 =
b1 7#
b1 o#
0;
13#
1W
b1 X
b1 ;#
b1 B#
b1 d
b1 0#
b1 =#
b100101 e
b100101 /#
b100101 <#
b10101100000000010000000000000000 +
b10101100000000010000000000000000 -
b10101100000000010000000000000000 0
b10101100000000010000000000000000 K#
b100100011010000 .#
b1 '#
b110100 (#
b1000 )#
b1101 *#
b1111100 Q
b1111100 p"
b1111100 P#
1G
b110100000000010001001000110100 ^
b110100000000010001001000110100 ~"
b110100000000010001001000110100 >#
b110100000000010001001000110100 _
b110100000000010001001000110100 -#
b110100000000010001001000110100 N#
b100 *
b100 ,
b100 /
b100 E
b100 M#
b100 m#
1!
#240000
0!
#250000
bx <
bx !#
bx s#
b1001000110100 Y
b1001000110100 8#
b1001000110100 A#
b1001000110100 n
b1001000110100 c"
b1001000110100 k"
b1001000110100 }"
1;
b110100000000010101011001111000 +
b110100000000010101011001111000 -
b110100000000010101011001111000 0
b110100000000010101011001111000 K#
b0 2#
1>
13#
0W
b0 X
b0 ;#
b0 B#
b111 d
b111 0#
b111 =#
b1101010 e
b1101010 /#
b1101010 <#
b1 o
b1 b"
b1 j"
b1 |"
b1001000110100 \"
b0 .#
b0 (#
b0 )#
b101011 *#
b1001000110100 u
b1001000110100 H"
b1001000110100 h"
b1001000110100 D"
1B"
b1001000110100 ?"
b1001000110100 @"
b1000 *
b1000 ,
b1000 /
b1000 E
b1000 M#
b1000 m#
b10101100000000010000000000000000 ^
b10101100000000010000000000000000 ~"
b10101100000000010000000000000000 >#
b10101100000000010000000000000000 _
b10101100000000010000000000000000 -#
b10101100000000010000000000000000 N#
b1000 %#
b1100 $#
b100 [
b100 &#
b100 O#
b110100000000010001001000110100 c
b110100000000010001001000110100 K"
b110100000000010001001000110100 F#
b1 p
b1 <"
b1 J#
b1001000110100 r
b1001000110100 ;"
b1001000110100 i"
b1001000110100 s
b1001000110100 A"
b1001000110100 I#
b1 #"
b1 P"
b1 E#
b100101 $"
b100101 7"
b100101 e"
b100101 {"
b100101 %"
b100101 Q"
b100101 D#
11
1!
#260000
0!
#270000
b101011001111000 Y
b101011001111000 8#
b101011001111000 A#
b0 <
b0 !#
b0 s#
b101011001111000 2#
1W
b1001000110100 I
b1001000110100 +#
b1001000110100 a#
b1001000110100 e#
b1 K
b1 ,#
b1 `#
b1 d#
b0 n
b0 c"
b0 k"
b0 }"
0k
b0 o
b0 b"
b0 j"
b0 |"
b0 \"
0;
1>
13#
b1 X
b1 ;#
b1 B#
b1 d
b1 0#
b1 =#
b100101 e
b100101 /#
b100101 <#
b11100000000000010000000000000000 +
b11100000000000010000000000000000 -
b11100000000000010000000000000000 0
b11100000000000010000000000000000 K#
b0 u
b0 H"
b0 h"
b10101100111100000 .#
b111000 (#
b11001 )#
b1101 *#
b1001000110100 M
b1001000110100 t"
b1001000110100 T#
b1001000110100 N
b1001000110100 s"
b1001000110100 S#
b100101 Q
b100101 p"
b100101 P#
b1001000110100 J
b1001000110100 v"
b1001000110100 V#
b1 L
b1 u"
b1 U#
b10101100000000010000000000000000 c
b10101100000000010000000000000000 K"
b10101100000000010000000000000000 F#
0l
b0 p
b0 <"
b0 J#
b111 #"
b111 P"
b111 E#
b1101010 $"
b1101010 7"
b1101010 e"
b1101010 {"
b1101010 %"
b1101010 Q"
b1101010 D#
b110100000000010101011001111000 ^
b110100000000010101011001111000 ~"
b110100000000010101011001111000 >#
b110100000000010101011001111000 _
b110100000000010101011001111000 -#
b110100000000010101011001111000 N#
b1100 %#
b10000 $#
b1000 [
b1000 &#
b1000 O#
b1100 *
b1100 ,
b1100 /
b1100 E
b1100 M#
b1100 m#
1!
#280000
0!
#290000
b1001000110100 <
b1001000110100 !#
b1001000110100 s#
b101011001111000 n
b101011001111000 c"
b101011001111000 k"
b101011001111000 }"
b101011001111000 Y
b101011001111000 8#
b101011001111000 A#
1;
b10001100000000010000000000000000 +
b10001100000000010000000000000000 -
b10001100000000010000000000000000 0
b10001100000000010000000000000000 K#
b0 2#
1>
13#
1W
b0 X
b0 ;#
b0 B#
b111 d
b111 0#
b111 =#
b1110001 e
b1110001 /#
b1110001 <#
1k
b1 o
b1 b"
b1 j"
b1 |"
b101011001111000 \"
1(
b1111 %
b1111 A
b1111 ^#
b1111 v#
b1001000110100 &
b1001000110100 B
b1001000110100 ]#
b1001000110100 u#
1$
1_#
b0 I
b0 +#
b0 a#
b0 e#
0F
b0 K
b0 ,#
b0 `#
b0 d#
b0 .#
b0 (#
b0 )#
b111000 *#
b101011001111000 u
b101011001111000 H"
b101011001111000 h"
b101011001111000 D"
b101011001111000 ?"
b101011001111000 @"
b10000 *
b10000 ,
b10000 /
b10000 E
b10000 M#
b10000 m#
b11100000000000010000000000000000 ^
b11100000000000010000000000000000 ~"
b11100000000000010000000000000000 >#
b11100000000000010000000000000000 _
b11100000000000010000000000000000 -#
b11100000000000010000000000000000 N#
b10000 %#
b10100 $#
b1100 [
b1100 &#
b1100 O#
b110100000000010101011001111000 c
b110100000000010101011001111000 K"
b110100000000010101011001111000 F#
1l
b1 p
b1 <"
b1 J#
b101011001111000 r
b101011001111000 ;"
b101011001111000 i"
b101011001111000 s
b101011001111000 A"
b101011001111000 I#
b1 #"
b1 P"
b1 E#
b100101 $"
b100101 7"
b100101 e"
b100101 {"
b100101 %"
b100101 Q"
b100101 D#
b0 J
b0 v"
b0 V#
0G
b0 L
b0 u"
b0 U#
b0 N
b0 s"
b0 S#
b1101010 Q
b1101010 p"
b1101010 P#
b1001000110100 3
b1001000110100 j#
b1001000110100 q#
b1 4
b1 i#
b1 p#
1!
#300000
0!
#310000
b111 &"
b111 +"
b111 m"
b111 C#
b111 L#
b111 f#
b111 l#
b0 Y
b0 8#
b0 A#
b0 <
b0 !#
b0 s#
19#
19
0:#
b1 X
b1 ;#
b1 B#
0(
b0 %
b0 A
b0 ^#
b0 v#
0$
0_#
b101011001111000 I
b101011001111000 +#
b101011001111000 a#
b101011001111000 e#
1F
b1 K
b1 ,#
b1 `#
b1 d#
b0 n
b0 c"
b0 k"
b0 }"
b0 o
b0 b"
b0 j"
b0 |"
b0 \"
0;
1>
13#
1W
b111 d
b111 0#
b111 =#
b1100101 e
b1100101 /#
b1100101 <#
b0 +
b0 -
b0 0
b0 K#
1##
b0 u
b0 H"
b0 h"
b100011 *#
b0 3
b0 j#
b0 q#
01
b0 4
b0 i#
b0 p#
b101011001111000 M
b101011001111000 t"
b101011001111000 T#
b101011001111000 N
b101011001111000 s"
b101011001111000 S#
b100101 Q
b100101 p"
b100101 P#
b101011001111000 J
b101011001111000 v"
b101011001111000 V#
1G
b1 L
b1 u"
b1 U#
b11100000000000010000000000000000 c
b11100000000000010000000000000000 K"
b11100000000000010000000000000000 F#
b0 p
b0 <"
b0 J#
b111 #"
b111 P"
b111 E#
b1110001 $"
b1110001 7"
b1110001 e"
b1110001 {"
b1110001 %"
b1110001 Q"
b1110001 D#
b10001100000000010000000000000000 ^
b10001100000000010000000000000000 ~"
b10001100000000010000000000000000 >#
b10001100000000010000000000000000 _
b10001100000000010000000000000000 -#
b10001100000000010000000000000000 N#
b10100 %#
b11000 $#
b10000 [
b10000 &#
b10000 O#
b10100 *
b10100 ,
b10100 /
b10100 E
b10100 M#
b10100 m#
1!
#320000
0!
#330000
b0 &"
b0 +"
b0 m"
b0 C#
b0 L#
b0 f#
b0 l#
09
09#
0k
b0 I
b0 +#
b0 a#
b0 e#
b0 K
b0 ,#
b0 `#
b0 d#
0##
b0 D"
0B"
b0 ?"
b0 @"
b0 c
b0 K"
b0 F#
0l
b0 r
b0 ;"
b0 i"
b0 s
b0 A"
b0 I#
b0 #"
b0 P"
b0 E#
b0 $"
b0 7"
b0 e"
b0 {"
b0 %"
b0 Q"
b0 D#
b0 J
b0 v"
b0 V#
b0 L
b0 u"
b0 U#
b0 N
b0 s"
b0 S#
b1110001 Q
b1110001 p"
b1110001 P#
b101011001111000 3
b101011001111000 j#
b101011001111000 q#
11
b1 4
b1 i#
b1 p#
1!
#340000
0!
