2-logic-shift-nop-sync/openmips_min_sopc_tb.vcd
$date
	Wed Dec 22 17:49:05 2021
$end
$version
	Icarus Verilog
$end
$timescale
	1ps
$end
$scope module openmips_min_sopc_tb $end
$var reg 1 ! clk $end
$var reg 1 " rst $end
$scope module openmips_min_sopc0 $end
$var wire 1 ! clk $end
$var wire 1 " rst $end
$var wire 1 # rom_ce $end
$var wire 32 $ inst_addr [31:0] $end
$var wire 32 % inst [31:0] $end
$scope module inst_rom0 $end
$var wire 1 # ce $end
$var wire 32 & addr [31:0] $end
$var reg 32 ' inst [31:0] $end
$upscope $end
$scope module openmips0 $end
$var wire 1 ! clk $end
$var wire 32 ( rom_addr_o [31:0] $end
$var wire 32 ) rom_data_i [31:0] $end
$var wire 1 " rst $end
$var wire 1 * wb_wreg_i $end
$var wire 32 + wb_wdata_i [31:0] $end
$var wire 5 , wb_wd_i [4:0] $end
$var wire 1 # rom_ce_o $end
$var wire 1 - reg2_read $end
$var wire 32 . reg2_data [31:0] $end
$var wire 5 / reg2_addr [4:0] $end
$var wire 1 0 reg1_read $end
$var wire 32 1 reg1_data [31:0] $end
$var wire 5 2 reg1_addr [4:0] $end
$var wire 32 3 pc [31:0] $end
$var wire 1 4 mem_wreg_o $end
$var wire 1 5 mem_wreg_i $end
$var wire 32 6 mem_wdata_o [31:0] $end
$var wire 32 7 mem_wdata_i [31:0] $end
$var wire 5 8 mem_wd_o [4:0] $end
$var wire 5 9 mem_wd_i [4:0] $end
$var wire 1 : id_wreg_o $end
$var wire 5 ; id_wd_o [4:0] $end
$var wire 32 < id_reg2_o [31:0] $end
$var wire 32 = id_reg1_o [31:0] $end
$var wire 32 > id_pc_i [31:0] $end
$var wire 32 ? id_inst_i [31:0] $end
$var wire 3 @ id_alusel_o [2:0] $end
$var wire 8 A id_aluop_o [7:0] $end
$var wire 1 B ex_wreg_o $end
$var wire 1 C ex_wreg_i $end
$var wire 32 D ex_wdata_o [31:0] $end
$var wire 5 E ex_wd_o [4:0] $end
$var wire 5 F ex_wd_i [4:0] $end
$var wire 32 G ex_reg2_i [31:0] $end
$var wire 32 H ex_reg1_i [31:0] $end
$var wire 3 I ex_alusel_i [2:0] $end
$var wire 8 J ex_aluop_i [7:0] $end
$scope module ex0 $end
$var wire 1 " Rst_n $end
$var wire 1 C wreg_i $end
$var wire 5 K wd_i [4:0] $end
$var wire 32 L reg2_i [31:0] $end
$var wire 32 M reg1_i [31:0] $end
$var wire 3 N alusel_i [2:0] $end
$var wire 8 O aluop_i [7:0] $end
$var reg 32 P logicout [31:0] $end
$var reg 32 Q shiftres [31:0] $end
$var reg 5 R wd_o [4:0] $end
$var reg 32 S wdata_o [31:0] $end
$var reg 1 B wreg_o $end
$upscope $end
$scope module ex_mem0 $end
$var wire 1 " Rst_n $end
$var wire 1 ! clk $end
$var wire 5 T ex_wd [4:0] $end
$var wire 32 U ex_wdata [31:0] $end
$var wire 1 B ex_wreg $end
$var reg 5 V mem_wd [4:0] $end
$var reg 32 W mem_wdata [31:0] $end
$var reg 1 5 mem_wreg $end
$upscope $end
$scope module id0 $end
$var wire 1 " Rst_n $end
$var wire 5 X ex_wd_i [4:0] $end
$var wire 32 Y ex_wdata_i [31:0] $end
$var wire 1 B ex_wreg_i $end
$var wire 32 Z reg2_data_i [31:0] $end
$var wire 32 [ reg1_data_i [31:0] $end
$var wire 32 \ pc_i [31:0] $end
$var wire 5 ] op4 [4:0] $end
$var wire 6 ^ op3 [5:0] $end
$var wire 5 _ op2 [4:0] $end
$var wire 6 ` op [5:0] $end
$var wire 1 4 mem_wreg_i $end
$var wire 32 a mem_wdata_i [31:0] $end
$var wire 5 b mem_wd_i [4:0] $end
$var wire 32 c inst_i [31:0] $end
$var reg 8 d aluop_o [7:0] $end
$var reg 3 e alusel_o [2:0] $end
$var reg 32 f imm [31:0] $end
$var reg 1 g inst_valid $end
$var reg 5 h reg1_addr_o [4:0] $end
$var reg 32 i reg1_o [31:0] $end
$var reg 1 0 reg1_read_o $end
$var reg 5 j reg2_addr_o [4:0] $end
$var reg 32 k reg2_o [31:0] $end
$var reg 1 - reg2_read_o $end
$var reg 5 l wd_o [4:0] $end
$var reg 1 : wreg_o $end
$upscope $end
$scope module id_ex0 $end
$var wire 1 ! Clk $end
$var wire 1 " Rst_n $end
$var wire 8 m id_aluop [7:0] $end
$var wire 3 n id_alusel [2:0] $end
$var wire 32 o id_reg1 [31:0] $end
$var wire 32 p id_reg2 [31:0] $end
$var wire 5 q id_wd [4:0] $end
$var wire 1 : id_wreg $end
$var reg 8 r ex_aluop [7:0] $end
$var reg 3 s ex_alusel [2:0] $end
$var reg 32 t ex_reg1 [31:0] $end
$var reg 32 u ex_reg2 [31:0] $end
$var reg 5 v ex_wd [4:0] $end
$var reg 1 C ex_wreg $end
$upscope $end
$scope module if_id0 $end
$var wire 1 ! Clk $end
$var wire 1 " Rst_n $end
$var wire 32 w if_inst [31:0] $end
$var wire 32 x if_pc [31:0] $end
$var reg 32 y id_inst [31:0] $end
$var reg 32 z id_pc [31:0] $end
$upscope $end
$scope module mem0 $end
$var wire 1 " rst $end
$var wire 5 { wd_i [4:0] $end
$var wire 32 | wdata_i [31:0] $end
$var wire 1 5 wreg_i $end
$var reg 5 } wd_o [4:0] $end
$var reg 32 ~ wdata_o [31:0] $end
$var reg 1 4 wreg_o $end
$upscope $end
$scope module mem_wb0 $end
$var wire 1 ! clk $end
$var wire 5 !" mem_wd [4:0] $end
$var wire 32 "" mem_wdata [31:0] $end
$var wire 1 4 mem_wreg $end
$var wire 1 " rst $end
$var reg 5 #" wb_wd [4:0] $end
$var reg 32 $" wb_wdata [31:0] $end
$var reg 1 * wb_wreg $end
$upscope $end
$scope module pc_reg0 $end
$var wire 1 ! Clk $end
$var wire 1 " Rst $end
$var reg 1 # ce $end
$var reg 32 %" pc [31:0] $end
$upscope $end
$scope module reg_file0 $end
$var wire 1 ! Clk $end
$var wire 1 " Rst_n $end
$var wire 5 &" raddr1 [4:0] $end
$var wire 5 '" raddr2 [4:0] $end
$var wire 1 0 re1 $end
$var wire 1 - re2 $end
$var wire 5 (" waddr [4:0] $end
$var wire 32 )" wdata [31:0] $end
$var wire 1 * we $end
$var reg 32 *" rdata1 [31:0] $end
$var reg 32 +" rdata2 [31:0] $end
$upscope $end
$upscope $end
$upscope $end
$upscope $end
$enddefinitions $end
#0
$dumpvars
b0 +"
b0 *"
bx )"
bx ("
b0 '"
b0 &"
bx %"
bx $"
bx #"
b0 ""
b0 !"
b0 ~
b0 }
bx |
bx {
bx z
bx y
bx x
bx w
bx v
bx u
bx t
bx s
bx r
b0 q
b0 p
b0 o
b0 n
b0 m
b0 l
b0 k
b0 j
b0 i
b0 h
1g
b0 f
b0 e
b0 d
bx c
b0 b
b0 a
bx `
bx _
bx ^
bx ]
bx \
b0 [
b0 Z
b0 Y
bx X
bx W
bx V
b0 U
bx T
b0 S
bx R
b0 Q
b0 P
bx O
bx N
bx M
bx L
bx K
bx J
bx I
bx H
bx G
bx F
bx E
b0 D
xC
xB
b0 A
b0 @
bx ?
bx >
b0 =
b0 <
b0 ;
0:
bx 9
b0 8
bx 7
b0 6
x5
04
bx 3
b0 2
b0 1
00
b0 /
b0 .
0-
bx ,
bx +
x*
bx )
bx (
bx '
bx &
bx %
bx $
x#
1"
0!
$end
#10000
b0 %
b0 '
b0 )
b0 w
0B
b0 E
b0 R
b0 T
b0 X
b0 ]
b0 ^
b0 _
b0 `
0#
b0 ?
b0 c
b0 y
b0 >
b0 \
b0 z
0C
b0 F
b0 K
b0 v
b0 G
b0 L
b0 u
b0 H
b0 M
b0 t
b0 I
b0 N
b0 s
b0 J
b0 O
b0 r
b0 7
b0 W
b0 |
05
b0 9
b0 V
b0 {
b0 +
b0 $"
b0 )"
0*
b0 ,
b0 #"
b0 ("
1!
#20000
0!
#30000
b0 $
b0 &
b0 (
b0 3
b0 x
b0 %"
1!
#40000
0!
#50000
1!
#60000
0!
#70000
1!
#80000
0!
#90000
1!
#100000
0!
#110000
1!
#120000
0!
#130000
1!
#140000
0!
#150000
1!
#160000
0!
#170000
1!
#180000
0!
#190000
1!
#195000
1-
b10 @
b10 e
b10 n
b1111100 A
b1111100 d
b1111100 m
1:
1g
0"
#200000
0!
#210000
b111100000000100000010000000100 %
b111100000000100000010000000100 '
b111100000000100000010000000100 )
b111100000000100000010000000100 w
1B
1#
1C
b10 I
b10 N
b10 s
b1111100 J
b1111100 O
b1111100 r
1!
#220000
0!
#230000
b100000001000000000000000000 <
b100000001000000000000000000 k
b100000001000000000000000000 p
b10 ;
b10 l
b10 q
b100000001000000000000000000 f
10
14
b10 /
b10 j
b10 '"
0-
1g
1:
b1 @
b1 e
b1 n
b100101 A
b100101 d
b100101 m
b110100010000100000010000000100 %
b110100010000100000010000000100 '
b110100010000100000010000000100 )
b110100010000100000010000000100 w
b10 ]
b100 ^
b10000 _
b1111 `
15
b111100000000100000010000000100 ?
b111100000000100000010000000100 c
b111100000000100000010000000100 y
b100 $
b100 &
b100 (
b100 3
b100 x
b100 %"
1!
#240000
0!
#250000
b100000001000000000000000000 =
b100000001000000000000000000 i
b100000001000000000000000000 o
bx 1
bx [
bx *"
b10000000100 <
b10000000100 k
b10000000100 p
b100000001000000000000000000 D
b100000001000000000000000000 S
b100000001000000000000000000 U
b100000001000000000000000000 Y
b110100000001110000000000000111 %
b110100000001110000000000000111 '
b110100000001110000000000000111 )
b110100000001110000000000000111 w
b10000000100 f
b10 2
b10 h
b10 &"
10
1g
1:
b10 ;
b10 l
b10 q
b1 @
b1 e
b1 n
b100101 A
b100101 d
b100101 m
b10 E
b10 R
b10 T
b10 X
b100000001000000000000000000 P
b1101 `
b1000 $
b1000 &
b1000 (
b1000 3
b1000 x
b1000 %"
b110100010000100000010000000100 ?
b110100010000100000010000000100 c
b110100010000100000010000000100 y
b100 >
b100 \
b100 z
b10 F
b10 K
b10 v
b100000001000000000000000000 G
b100000001000000000000000000 L
b100000001000000000000000000 u
b1 I
b1 N
b1 s
b100101 J
b100101 O
b100101 r
1*
1!
#260000
0!
#270000
b100000001000000010000000100 D
b100000001000000010000000100 S
b100000001000000010000000100 U
b100000001000000010000000100 Y
b111 <
b111 k
b111 p
b0 =
b0 i
b0 o
b0 1
b0 [
b0 *"
b100000001000000000000000000 6
b100000001000000000000000000 a
b100000001000000000000000000 ~
b100000001000000000000000000 ""
b10 8
b10 b
b10 }
b10 !"
b100000001000000010000000100 P
b111 f
b111 /
b111 j
b111 '"
b0 2
b0 h
b0 &"
10
1g
1:
b111 ;
b111 l
b111 q
b1 @
b1 e
b1 n
b100101 A
b100101 d
b100101 m
b110100000001010000000000000101 %
b110100000001010000000000000101 '
b110100000001010000000000000101 )
b110100000001010000000000000101 w
b111 ]
b111 ^
b0 _
b100000001000000000000000000 7
b100000001000000000000000000 W
b100000001000000000000000000 |
b10 9
b10 V
b10 {
b10000000100 G
b10000000100 L
b10000000100 u
b100000001000000000000000000 H
b100000001000000000000000000 M
b100000001000000000000000000 t
b110100000001110000000000000111 ?
b110100000001110000000000000111 c
b110100000001110000000000000111 y
b1000 >
b1000 \
b1000 z
b1100 $
b1100 &
b1100 (
b1100 3
b1100 x
b1100 %"
1!
#280000
0!
#290000
b111 D
b111 S
b111 U
b111 Y
b101 <
b101 k
b101 p
b110100000010000000000000001000 %
b110100000010000000000000001000 '
b110100000010000000000000001000 )
b110100000010000000000000001000 w
b101 f
b101 /
b101 j
b101 '"
10
1g
1:
b101 ;
b101 l
b101 q
b1 @
b1 e
b1 n
b100101 A
b100101 d
b100101 m
b111 E
b111 R
b111 T
b111 X
b111 P
b100000001000000010000000100 6
b100000001000000010000000100 a
b100000001000000010000000100 ~
b100000001000000010000000100 ""
b101 ]
b101 ^
b10000 $
b10000 &
b10000 (
b10000 3
b10000 x
b10000 %"
b110100000001010000000000000101 ?
b110100000001010000000000000101 c
b110100000001010000000000000101 y
b1100 >
b1100 \
b1100 z
b111 F
b111 K
b111 v
b111 G
b111 L
b111 u
b0 H
b0 M
b0 t
b100000001000000010000000100 7
b100000001000000010000000100 W
b100000001000000010000000100 |
b100000001000000000000000000 +
b100000001000000000000000000 $"
b100000001000000000000000000 )"
b10 ,
b10 #"
b10 ("
1!
#300000
0!
#310000
b101 D
b101 S
b101 U
b101 Y
b1000 <
b1000 k
b1000 p
b111 6
b111 a
b111 ~
b111 ""
b111 8
b111 b
b111 }
b111 !"
b101 E
b101 R
b101 T
b101 X
b101 P
b1000 f
b1000 /
b1000 j
b1000 '"
10
1g
1:
b1000 ;
b1000 l
b1000 q
b1 @
b1 e
b1 n
b100101 A
b100101 d
b100101 m
b1111 %
b1111 '
b1111 )
b1111 w
b1000 ]
b1000 ^
b100000001000000010000000100 +
b100000001000000010000000100 $"
b100000001000000010000000100 )"
b111 7
b111 W
b111 |
b111 9
b111 V
b111 {
b101 F
b101 K
b101 v
b101 G
b101 L
b101 u
b110100000010000000000000001000 ?
b110100000010000000000000001000 c
b110100000010000000000000001000 y
b10000 >
b10000 \
b10000 z
b10100 $
b10100 &
b10100 (
b10100 3
b10100 x
b10100 %"
1!
#320000
0!
#330000
b1000 D
b1000 S
b1000 U
b1000 Y
b0 <
b0 k
b0 p
b100001001000000000 %
b100001001000000000 '
b100001001000000000 )
b100001001000000000 w
b0 f
b0 /
b0 j
b0 '"
00
0g
0:
b0 ;
b0 l
b0 q
b0 @
b0 e
b0 n
b0 A
b0 d
b0 m
b1000 E
b1000 R
b1000 T
b1000 X
b1000 P
b101 6
b101 a
b101 ~
b101 ""
b101 8
b101 b
b101 }
b101 !"
b0 ]
b1111 ^
b0 `
b11000 $
b11000 &
b11000 (
b11000 3
b11000 x
b11000 %"
b1111 ?
b1111 c
b1111 y
b10100 >
b10100 \
b10100 z
b1000 F
b1000 K
b1000 v
b1000 G
b1000 L
b1000 u
b101 7
b101 W
b101 |
b101 9
b101 V
b101 {
b111 +
b111 $"
b111 )"
b111 ,
b111 #"
b111 ("
1!
#340000
0!
#350000
b100000001000000010000000100 <
b100000001000000010000000100 k
b100000001000000010000000100 p
b1000 =
b1000 i
b1000 o
b100000001000000010000000100 .
b100000001000000010000000100 Z
b100000001000000010000000100 +"
1g
b1000 f
1-
b10 @
b10 e
b10 n
b1111100 A
b1111100 d
b1111100 m
1:
b1000 6
b1000 a
b1000 ~
b1000 ""
b1000 8
b1000 b
b1000 }
b1000 !"
b0 D
b0 S
b0 U
b0 Y
0B
b0 E
b0 R
b0 T
b0 X
b0 P
b10 /
b10 j
b10 '"
b10 ;
b10 l
b10 q
b111000100001000000000100 %
b111000100001000000000100 '
b111000100001000000000100 )
b111000100001000000000100 w
b10 ]
b0 ^
b1000 _
b101 +
b101 $"
b101 )"
b101 ,
b101 #"
b101 ("
b1000 7
b1000 W
b1000 |
b1000 9
b1000 V
b1000 {
0C
b0 F
b0 K
b0 v
b0 G
b0 L
b0 u
b0 I
b0 N
b0 s
b0 J
b0 O
b0 r
b100001001000000000 ?
b100001001000000000 c
b100001001000000000 y
b11000 >
b11000 \
b11000 z
b11100 $
b11100 &
b11100 (
b11100 3
b11100 x
b11100 %"
1!
#360000
0!
#370000
b111 1
b111 [
b111 *"
b100000001000000010000000000 D
b100000001000000010000000000 S
b100000001000000010000000000 U
b100000001000000010000000000 Y
b100000001000000010000000000 <
b100000001000000010000000000 k
b100000001000000010000000000 p
b111 =
b111 i
b111 o
10
b100001001000000010 %
b100001001000000010 '
b100001001000000010 )
b100001001000000010 w
b0 f
b111 2
b111 h
b111 &"
1-
1g
1:
b10 @
b10 e
b10 n
b1111100 A
b1111100 d
b1111100 m
1B
b10 E
b10 R
b10 T
b10 X
b100000001000000010000000000 Q
b0 6
b0 a
b0 ~
b0 ""
04
b0 8
b0 b
b0 }
b0 !"
b100 ^
b0 _
b100000 $
b100000 &
b100000 (
b100000 3
b100000 x
b100000 %"
b111000100001000000000100 ?
b111000100001000000000100 c
b111000100001000000000100 y
b11100 >
b11100 \
b11100 z
1C
b10 F
b10 K
b10 v
b100000001000000010000000100 G
b100000001000000010000000100 L
b100000001000000010000000100 u
b1000 H
b1000 M
b1000 t
b10 I
b10 N
b10 s
b1111100 J
b1111100 O
b1111100 r
b0 7
b0 W
b0 |
05
b0 9
b0 V
b0 {
b1000 +
b1000 $"
b1000 )"
b1000 ,
b1000 #"
b1000 ("
1!
#380000
0!
#390000
b10000000100000000000000000 <
b10000000100000000000000000 k
b10000000100000000000000000 p
b10000000100000000000000000 D
b10000000100000000000000000 S
b10000000100000000000000000 U
b10000000100000000000000000 Y
b1000 =
b1000 i
b1000 o
b0 1
b0 [
b0 *"
b1000 f
b100000001000000010000000000 6
b100000001000000010000000000 a
b100000001000000010000000000 ~
b100000001000000010000000000 ""
14
b10 8
b10 b
b10 }
b10 !"
b10000000100000000000000000 Q
b0 2
b0 h
b0 &"
1-
00
1g
1:
b10 @
b10 e
b10 n
b10 A
b10 d
b10 m
b101000100001000000000110 %
b101000100001000000000110 '
b101000100001000000000110 )
b101000100001000000000110 w
b10 ^
b1000 _
b0 +
b0 $"
b0 )"
0*
b0 ,
b0 #"
b0 ("
b100000001000000010000000000 7
b100000001000000010000000000 W
b100000001000000010000000000 |
15
b10 9
b10 V
b10 {
b100000001000000010000000000 G
b100000001000000010000000000 L
b100000001000000010000000000 u
b111 H
b111 M
b111 t
b100001001000000010 ?
b100001001000000010 c
b100001001000000010 y
b100000 >
b100000 \
b100000 z
b100100 $
b100100 &
b100100 (
b100100 3
b100100 x
b100100 %"
1!
#400000
0!
#410000
b100000001000000000 <
b100000001000000000 k
b100000001000000000 p
b101 1
b101 [
b101 *"
b100000001000000000 D
b100000001000000000 S
b100000001000000000 U
b100000001000000000 Y
b101 =
b101 i
b101 o
10
b0 %
b0 '
b0 )
b0 w
b0 f
b101 2
b101 h
b101 &"
1-
1g
1:
b10 @
b10 e
b10 n
b10 A
b10 d
b10 m
b100000001000000000 Q
b10000000100000000000000000 6
b10000000100000000000000000 a
b10000000100000000000000000 ~
b10000000100000000000000000 ""
b100000001000000010000000000 .
b100000001000000010000000000 Z
b100000001000000010000000000 +"
b110 ^
b0 _
b101000 $
b101000 &
b101000 (
b101000 3
b101000 x
b101000 %"
b101000100001000000000110 ?
b101000100001000000000110 c
b101000100001000000000110 y
b100100 >
b100100 \
b100100 z
b10000000100000000000000000 G
b10000000100000000000000000 L
b10000000100000000000000000 u
b1000 H
b1000 M
b1000 t
b10 J
b10 O
b10 r
b10000000100000000000000000 7
b10000000100000000000000000 W
b10000000100000000000000000 |
b100000001000000010000000000 +
b100000001000000010000000000 $"
b100000001000000010000000000 )"
1*
b10 ,
b10 #"
b10 ("
1!
#420000
0!
#430000
b1000000010000 D
b1000000010000 S
b1000000010000 U
b1000000010000 Y
b0 <
b0 k
b0 p
b0 =
b0 i
b0 o
b0 1
b0 [
b0 *"
b100000001000000000 6
b100000001000000000 a
b100000001000000000 ~
b100000001000000000 ""
b1000000010000 Q
b0 .
b0 Z
b0 +"
b0 /
b0 j
b0 '"
b0 2
b0 h
b0 &"
1-
00
1g
1:
b0 ;
b0 l
b0 q
b10 @
b10 e
b10 n
b1111100 A
b1111100 d
b1111100 m
b100001010011000000 %
b100001010011000000 '
b100001010011000000 )
b100001010011000000 w
b0 ]
b0 ^
b10000000100000000000000000 +
b10000000100000000000000000 $"
b10000000100000000000000000 )"
b100000001000000000 7
b100000001000000000 W
b100000001000000000 |
b100000001000000000 G
b100000001000000000 L
b100000001000000000 u
b101 H
b101 M
b101 t
b0 ?
b0 c
b0 y
b101000 >
b101000 \
b101000 z
b101100 $
b101100 &
b101100 (
b101100 3
b101100 x
b101100 %"
1!
#440000
0!
#450000
b100000001000000000 .
b100000001000000000 Z
b100000001000000000 +"
b0 D
b0 S
b0 U
b0 Y
b1000000010000 <
b1000000010000 k
b1000000010000 p
b10011 =
b10011 i
b10011 o
b1000000 %
b1000000 '
b1000000 )
b1000000 w
b10011 f
b10 /
b10 j
b10 '"
1-
1g
1:
b10 ;
b10 l
b10 q
b10 @
b10 e
b10 n
b1111100 A
b1111100 d
b1111100 m
b0 E
b0 R
b0 T
b0 X
b0 Q
b1000000010000 6
b1000000010000 a
b1000000010000 ~
b1000000010000 ""
b10 ]
b10011 _
b110000 $
b110000 &
b110000 (
b110000 3
b110000 x
b110000 %"
b100001010011000000 ?
b100001010011000000 c
b100001010011000000 y
b101100 >
b101100 \
b101100 z
b0 F
b0 K
b0 v
b0 G
b0 L
b0 u
b0 H
b0 M
b0 t
b1111100 J
b1111100 O
b1111100 r
b1000000010000 7
b1000000010000 W
b1000000010000 |
b100000001000000000 +
b100000001000000000 $"
b100000001000000000 )"
1!
#460000
0!
#470000
b10000000100000000000000000000000 D
b10000000100000000000000000000000 S
b10000000100000000000000000000000 U
b10000000100000000000000000000000 Y
b1 =
b1 i
b1 o
b0 <
b0 k
b0 p
b0 6
b0 a
b0 ~
b0 ""
b0 8
b0 b
b0 }
b0 !"
b10 E
b10 R
b10 T
b10 X
b10000000100000000000000000000000 Q
b0 .
b0 Z
b0 +"
b1 f
b0 /
b0 j
b0 '"
1-
1g
1:
b0 ;
b0 l
b0 q
b10 @
b10 e
b10 n
b1111100 A
b1111100 d
b1111100 m
b100001010000000011 %
b100001010000000011 '
b100001010000000011 )
b100001010000000011 w
b0 ]
b1 _
b1000000010000 +
b1000000010000 $"
b1000000010000 )"
b0 7
b0 W
b0 |
b0 9
b0 V
b0 {
b10 F
b10 K
b10 v
b1000000010000 G
b1000000010000 L
b1000000010000 u
b10011 H
b10011 M
b10011 t
b1000000 ?
b1000000 c
b1000000 y
b110000 >
b110000 \
b110000 z
b110100 $
b110100 &
b110100 (
b110100 3
b110100 x
b110100 %"
1!
#480000
0!
#490000
b1000000010000 .
b1000000010000 Z
b1000000010000 +"
b0 D
b0 S
b0 U
b0 Y
b10000000100000000000000000000000 <
b10000000100000000000000000000000 k
b10000000100000000000000000000000 p
b10000 =
b10000 i
b10000 o
b1000000100001000000000111 %
b1000000100001000000000111 '
b1000000100001000000000111 )
b1000000100001000000000111 w
b10000 f
b10 /
b10 j
b10 '"
1-
1g
1:
b10 ;
b10 l
b10 q
b10 @
b10 e
b10 n
b11 A
b11 d
b11 m
b0 E
b0 R
b0 T
b0 X
b0 Q
b10000000100000000000000000000000 6
b10000000100000000000000000000000 a
b10000000100000000000000000000000 ~
b10000000100000000000000000000000 ""
b10 8
b10 b
b10 }
b10 !"
b10 ]
b11 ^
b10000 _
b111000 $
b111000 &
b111000 (
b111000 3
b111000 x
b111000 %"
b100001010000000011 ?
b100001010000000011 c
b100001010000000011 y
b110100 >
b110100 \
b110100 z
b0 F
b0 K
b0 v
b0 G
b0 L
b0 u
b1 H
b1 M
b1 t
b10000000100000000000000000000000 7
b10000000100000000000000000000000 W
b10000000100000000000000000000000 |
b10 9
b10 V
b10 {
b0 +
b0 $"
b0 )"
b0 ,
b0 #"
b0 ("
1!
#500000
0!
#510000
b11111111111111111000000010000000 D
b11111111111111111000000010000000 S
b11111111111111111000000010000000 U
b11111111111111111000000010000000 Y
b1000 =
b1000 i
b1000 o
b1000 1
b1000 [
b1000 *"
b11111111111111111000000010000000 <
b11111111111111111000000010000000 k
b11111111111111111000000010000000 p
10
b10000000100000000000000000000000 .
b10000000100000000000000000000000 Z
b10000000100000000000000000000000 +"
b0 6
b0 a
b0 ~
b0 ""
b0 8
b0 b
b0 }
b0 !"
b10 E
b10 R
b10 T
b10 X
b11111111111111111000000010000000 Q
b0 f
b1000 2
b1000 h
b1000 &"
1-
1g
1:
b10 @
b10 e
b10 n
b11 A
b11 d
b11 m
bx %
bx '
bx )
bx w
b111 ^
b0 _
b10000000100000000000000000000000 +
b10000000100000000000000000000000 $"
b10000000100000000000000000000000 )"
b10 ,
b10 #"
b10 ("
b0 7
b0 W
b0 |
b0 9
b0 V
b0 {
b10 F
b10 K
b10 v
b10000000100000000000000000000000 G
b10000000100000000000000000000000 L
b10000000100000000000000000000000 u
b10000 H
b10000 M
b10000 t
b11 J
b11 O
b11 r
b1000000100001000000000111 ?
b1000000100001000000000111 c
b1000000100001000000000111 y
b111000 >
b111000 \
b111000 z
b111100 $
b111100 &
b111100 (
b111100 3
b111100 x
b111100 %"
1!
#520000
0!
#530000
b0 .
b0 Z
b0 +"
b0 1
b0 [
b0 *"
b11111111111111111111111110000000 D
b11111111111111111111111110000000 S
b11111111111111111111111110000000 U
b11111111111111111111111110000000 Y
b0 <
b0 k
b0 p
b0 =
b0 i
b0 o
bx /
bx j
bx '"
bx 2
bx h
bx &"
0-
00
0g
0:
bx ;
bx l
bx q
b0 @
b0 e
b0 n
b0 A
b0 d
b0 m
b11111111111111111111111110000000 Q
b11111111111111111000000010000000 6
b11111111111111111000000010000000 a
b11111111111111111000000010000000 ~
b11111111111111111000000010000000 ""
b10 8
b10 b
b10 }
b10 !"
bx ]
bx ^
bx _
bx `
b1000000 $
b1000000 &
b1000000 (
b1000000 3
b1000000 x
b1000000 %"
bx ?
bx c
bx y
b111100 >
b111100 \
b111100 z
b11111111111111111000000010000000 G
b11111111111111111000000010000000 L
b11111111111111111000000010000000 u
b1000 H
b1000 M
b1000 t
b11111111111111111000000010000000 7
b11111111111111111000000010000000 W
b11111111111111111000000010000000 |
b10 9
b10 V
b10 {
b0 +
b0 $"
b0 )"
b0 ,
b0 #"
b0 ("
1!
#540000
0!
#550000
b11111111111111111111111110000000 6
b11111111111111111111111110000000 a
b11111111111111111111111110000000 ~
b11111111111111111111111110000000 ""
b0 D
b0 S
b0 U
b0 Y
0B
bx E
bx R
bx T
bx X
b11111111111111111000000010000000 +
b11111111111111111000000010000000 $"
b11111111111111111000000010000000 )"
b10 ,
b10 #"
b10 ("
b11111111111111111111111110000000 7
b11111111111111111111111110000000 W
b11111111111111111111111110000000 |
0C
bx F
bx K
bx v
b0 G
b0 L
b0 u
b0 H
b0 M
b0 t
b0 I
b0 N
b0 s
b0 J
b0 O
b0 r
b1000000 >
b1000000 \
b1000000 z
b1000100 $
b1000100 &
b1000100 (
b1000100 3
b1000100 x
b1000100 %"
1!
#560000
0!
#570000
b0 6
b0 a
b0 ~
b0 ""
04
bx 8
bx b
bx }
bx !"
b1001000 $
b1001000 &
b1001000 (
b1001000 3
b1001000 x
b1001000 %"
b1000100 >
b1000100 \
b1000100 z
b0 7
b0 W
b0 |
05
bx 9
bx V
bx {
b11111111111111111111111110000000 +
b11111111111111111111111110000000 $"
b11111111111111111111111110000000 )"
1!
#580000
0!
#590000
b0 +
b0 $"
b0 )"
0*
bx ,
bx #"
bx ("
b1001000 >
b1001000 \
b1001000 z
b1001100 $
b1001100 &
b1001100 (
b1001100 3
b1001100 x
b1001100 %"
1!
#600000
0!
#610000
b1010000 $
b1010000 &
b1010000 (
b1010000 3
b1010000 x
b1010000 %"
b1001100 >
b1001100 \
b1001100 z
1!
#620000
0!
#630000
b1010000 >
b1010000 \
b1010000 z
b1010100 $
b1010100 &
b1010100 (
b1010100 3
b1010100 x
b1010100 %"
1!
#640000
0!
#650000
b1011000 $
b1011000 &
b1011000 (
b1011000 3
b1011000 x
b1011000 %"
b1010100 >
b1010100 \
b1010100 z
1!
#660000
0!
#670000
b1011000 >
b1011000 \
b1011000 z
b1011100 $
b1011100 &
b1011100 (
b1011100 3
b1011100 x
b1011100 %"
1!
#680000
0!
#690000
b1100000 $
b1100000 &
b1100000 (
b1100000 3
b1100000 x
b1100000 %"
b1011100 >
b1011100 \
b1011100 z
1!
#700000
0!
#710000
b1100000 >
b1100000 \
b1100000 z
b1100100 $
b1100100 &
b1100100 (
b1100100 3
b1100100 x
b1100100 %"
1!
#720000
0!
#730000
b1101000 $
b1101000 &
b1101000 (
b1101000 3
b1101000 x
b1101000 %"
b1100100 >
b1100100 \
b1100100 z
1!
#740000
0!
#750000
b1101000 >
b1101000 \
b1101000 z
b1101100 $
b1101100 &
b1101100 (
b1101100 3
b1101100 x
b1101100 %"
1!
#760000
0!
#770000
b1110000 $
b1110000 &
b1110000 (
b1110000 3
b1110000 x
b1110000 %"
b1101100 >
b1101100 \
b1101100 z
1!
#780000
0!
#790000
b1110000 >
b1110000 \
b1110000 z
b1110100 $
b1110100 &
b1110100 (
b1110100 3
b1110100 x
b1110100 %"
1!
#800000
0!
#810000
b1111000 $
b1111000 &
b1111000 (
b1111000 3
b1111000 x
b1111000 %"
b1110100 >
b1110100 \
b1110100 z
1!
#820000
0!
#830000
b1111000 >
b1111000 \
b1111000 z
b1111100 $
b1111100 &
b1111100 (
b1111100 3
b1111100 x
b1111100 %"
1!
#840000
0!
#850000
b10000000 $
b10000000 &
b10000000 (
b10000000 3
b10000000 x
b10000000 %"
b1111100 >
b1111100 \
b1111100 z
1!
#860000
0!
#870000
b10000000 >
b10000000 \
b10000000 z
b10000100 $
b10000100 &
b10000100 (
b10000100 3
b10000100 x
b10000100 %"
1!
#880000
0!
#890000
b10001000 $
b10001000 &
b10001000 (
b10001000 3
b10001000 x
b10001000 %"
b10000100 >
b10000100 \
b10000100 z
1!
#900000
0!
#910000
b10001000 >
b10001000 \
b10001000 z
b10001100 $
b10001100 &
b10001100 (
b10001100 3
b10001100 x
b10001100 %"
1!
#920000
0!
#930000
b10010000 $
b10010000 &
b10010000 (
b10010000 3
b10010000 x
b10010000 %"
b10001100 >
b10001100 \
b10001100 z
1!
#940000
0!
#950000
b10010000 >
b10010000 \
b10010000 z
b10010100 $
b10010100 &
b10010100 (
b10010100 3
b10010100 x
b10010100 %"
1!
#960000
0!
#970000
b10011000 $
b10011000 &
b10011000 (
b10011000 3
b10011000 x
b10011000 %"
b10010100 >
b10010100 \
b10010100 z
1!
#980000
0!
