4-arithmetic-simp-maddsub/openmips_min_sopc_tb.vcd
$date
	Tue Dec 28 16:48:02 2021
$end
$version
	Icarus Verilog
$end
$timescale
	1ps
$end
$scope module openmips_min_sopc_tb $end
$var reg 1 ! clk $end
$var reg 1 " rst $end
$scope module openmips_min_sopc0 $end
$var wire 1 ! clk $end
$var wire 1 " rst $end
$var wire 1 # rom_ce $end
$var wire 32 $ inst_addr [31:0] $end
$var wire 32 % inst [31:0] $end
$scope module inst_rom0 $end
$var wire 1 # ce $end
$var wire 32 & addr [31:0] $end
$var reg 32 ' inst [31:0] $end
$upscope $end
$scope module openmips0 $end
$var wire 1 ! clk $end
$var wire 32 ( rom_addr_o [31:0] $end
$var wire 32 ) rom_data_i [31:0] $end
$var wire 1 " rst $end
$var wire 1 * wb_wreg_i $end
$var wire 1 + wb_whilo $end
$var wire 32 , wb_wdata_i [31:0] $end
$var wire 5 - wb_wd_i [4:0] $end
$var wire 32 . wb_lo [31:0] $end
$var wire 32 / wb_hi [31:0] $end
$var wire 1 0 stall_from_id $end
$var wire 1 1 stall_from_ex $end
$var wire 1 # rom_ce_o $end
$var wire 1 2 reg2_read $end
$var wire 32 3 reg2_data [31:0] $end
$var wire 5 4 reg2_addr [4:0] $end
$var wire 1 5 reg1_read $end
$var wire 32 6 reg1_data [31:0] $end
$var wire 5 7 reg1_addr [4:0] $end
$var wire 32 8 pc [31:0] $end
$var wire 1 9 mem_wreg_o $end
$var wire 1 : mem_wreg_i $end
$var wire 1 ; mem_whilo_o $end
$var wire 32 < mem_wdata_o [31:0] $end
$var wire 32 = mem_wdata_i [31:0] $end
$var wire 5 > mem_wd_o [4:0] $end
$var wire 5 ? mem_wd_i [4:0] $end
$var wire 32 @ mem_lo_o [31:0] $end
$var wire 32 A mem_hi_o [31:0] $end
$var wire 1 B id_wreg_o $end
$var wire 5 C id_wd_o [4:0] $end
$var wire 32 D id_reg2_o [31:0] $end
$var wire 32 E id_reg1_o [31:0] $end
$var wire 32 F id_pc_i [31:0] $end
$var wire 32 G id_inst_i [31:0] $end
$var wire 3 H id_alusel_o [2:0] $end
$var wire 8 I id_aluop_o [7:0] $end
$var wire 32 J hilo_lo_o [31:0] $end
$var wire 32 K hilo_hi_o [31:0] $end
$var wire 1 L exmem_whilo_o $end
$var wire 32 M exmem_lo_o [31:0] $end
$var wire 32 N exmem_hi_o [31:0] $end
$var wire 1 O ex_wreg_o $end
$var wire 1 P ex_wreg_i $end
$var wire 1 Q ex_whilo_o $end
$var wire 32 R ex_wdata_o [31:0] $end
$var wire 5 S ex_wd_o [4:0] $end
$var wire 5 T ex_wd_i [4:0] $end
$var wire 32 U ex_reg2_i [31:0] $end
$var wire 32 V ex_reg1_i [31:0] $end
$var wire 32 W ex_lo_o [31:0] $end
$var wire 64 X ex_hilo_temp_o [63:0] $end
$var wire 64 Y ex_hilo_temp_i [63:0] $end
$var wire 32 Z ex_hi_o [31:0] $end
$var wire 2 [ ex_cnt_o [1:0] $end
$var wire 2 \ ex_cnt_i [1:0] $end
$var wire 3 ] ex_alusel_i [2:0] $end
$var wire 8 ^ ex_aluop_i [7:0] $end
$var wire 6 _ ctrl_stall_o [5:0] $end
$scope module ctrl0 $end
$var wire 1 " rst $end
$var wire 1 0 stall_from_id $end
$var wire 1 1 stall_from_ex $end
$var reg 6 ` stall [5:0] $end
$upscope $end
$scope module ex0 $end
$var wire 1 " Rst_n $end
$var wire 1 a ov_sum $end
$var wire 32 b reg1_i_not [31:0] $end
$var wire 1 P wreg_i $end
$var wire 5 c wd_i [4:0] $end
$var wire 1 + wb_wen_hilo $end
$var wire 32 d wb_lo_i [31:0] $end
$var wire 32 e wb_hi_i [31:0] $end
$var wire 32 f result_sum [31:0] $end
$var wire 32 g reg2_i_mux [31:0] $end
$var wire 32 h reg2_i [31:0] $end
$var wire 1 i reg1_lt_reg2 $end
$var wire 32 j reg1_i [31:0] $end
$var wire 32 k opdata2_mult [31:0] $end
$var wire 32 l opdata1_mult [31:0] $end
$var wire 1 ; mem_wen_hilo $end
$var wire 32 m mem_lo_i [31:0] $end
$var wire 32 n mem_hi_i [31:0] $end
$var wire 32 o lo_i [31:0] $end
$var wire 64 p hilo_tmp [63:0] $end
$var wire 64 q hilo_temp_i [63:0] $end
$var wire 32 r hi_i [31:0] $end
$var wire 2 s cnt_i [1:0] $end
$var wire 3 t alusel_i [2:0] $end
$var wire 8 u aluop_i [7:0] $end
$var reg 32 v HI [31:0] $end
$var reg 32 w LO [31:0] $end
$var reg 32 x arithres [31:0] $end
$var reg 2 y cnt_o [1:0] $end
$var reg 32 z hi_o [31:0] $end
$var reg 64 { hilo_temp1 [63:0] $end
$var reg 64 | hilo_temp_o [63:0] $end
$var reg 32 } lo_o [31:0] $end
$var reg 32 ~ logicout [31:0] $end
$var reg 32 !" movres [31:0] $end
$var reg 64 "" mulres [63:0] $end
$var reg 32 #" shiftres [31:0] $end
$var reg 1 1 stall_req_ex $end
$var reg 1 $" stallreq_for_madd_msub $end
$var reg 5 %" wd_o [4:0] $end
$var reg 32 &" wdata_o [31:0] $end
$var reg 1 Q whilo_o $end
$var reg 1 O wreg_o $end
$upscope $end
$scope module ex_mem0 $end
$var wire 1 " Rst_n $end
$var wire 1 ! clk $end
$var wire 2 '" cnt_i [1:0] $end
$var wire 32 (" ex_hi_i [31:0] $end
$var wire 32 )" ex_lo_i [31:0] $end
$var wire 5 *" ex_wd [4:0] $end
$var wire 32 +" ex_wdata [31:0] $end
$var wire 1 Q ex_whilo $end
$var wire 1 O ex_wreg $end
$var wire 64 ," hilo_temp_i [63:0] $end
$var wire 6 -" stall [5:0] $end
$var reg 2 ." cnt_o [1:0] $end
$var reg 64 /" hilo_temp_o [63:0] $end
$var reg 32 0" mem_hi_o [31:0] $end
$var reg 32 1" mem_lo_o [31:0] $end
$var reg 5 2" mem_wd [4:0] $end
$var reg 32 3" mem_wdata [31:0] $end
$var reg 1 L mem_whilo $end
$var reg 1 : mem_wreg $end
$upscope $end
$scope module hilo $end
$var wire 1 ! clk $end
$var wire 1 " rst $end
$var wire 1 + we $end
$var wire 32 4" lo_in [31:0] $end
$var wire 32 5" hi_in [31:0] $end
$var reg 32 6" hi_o [31:0] $end
$var reg 32 7" lo_o [31:0] $end
$upscope $end
$scope module id0 $end
$var wire 1 " Rst_n $end
$var wire 5 8" ex_wd_i [4:0] $end
$var wire 32 9" ex_wdata_i [31:0] $end
$var wire 1 O ex_wreg_i $end
$var wire 32 :" reg2_data_i [31:0] $end
$var wire 32 ;" reg1_data_i [31:0] $end
$var wire 32 <" pc_i [31:0] $end
$var wire 5 =" op4 [4:0] $end
$var wire 6 >" op3 [5:0] $end
$var wire 5 ?" op2 [4:0] $end
$var wire 6 @" op [5:0] $end
$var wire 1 9 mem_wreg_i $end
$var wire 32 A" mem_wdata_i [31:0] $end
$var wire 5 B" mem_wd_i [4:0] $end
$var wire 32 C" inst_i [31:0] $end
$var reg 8 D" aluop_o [7:0] $end
$var reg 3 E" alusel_o [2:0] $end
$var reg 32 F" imm [31:0] $end
$var reg 1 G" inst_valid $end
$var reg 5 H" reg1_addr_o [4:0] $end
$var reg 32 I" reg1_o [31:0] $end
$var reg 1 5 reg1_read_o $end
$var reg 5 J" reg2_addr_o [4:0] $end
$var reg 32 K" reg2_o [31:0] $end
$var reg 1 2 reg2_read_o $end
$var reg 1 0 stall_req_id $end
$var reg 5 L" wd_o [4:0] $end
$var reg 1 B wreg_o $end
$upscope $end
$scope module id_ex0 $end
$var wire 1 ! Clk $end
$var wire 1 " Rst_n $end
$var wire 8 M" id_aluop [7:0] $end
$var wire 3 N" id_alusel [2:0] $end
$var wire 32 O" id_reg1 [31:0] $end
$var wire 32 P" id_reg2 [31:0] $end
$var wire 5 Q" id_wd [4:0] $end
$var wire 1 B id_wreg $end
$var wire 6 R" stall [5:0] $end
$var reg 8 S" ex_aluop [7:0] $end
$var reg 3 T" ex_alusel [2:0] $end
$var reg 32 U" ex_reg1 [31:0] $end
$var reg 32 V" ex_reg2 [31:0] $end
$var reg 5 W" ex_wd [4:0] $end
$var reg 1 P ex_wreg $end
$upscope $end
$scope module if_id0 $end
$var wire 1 ! Clk $end
$var wire 1 " Rst_n $end
$var wire 32 X" if_inst [31:0] $end
$var wire 6 Y" stall [5:0] $end
$var wire 32 Z" if_pc [31:0] $end
$var reg 32 [" id_inst [31:0] $end
$var reg 32 \" id_pc [31:0] $end
$upscope $end
$scope module mem0 $end
$var wire 32 ]" hi_i [31:0] $end
$var wire 32 ^" lo_i [31:0] $end
$var wire 1 " rst $end
$var wire 5 _" wd_i [4:0] $end
$var wire 32 `" wdata_i [31:0] $end
$var wire 1 L whilo_i $end
$var wire 1 : wreg_i $end
$var reg 32 a" hi_o [31:0] $end
$var reg 32 b" lo_o [31:0] $end
$var reg 5 c" wd_o [4:0] $end
$var reg 32 d" wdata_o [31:0] $end
$var reg 1 ; whilo_o $end
$var reg 1 9 wreg_o $end
$upscope $end
$scope module mem_wb0 $end
$var wire 1 ! clk $end
$var wire 32 e" mem_hi_i [31:0] $end
$var wire 32 f" mem_lo_i [31:0] $end
$var wire 5 g" mem_wd [4:0] $end
$var wire 32 h" mem_wdata [31:0] $end
$var wire 1 ; mem_whilo_i $end
$var wire 1 9 mem_wreg $end
$var wire 1 " rst $end
$var wire 6 i" stall [5:0] $end
$var reg 32 j" wb_hi_o [31:0] $end
$var reg 32 k" wb_lo_o [31:0] $end
$var reg 5 l" wb_wd [4:0] $end
$var reg 32 m" wb_wdata [31:0] $end
$var reg 1 + wb_whilo_o $end
$var reg 1 * wb_wreg $end
$upscope $end
$scope module pc_reg0 $end
$var wire 1 ! Clk $end
$var wire 1 " Rst $end
$var wire 6 n" stall [5:0] $end
$var reg 1 # ce $end
$var reg 32 o" pc [31:0] $end
$upscope $end
$scope module reg_file0 $end
$var wire 1 ! Clk $end
$var wire 1 " Rst_n $end
$var wire 5 p" raddr1 [4:0] $end
$var wire 5 q" raddr2 [4:0] $end
$var wire 1 5 re1 $end
$var wire 1 2 re2 $end
$var wire 5 r" waddr [4:0] $end
$var wire 32 s" wdata [31:0] $end
$var wire 1 * we $end
$var reg 32 t" rdata1 [31:0] $end
$var reg 32 u" rdata2 [31:0] $end
$upscope $end
$upscope $end
$upscope $end
$upscope $end
$enddefinitions $end
#0
$dumpvars
b0 u"
b0 t"
bx s"
bx r"
b0 q"
b0 p"
bx o"
b0 n"
bx m"
bx l"
bx k"
bx j"
b0 i"
b0 h"
b0 g"
b0 f"
b0 e"
b0 d"
b0 c"
b0 b"
b0 a"
bx `"
bx _"
bx ^"
bx ]"
bx \"
bx ["
bx Z"
b0 Y"
bx X"
bx W"
bx V"
bx U"
bx T"
bx S"
b0 R"
b0 Q"
b0 P"
b0 O"
b0 N"
b0 M"
b0 L"
b0 K"
b0 J"
b0 I"
b0 H"
1G"
b0 F"
b0 E"
b0 D"
bx C"
b0 B"
b0 A"
bx @"
bx ?"
bx >"
bx ="
bx <"
b0 ;"
b0 :"
b0 9"
bx 8"
bx 7"
bx 6"
bx 5"
bx 4"
bx 3"
bx 2"
bx 1"
bx 0"
bx /"
bx ."
b0 -"
b0 ,"
b0 +"
bx *"
b0 )"
b0 ("
b0 '"
b0 &"
bx %"
0$"
b0 #"
b0 ""
b0 !"
b0 ~
b0 }
b0 |
bx {
b0 z
b0 y
b0 x
b0 w
b0 v
bx u
bx t
bx s
bx r
bx q
bx p
bx o
b0 n
b0 m
bx l
bx k
bx j
xi
bx h
bx g
bx f
bx e
bx d
bx c
bx b
xa
b0 `
b0 _
bx ^
bx ]
bx \
b0 [
b0 Z
bx Y
b0 X
b0 W
bx V
bx U
bx T
bx S
b0 R
0Q
xP
xO
bx N
bx M
xL
bx K
bx J
b0 I
b0 H
bx G
bx F
b0 E
b0 D
b0 C
0B
b0 A
b0 @
bx ?
b0 >
bx =
b0 <
0;
x:
09
bx 8
b0 7
b0 6
05
b0 4
b0 3
02
01
00
bx /
bx .
bx -
bx ,
x+
x*
bx )
bx (
bx '
bx &
bx %
bx $
x#
1"
0!
$end
#10000
b0 %
b0 '
b0 )
b0 X"
0O
b0 S
b0 %"
b0 *"
b0 8"
0a
b0 ="
b0 >"
b0 ?"
b0 @"
b0 p
b0 k
b0 f
b0 g
b0 l
b11111111111111111111111111111111 b
0i
0#
b0 G
b0 C"
b0 ["
b0 F
b0 <"
b0 \"
0P
b0 T
b0 c
b0 W"
b0 U
b0 h
b0 V"
b0 V
b0 j
b0 U"
b0 ]
b0 t
b0 T"
b0 ^
b0 u
b0 S"
b0 =
b0 3"
b0 `"
0:
b0 ?
b0 2"
b0 _"
b0 M
b0 1"
b0 ^"
b0 N
b0 0"
b0 ]"
0L
b0 ,
b0 m"
b0 s"
0*
b0 -
b0 l"
b0 r"
b0 .
b0 d
b0 4"
b0 k"
b0 /
b0 e
b0 5"
b0 j"
0+
b0 J
b0 o
b0 7"
b0 K
b0 r
b0 6"
1!
#20000
0!
#30000
b0 $
b0 &
b0 (
b0 8
b0 Z"
b0 o"
1!
#40000
0!
#50000
1!
#60000
0!
#70000
1!
#80000
0!
#90000
1!
#100000
0!
#110000
1!
#120000
0!
#130000
1!
#140000
0!
#150000
1!
#160000
0!
#170000
1!
#180000
0!
#190000
1!
#195000
b0 {
12
b10 H
b10 E"
b10 N"
b1111100 I
b1111100 D"
b1111100 M"
1B
1G"
0"
#200000
0!
#210000
b110100000000011111111111111111 %
b110100000000011111111111111111 '
b110100000000011111111111111111 )
b110100000000011111111111111111 X"
1O
1#
1P
b10 ]
b10 t
b10 T"
b1111100 ^
b1111100 u
b1111100 S"
b0 \
b0 s
b0 ."
b0 Y
b0 q
b0 /"
1!
#220000
0!
#230000
b1111111111111111 D
b1111111111111111 K"
b1111111111111111 P"
b1111111111111111 F"
15
19
b1 4
b1 J"
b1 q"
02
1G"
1B
b1 C
b1 L"
b1 Q"
b1 H
b1 E"
b1 N"
b100101 I
b100101 D"
b100101 M"
b10000110000000000 %
b10000110000000000 '
b10000110000000000 )
b10000110000000000 X"
b1 ="
b111111 >"
b11111 ?"
b1101 @"
1:
b110100000000011111111111111111 G
b110100000000011111111111111111 C"
b110100000000011111111111111111 ["
b100 $
b100 &
b100 (
b100 8
b100 Z"
b100 o"
1!
#240000
0!
#250000
bx 3
bx :"
bx u"
b1111111111111111 D
b1111111111111111 K"
b1111111111111111 P"
b10000 E
b10000 I"
b10000 O"
b1111111111111111 R
b1111111111111111 &"
b1111111111111111 +"
b1111111111111111 9"
12
b110100001000011111111111111011 %
b110100001000011111111111111011 '
b110100001000011111111111111011 )
b110100001000011111111111111011 X"
b10000 F"
05
1G"
1B
b10 H
b10 E"
b10 N"
b1111100 I
b1111100 D"
b1111100 M"
b1 S
b1 %"
b1 *"
b1 8"
b1111111111111111 ~
b0 >"
b10000 ?"
b0 @"
b1111111111111111 k
1i
b1111111111111111 f
b1111111111111111 g
b1000 $
b1000 &
b1000 (
b1000 8
b1000 Z"
b1000 o"
b10000110000000000 G
b10000110000000000 C"
b10000110000000000 ["
b100 F
b100 <"
b100 \"
b1 T
b1 c
b1 W"
b1111111111111111 U
b1111111111111111 h
b1111111111111111 V"
b1 ]
b1 t
b1 T"
b100101 ^
b100101 u
b100101 S"
1*
1!
#260000
0!
#270000
b11111111111111110000000000000000 E
b11111111111111110000000000000000 I"
b11111111111111110000000000000000 O"
bx 6
bx ;"
bx t"
b1111111111111011 D
b1111111111111011 K"
b1111111111111011 P"
b0 3
b0 :"
b0 u"
b11111111111111110000 ""
15
b1111111111111111 <
b1111111111111111 A"
b1111111111111111 d"
b1111111111111111 h"
b1 >
b1 B"
b1 c"
b1 g"
b11111111111111110000000000000000 R
b11111111111111110000000000000000 &"
b11111111111111110000000000000000 +"
b11111111111111110000000000000000 9"
b11111111111111110000000000000000 #"
b0 ~
b1111111111111011 F"
b1 7
b1 H"
b1 p"
02
1G"
1B
b1 C
b1 L"
b1 Q"
b1 H
b1 E"
b1 N"
b100101 I
b100101 D"
b100101 M"
b110100000000100000000000000110 %
b110100000000100000000000000110 '
b110100000000100000000000000110 )
b110100000000100000000000000110 X"
b11111111111111110000 p
b10000 l
b11111111111111111111111111101111 b
b111011 >"
b11111 ?"
b1101 @"
b1111111111111111 =
b1111111111111111 3"
b1111111111111111 `"
b1 ?
b1 2"
b1 _"
b10000000000001111 f
b10000 V
b10000 j
b10000 U"
b10 ]
b10 t
b10 T"
b1111100 ^
b1111100 u
b1111100 S"
b110100001000011111111111111011 G
b110100001000011111111111111011 C"
b110100001000011111111111111011 ["
b1000 F
b1000 <"
b1000 \"
b1100 $
b1100 &
b1100 (
b1100 8
b1100 Z"
b1100 o"
1!
#280000
0!
#290000
b110 D
b110 K"
b110 P"
b0 E
b0 I"
b0 O"
b111111111111101000000000000001010000000000000000 ""
b1000100000000000011000 %
b1000100000000000011000 '
b1000100000000000011000 )
b1000100000000000011000 X"
b110 F"
b10 4
b10 J"
b10 q"
b0 7
b0 H"
b0 p"
15
1G"
1B
b10 C
b10 L"
b10 Q"
b1 H
b1 E"
b1 N"
b100101 I
b100101 D"
b100101 M"
b11111111111111111111111111111011 R
b11111111111111111111111111111011 &"
b11111111111111111111111111111011 +"
b11111111111111111111111111111011 9"
b11111111111111111111111111111011 ~
b11111111111111110000000000000000 <
b11111111111111110000000000000000 A"
b11111111111111110000000000000000 d"
b11111111111111110000000000000000 h"
b0 6
b0 ;"
b0 t"
0a
b10 ="
b110 >"
b0 ?"
b1111111111111011 k
b1111111111111011 g
b111111111111101000000000000001010000000000000000 p
b11111111111111110000000000000000 l
0i
b1111111111111111 b
b10000 $
b10000 &
b10000 (
b10000 8
b10000 Z"
b10000 o"
b110100000000100000000000000110 G
b110100000000100000000000000110 C"
b110100000000100000000000000110 ["
b1100 F
b1100 <"
b1100 \"
b1111111111111011 U
b1111111111111011 h
b1111111111111011 V"
b11111111111111111111111111111011 f
b11111111111111110000000000000000 V
b11111111111111110000000000000000 j
b11111111111111110000000000000000 U"
b1 ]
b1 t
b1 T"
b100101 ^
b100101 u
b100101 S"
b11111111111111110000000000000000 =
b11111111111111110000000000000000 3"
b11111111111111110000000000000000 `"
b1111111111111111 ,
b1111111111111111 m"
b1111111111111111 s"
b1 -
b1 l"
b1 r"
1!
#300000
0!
#310000
bx 3
bx :"
bx u"
b110 R
b110 &"
b110 +"
b110 9"
b110 D
b110 K"
b110 P"
b11111111111111111111111111111011 E
b11111111111111111111111111111011 I"
b11111111111111111111111111111011 O"
b11111111111111110000000000000000 6
b11111111111111110000000000000000 ;"
b11111111111111110000000000000000 t"
b0 ""
12
b11111111111111111111111111111011 <
b11111111111111111111111111111011 A"
b11111111111111111111111111111011 d"
b11111111111111111111111111111011 h"
b10 S
b10 %"
b10 *"
b10 8"
b110 ~
b0 F"
b1 7
b1 H"
b1 p"
15
1G"
1B
b0 C
b0 L"
b0 Q"
b0 H
b0 E"
b0 N"
b1001101 I
b1001101 D"
b1001101 M"
b1110000001000100000000000000000 %
b1110000001000100000000000000000 '
b1110000001000100000000000000000 )
b1110000001000100000000000000000 X"
b110 k
b110 g
b0 p
b0 l
1i
b11111111111111111111111111111111 b
b11000 >"
b0 @"
b11111111111111110000000000000000 ,
b11111111111111110000000000000000 m"
b11111111111111110000000000000000 s"
b11111111111111111111111111111011 =
b11111111111111111111111111111011 3"
b11111111111111111111111111111011 `"
b10 T
b10 c
b10 W"
b110 U
b110 h
b110 V"
b110 f
b0 V
b0 j
b0 U"
b1000100000000000011000 G
b1000100000000000011000 C"
b1000100000000000011000 ["
b10000 F
b10000 <"
b10000 \"
b10100 $
b10100 &
b10100 (
b10100 8
b10100 Z"
b10100 o"
1!
#320000
0!
#330000
b11111111111111111111111111100010 W
b11111111111111111111111111100010 }
b11111111111111111111111111100010 )"
b11111111111111111111111111111111 Z
b11111111111111111111111111111111 z
b11111111111111111111111111111111 ("
b101 H
b101 E"
b101 N"
b1111111111111111111111111111111111111111111111111111111111100010 ""
b1110000001000100000000000000001 %
b1110000001000100000000000000001 '
b1110000001000100000000000000001 )
b1110000001000100000000000000001 X"
12
15
1G"
0B
b1001111 I
b1001111 D"
b1001111 M"
1Q
b0 R
b0 &"
b0 +"
b0 9"
b0 S
b0 %"
b0 *"
b0 8"
b0 ~
b110 <
b110 A"
b110 d"
b110 h"
b10 >
b10 B"
b10 c"
b10 g"
b11111111111111111111111111111011 6
b11111111111111111111111111111011 ;"
b11111111111111111111111111111011 t"
b0 >"
b11100 @"
b11110 p
b101 l
0i
b100 b
b11000 $
b11000 &
b11000 (
b11000 8
b11000 Z"
b11000 o"
b1110000001000100000000000000000 G
b1110000001000100000000000000000 C"
b1110000001000100000000000000000 ["
b10100 F
b10100 <"
b10100 \"
b0 T
b0 c
b0 W"
b1 f
b11111111111111111111111111111011 V
b11111111111111111111111111111011 j
b11111111111111111111111111111011 U"
b0 ]
b0 t
b0 T"
b1001101 ^
b1001101 u
b1001101 S"
b110 =
b110 3"
b110 `"
b10 ?
b10 2"
b10 _"
b11111111111111111111111111111011 ,
b11111111111111111111111111111011 m"
b11111111111111111111111111111011 s"
1!
#340000
0!
#350000
b1111 _
b1111 `
b1111 -"
b1111 R"
b1111 Y"
b1111 i"
b1111 n"
b11111111111111111111111111111111 v
b11111111111111111111111111100010 w
11
b11111111111111111111111111100010 @
b11111111111111111111111111100010 m
b11111111111111111111111111100010 b"
b11111111111111111111111111100010 f"
b11111111111111111111111111111111 A
b11111111111111111111111111111111 n
b11111111111111111111111111111111 a"
b11111111111111111111111111111111 e"
1;
b0 <
b0 A"
b0 d"
b0 h"
b0 >
b0 B"
b0 c"
b0 g"
b0 W
b0 }
b0 )"
b0 Z
b0 z
b0 ("
b11111111111111111111111111100010 R
b11111111111111111111111111100010 &"
b11111111111111111111111111100010 +"
b11111111111111111111111111100010 9"
0O
1$"
b1 [
b1 y
b1 '"
b1111111111111111111111111111111111111111111111111111111111100010 X
b1111111111111111111111111111111111111111111111111111111111100010 |
b1111111111111111111111111111111111111111111111111111111111100010 ,"
b110 3
b110 :"
b110 u"
12
15
1G"
b101 H
b101 E"
b101 N"
b1010000 I
b1010000 D"
b1010000 M"
b1110000001000100000000000000100 %
b1110000001000100000000000000100 '
b1110000001000100000000000000100 )
b1110000001000100000000000000100 X"
b1 >"
b110 ,
b110 m"
b110 s"
b10 -
b10 l"
b10 r"
b11111111111111111111111111100010 M
b11111111111111111111111111100010 1"
b11111111111111111111111111100010 ^"
b11111111111111111111111111111111 N
b11111111111111111111111111111111 0"
b11111111111111111111111111111111 ]"
1L
b0 =
b0 3"
b0 `"
b0 ?
b0 2"
b0 _"
0P
b101 ]
b101 t
b101 T"
b1001111 ^
b1001111 u
b1001111 S"
b1110000001000100000000000000001 G
b1110000001000100000000000000001 C"
b1110000001000100000000000000001 ["
b11000 F
b11000 <"
b11000 \"
b11100 $
b11100 &
b11100 (
b11100 8
b11100 Z"
b11100 o"
1!
#360000
0!
#370000
b0 _
b0 `
b0 -"
b0 R"
b0 Y"
b0 i"
b0 n"
b11111111111111111111111111000100 W
b11111111111111111111111111000100 }
b11111111111111111111111111000100 )"
b11111111111111111111111111111111 Z
b11111111111111111111111111111111 z
b11111111111111111111111111111111 ("
01
0$"
b1111111111111111111111111111111111111111111111111111111111000100 {
b10 [
b10 y
b10 '"
b0 X
b0 |
b0 ,"
09
b0 @
b0 m
b0 b"
b0 f"
b0 A
b0 n
b0 a"
b0 e"
0;
b1 \
b1 s
b1 ."
b1111111111111111111111111111111111111111111111111111111111100010 Y
b1111111111111111111111111111111111111111111111111111111111100010 q
b1111111111111111111111111111111111111111111111111111111111100010 /"
0:
b0 M
b0 1"
b0 ^"
b0 N
b0 0"
b0 ]"
0L
b0 ,
b0 m"
b0 s"
b0 -
b0 l"
b0 r"
b11111111111111111111111111100010 .
b11111111111111111111111111100010 d
b11111111111111111111111111100010 4"
b11111111111111111111111111100010 k"
b11111111111111111111111111111111 /
b11111111111111111111111111111111 e
b11111111111111111111111111111111 5"
b11111111111111111111111111111111 j"
1+
1!
#380000
0!
#390000
b1111 _
b1111 `
b1111 -"
b1111 R"
b1111 Y"
b1111 i"
b1111 n"
b11111111111111111111111111000100 w
b0 W
b0 }
b0 )"
b0 Z
b0 z
b0 ("
11
b11111111111111111111111111000100 @
b11111111111111111111111111000100 m
b11111111111111111111111111000100 b"
b11111111111111111111111111000100 f"
b11111111111111111111111111111111 A
b11111111111111111111111111111111 n
b11111111111111111111111111111111 a"
b11111111111111111111111111111111 e"
1;
b11111111111111111111111111100010 <
b11111111111111111111111111100010 A"
b11111111111111111111111111100010 d"
b11111111111111111111111111100010 h"
1$"
b0 {
b1 [
b1 y
b1 '"
b10111111111111111111111111111100010 X
b10111111111111111111111111111100010 |
b10111111111111111111111111111100010 ,"
b10111111111111111111111111111100010 ""
12
15
1G"
b101 H
b101 E"
b101 N"
b1010001 I
b1010001 D"
b1010001 M"
b1110000001000100000000000000101 %
b1110000001000100000000000000101 '
b1110000001000100000000000000101 )
b1110000001000100000000000000101 X"
b10111111111111111111111111111100010 p
b11111111111111111111111111111011 l
b100 >"
b11111111111111111111111111100010 J
b11111111111111111111111111100010 o
b11111111111111111111111111100010 7"
b11111111111111111111111111111111 K
b11111111111111111111111111111111 r
b11111111111111111111111111111111 6"
b0 .
b0 d
b0 4"
b0 k"
b0 /
b0 e
b0 5"
b0 j"
0+
0*
b11111111111111111111111111000100 M
b11111111111111111111111111000100 1"
b11111111111111111111111111000100 ^"
b11111111111111111111111111111111 N
b11111111111111111111111111111111 0"
b11111111111111111111111111111111 ]"
1L
b0 \
b0 s
b0 ."
b0 Y
b0 q
b0 /"
b11111111111111111111111111100010 =
b11111111111111111111111111100010 3"
b11111111111111111111111111100010 `"
b1010000 ^
b1010000 u
b1010000 S"
b1110000001000100000000000000100 G
b1110000001000100000000000000100 C"
b1110000001000100000000000000100 ["
b11100 F
b11100 <"
b11100 \"
b100000 $
b100000 &
b100000 (
b100000 8
b100000 Z"
b100000 o"
1!
#400000
0!
#410000
b0 _
b0 `
b0 -"
b0 R"
b0 Y"
b0 i"
b0 n"
b11111111111111111111111110100110 W
b11111111111111111111111110100110 }
b11111111111111111111111110100110 )"
b101 Z
b101 z
b101 ("
01
0$"
b10111111111111111111111111110100110 {
b10 [
b10 y
b10 '"
b0 X
b0 |
b0 ,"
b0 <
b0 A"
b0 d"
b0 h"
b0 @
b0 m
b0 b"
b0 f"
b0 A
b0 n
b0 a"
b0 e"
0;
b1 \
b1 s
b1 ."
b10111111111111111111111111111100010 Y
b10111111111111111111111111111100010 q
b10111111111111111111111111111100010 /"
b0 =
b0 3"
b0 `"
b0 M
b0 1"
b0 ^"
b0 N
b0 0"
b0 ]"
0L
b11111111111111111111111111100010 ,
b11111111111111111111111111100010 m"
b11111111111111111111111111100010 s"
b11111111111111111111111111000100 .
b11111111111111111111111111000100 d
b11111111111111111111111111000100 4"
b11111111111111111111111111000100 k"
b11111111111111111111111111111111 /
b11111111111111111111111111111111 e
b11111111111111111111111111111111 5"
b11111111111111111111111111111111 j"
1+
1!
#420000
0!
#430000
b1111 _
b1111 `
b1111 -"
b1111 R"
b1111 Y"
b1111 i"
b1111 n"
b101 v
b11111111111111111111111110100110 w
b0 W
b0 }
b0 )"
b0 Z
b0 z
b0 ("
11
b11111111111111111111111110100110 @
b11111111111111111111111110100110 m
b11111111111111111111111110100110 b"
b11111111111111111111111110100110 f"
b101 A
b101 n
b101 a"
b101 e"
1;
b11111111111111111111111111100010 <
b11111111111111111111111111100010 A"
b11111111111111111111111111100010 d"
b11111111111111111111111111100010 h"
b0 {
1$"
b1 [
b1 y
b1 '"
b11110 X
b11110 |
b11110 ,"
b1111111111111111111111111111111111111111111111111111111111100010 ""
12
15
1G"
b101 H
b101 E"
b101 N"
b1010010 I
b1010010 D"
b1010010 M"
bx %
bx '
bx )
bx X"
b11110 p
b101 l
b101 >"
b11111111111111111111111111000100 J
b11111111111111111111111111000100 o
b11111111111111111111111111000100 7"
b0 .
b0 d
b0 4"
b0 k"
b0 /
b0 e
b0 5"
b0 j"
0+
b0 ,
b0 m"
b0 s"
b11111111111111111111111110100110 M
b11111111111111111111111110100110 1"
b11111111111111111111111110100110 ^"
b101 N
b101 0"
b101 ]"
1L
b0 \
b0 s
b0 ."
b0 Y
b0 q
b0 /"
b11111111111111111111111111100010 =
b11111111111111111111111111100010 3"
b11111111111111111111111111100010 `"
b1010001 ^
b1010001 u
b1010001 S"
b1110000001000100000000000000101 G
b1110000001000100000000000000101 C"
b1110000001000100000000000000101 ["
b100000 F
b100000 <"
b100000 \"
b100100 $
b100100 &
b100100 (
b100100 8
b100100 Z"
b100100 o"
1!
#440000
0!
#450000
b0 _
b0 `
b0 -"
b0 R"
b0 Y"
b0 i"
b0 n"
b11111111111111111111111111000100 W
b11111111111111111111111111000100 }
b11111111111111111111111111000100 )"
b101 Z
b101 z
b101 ("
01
b10111111111111111111111111111000100 {
0$"
b10 [
b10 y
b10 '"
b0 X
b0 |
b0 ,"
b0 <
b0 A"
b0 d"
b0 h"
b0 @
b0 m
b0 b"
b0 f"
b0 A
b0 n
b0 a"
b0 e"
0;
b1 \
b1 s
b1 ."
b11110 Y
b11110 q
b11110 /"
b0 =
b0 3"
b0 `"
b0 M
b0 1"
b0 ^"
b0 N
b0 0"
b0 ]"
0L
b11111111111111111111111111100010 ,
b11111111111111111111111111100010 m"
b11111111111111111111111111100010 s"
b11111111111111111111111110100110 .
b11111111111111111111111110100110 d
b11111111111111111111111110100110 4"
b11111111111111111111111110100110 k"
b101 /
b101 e
b101 5"
b101 j"
1+
1!
#460000
0!
